<?xml version="1.0" encoding="utf-8"?>
<COLLADA xmlns="http://www.collada.org/2005/11/COLLADASchema" version="1.4.1">
<asset>
	<contributor>
		<author>Anonymous</author>
		<authoring_tool>Collada Exporter for Blender 2.6+, by Juan Linietsky (juan@codenix.com)</authoring_tool>
	</contributor>
	<created>2019-01-27T21:41:30Z</created>
	<modified>2019-01-27T21:41:30Z</modified>
	<unit meter="1.0" name="meter"/>
	<up_axis>Z_UP</up_axis>
</asset>
<library_images>
	<image id="id-image-3" name="Rock.png">
		<init_from>images/Rock.png</init_from>
	</image>
</library_images>
<library_effects>
	<effect id="id-fx-2" name="Material-fx">
		<profile_COMMON>
			<newparam sid="id-fx_surf-4">
				<surface type="2D">
					<init_from>id-image-3</init_from>
					<format>A8R8G8B8</format>
				</surface>
			</newparam>
			<newparam sid="id-fx_sampler-5">
				<sampler2D>
					<source>id-fx_surf-4</source>
				</sampler2D>
			</newparam>
			<technique sid="common">
				<blinn>
					<emission>
						<color>  0.0 0.0 0.0 1.0 </color>
					</emission>
					<ambient>
						<color>  0.0 0.0 0.0 1.0 </color>
					</ambient>
					<diffuse>
						<texture texture="id-fx_sampler-5" texcoord="CHANNEL1"/>
					</diffuse>
					<specular>
						<color>  0.5 0.5 0.5 1.0 </color>
					</specular>
					<shininess>
						<float>50</float>
					</shininess>
					<reflective>
						<color>  1.0 1.0 1.0 1.0 </color>
					</reflective>
					<index_of_refraction>
						<float>4.0</float>
					</index_of_refraction>
				</blinn>
				<extra>
					<technique profile="FCOLLADA">
					</technique>
					<technique profile="GOOGLEEARTH">
						<double_sided>0</double_sided>
					</technique>
				</extra>
			</technique>
		</profile_COMMON>
	</effect>
</library_effects>
<library_materials>
	<material id="id-material-6" name="Material">
		<instance_effect url="#id-fx-2"/>
	</material>
</library_materials>
<library_geometries>
	<geometry id="id-mesh-7" name="Cube.006">
		<mesh>
			<source id="id-mesh-7-positions">
				<float_array id="id-mesh-7-positions-array" count="1152"> -0.9467913508415222 0.40998008847236633 -0.4600895643234253 -0.8077574372291565 0.6900591850280762 -0.4029655456542969 -0.7134923338890076 0.7292736172676086 -0.8049396276473999 -0.7903183698654175 0.4382873773574829 -0.8378739356994629 0.5823214054107666 0.8598994016647339 -0.6258962750434875 0.9701321125030518 0.773672342300415 -0.7305473685264587 0.8994544148445129 0.7775675654411316 -0.960378885269165 0.5565873980522156 0.7995147705078125 -0.9110537171363831 0.9404549598693848 -0.5048114061355591 -0.5570902228355408 0.7837050557136536 -0.8660321235656738 -0.6230018138885498 0.6838569641113281 -0.7779004573822021 -0.8308141827583313 0.780243992805481 -0.4813764691352844 -0.8005625009536743 -0.4230498969554901 -0.9683833718299866 -0.28818514943122864 -0.7247247695922852 -0.9343528747558594 -0.31663650274276733 -0.770952582359314 -1.0871535539627075 -0.6979636549949646 -0.45225954055786133 -1.1131656169891357 -0.6618218421936035 0.4675920307636261 0.508593738079071 -0.9623510837554932 0.5565873980522156 0.7995147705078125 -0.9110537171363831 0.8994544148445129 0.7775675654411316 -0.960378885269165 0.952212929725647 0.5177457928657532 -0.9289865493774414 -0.4791630506515503 0.18322046101093292 0.4694671928882599 -0.5178741812705994 0.33046770095825195 0.40972912311553955 -0.6857397556304932 0.33680906891822815 0.5011420845985413 -0.70634925365448 0.18293039500713348 0.40439724922180176 -0.13680237531661987 -0.21532927453517914 0.6302365064620972 -0.33276572823524475 0.0285504050552845 0.45275989174842834 -0.6426541209220886 -0.07797377556562424 0.33270809054374695 -0.5363886952400208 -0.32571566104888916 0.3480450510978699 0.6649638414382935 -0.34074321389198303 0.391677588224411 0.5621750354766846 0.10169889032840729 0.4495105743408203 0.17265598475933075 0.07042589783668518 0.5021600723266602 0.271903932094574 -0.2870192229747772 0.461511492729187 0.45686075091362 0.41854992508888245 0.313543438911438 0.3584309220314026 0.6813979148864746 0.2817595601081848 -0.08274084329605103 0.5479671359062195 0.37451064586639404 0.03619756922125816 0.38438183069229126 0.41498416662216187 0.43353936076164246 -0.4760805070400238 -0.9354746341705322 0.4496499001979828 0.06379438191652298 -0.978776752948761 0.8521090149879456 0.021044479683041573 -0.8136798143386841 0.780243992805481 -0.4813764691352844 -0.8005625009536743 -0.41139155626296997 -0.7597951292991638 -0.8875851035118103 -0.4605342149734497 -0.05455018952488899 -0.9536449909210205 -0.06505592167377472 0.01944553479552269 -1.0272135734558105 -0.006725587882101536 -0.5212624669075012 -0.9698875546455383 -0.46655428409576416 0.47621023654937744 -0.9799558520317078 -0.4146725535392761 0.8354741930961609 -0.8791777491569519 0.00547434389591217 0.8269984126091003 -0.8515605330467224 -0.060651931911706924 0.5129883885383606 -1.0026501417160034 0.4267577528953552 -1.0117480754852295 -0.6231896877288818 -0.0008519226685166359 -0.9392910599708557 -0.47587594389915466 -0.04124106094241142 -0.8722847104072571 -0.7718161344528198 0.37539494037628174 -0.8505187630653381 -0.8660004734992981 0.6086149215698242 -0.9122979640960693 -0.09797336161136627 0.24856379628181458 -0.7926874160766602 0.04918931797146797 0.16556817293167114 -0.9029416441917419 -0.18934327363967896 0.5570729374885559 -1.032683253288269 -0.35979408025741577 -0.052544690668582916 -0.7150371670722961 0.3112373352050781 -0.35781750082969666 -0.6563948392868042 0.4031561017036438 -0.4068923592567444 -0.7030712962150574 0.17218196392059326 -0.17225585877895355 -0.7648122906684875 0.07337705790996552 1.1147586107254028 0.4766841530799866 -0.6376024484634399 0.9344531297683716 0.021410757675766945 -0.47241833806037903 0.8521090149879456 0.021044479683041573 -0.8136798143386841 0.952212929725647 0.5177457928657532 -0.9289865493774414 0.8325779438018799 0.3554672598838806 0.1005178689956665 0.7970744371414185 0.05989711731672287 0.20967887341976166 0.8636089563369751 0.055506303906440735 -0.09637076407670975 1.0296316146850586 0.40095531940460205 -0.29676467180252075 0.9424083828926086 -0.4732855260372162 0.0190846286714077 0.8774987459182739 -0.8100253343582153 -0.07800523191690445 0.8607488870620728 -0.8789818286895752 -0.3617779612541199 0.9218789935112 -0.4930746555328369 -0.2656634449958801 -0.44532203674316406 0.8107048869132996 -0.37681081891059875 0.03356315195560455 0.8094476461410522 -0.416925847530365 0.00547434389591217 0.8269984126091003 -0.8515605330467224 -0.4146725535392761 0.8354741930961609 -0.8791777491569519 -0.5621524453163147 0.3887775242328644 0.29931163787841797 -0.0627979189157486 0.6245033740997314 0.3017131984233856 0.061721209436655045 0.7138752341270447 0.045034945011138916 -0.5241949558258057 0.501738429069519 0.11871275305747986 0.36742299795150757 0.7758408784866333 0.1888665407896042 0.7033299803733826 0.6165112257003784 0.06768012046813965 0.8852515816688538 0.7023529410362244 -0.30849117040634155 0.5089476704597473 0.836358368396759 -0.18476375937461853 -0.8761574029922485 -0.491354763507843 -0.43982428312301636 -0.9153732061386108 0.0393093004822731 -0.47665852308273315 -0.7825325727462769 -0.017387771978974342 -0.826537013053894 -0.792621374130249 -0.7306339144706726 -0.8165335655212402 -0.6886026263237 -0.2870968282222748 0.2152019441127777 -0.7959391474723816 -0.05119754374027252 0.18775074183940887 -0.8818362355232239 0.028657782822847366 -0.02420947141945362 -0.6964502930641174 -0.3244105279445648 0.08758503943681717 -0.826981246471405 0.26616042852401733 0.2928175628185272 -0.7249709367752075 0.38477542996406555 0.38024669885635376 -0.7635347843170166 0.5435082912445068 0.11780783534049988 -0.9718196392059326 0.3677409291267395 0.0300033800303936 -0.7959391474723816 -0.05119754374027252 0.18775074183940887 -0.826981246471405 0.26616042852401733 0.2928175628185272 -0.9718196392059326 0.3677409291267395 0.0300033800303936 -0.8818362355232239 0.028657782822847366 -0.02420947141945362 -0.6426541209220886 -0.07797377556562424 0.33270809054374695 -0.70634925365448 0.18293039500713348 0.40439724922180176 -0.826981246471405 0.26616042852401733 0.2928175628185272 -0.7959391474723816 -0.05119754374027252 0.18775074183940887 -0.70634925365448 0.18293039500713348 0.40439724922180176 -0.6857397556304932 0.33680906891822815 0.5011420845985413 -0.7249709367752075 0.38477542996406555 0.38024669885635376 -0.826981246471405 0.26616042852401733 0.2928175628185272 -0.35781750082969666 -0.6563948392868042 0.4031561017036438 -0.6886026263237 -0.2870968282222748 0.2152019441127777 -0.6964502930641174 -0.3244105279445648 0.08758503943681717 -0.4068923592567444 -0.7030712962150574 0.17218196392059326 -0.3268888294696808 -0.5698846578598022 0.6094661355018616 -0.5363886952400208 -0.32571566104888916 0.3480450510978699 -0.6886026263237 -0.2870968282222748 0.2152019441127777 -0.35781750082969666 -0.6563948392868042 0.4031561017036438 -0.5363886952400208 -0.32571566104888916 0.3480450510978699 -0.6426541209220886 -0.07797377556562424 0.33270809054374695 -0.7959391474723816 -0.05119754374027252 0.18775074183940887 -0.6886026263237 -0.2870968282222748 0.2152019441127777 -0.7247247695922852 -0.9343528747558594 -0.31663650274276733 -0.8761574029922485 -0.491354763507843 -0.43982428312301636 -0.792621374130249 -0.7306339144706726 -0.8165335655212402 -0.770952582359314 -1.0871535539627075 -0.6979636549949646 -0.4068923592567444 -0.7030712962150574 0.17218196392059326 -0.6964502930641174 -0.3244105279445648 0.08758503943681717 -0.8761574029922485 -0.491354763507843 -0.43982428312301636 -0.7247247695922852 -0.9343528747558594 -0.31663650274276733 -0.6964502930641174 -0.3244105279445648 0.08758503943681717 -0.8818362355232239 0.028657782822847366 -0.02420947141945362 -0.9153732061386108 0.0393093004822731 -0.47665852308273315 -0.8761574029922485 -0.491354763507843 -0.43982428312301636 -0.0627979189157486 0.6245033740997314 0.3017131984233856 0.36742299795150757 0.7758408784866333 0.1888665407896042 0.5089476704597473 0.836358368396759 -0.18476375937461853 0.061721209436655045 0.7138752341270447 0.045034945011138916 -0.08274084329605103 0.5479671359062195 0.37451064586639404 0.3584309220314026 0.6813979148864746 0.2817595601081848 0.36742299795150757 0.7758408784866333 0.1888665407896042 -0.0627979189157486 0.6245033740997314 0.3017131984233856 0.3584309220314026 0.6813979148864746 0.2817595601081848 0.5996798872947693 0.5332895517349243 0.233867809176445 0.7033299803733826 0.6165112257003784 0.06768012046813965 0.36742299795150757 0.7758408784866333 0.1888665407896042 -0.7249709367752075 0.38477542996406555 0.38024669885635376 -0.5621524453163147 0.3887775242328644 0.29931163787841797 -0.5241949558258057 0.501738429069519 0.11871275305747986 -0.7635347843170166 0.5435082912445068 0.11780783534049988 -0.6857397556304932 0.33680906891822815 0.5011420845985413 -0.5178741812705994 0.33046770095825195 0.40972912311553955 -0.5621524453163147 0.3887775242328644 0.29931163787841797 -0.7249709367752075 0.38477542996406555 0.38024669885635376 -0.5178741812705994 0.33046770095825195 0.40972912311553955 -0.08274084329605103 0.5479671359062195 0.37451064586639404 -0.0627979189157486 0.6245033740997314 0.3017131984233856 -0.5621524453163147 0.3887775242328644 0.29931163787841797 -0.8077574372291565 0.6900591850280762 -0.4029655456542969 -0.44532203674316406 0.8107048869132996 -0.37681081891059875 -0.4146725535392761 0.8354741930961609 -0.8791777491569519 -0.7134923338890076 0.7292736172676086 -0.8049396276473999 -0.7635347843170166 0.5435082912445068 0.11780783534049988 -0.5241949558258057 0.501738429069519 0.11871275305747986 -0.44532203674316406 0.8107048869132996 -0.37681081891059875 -0.8077574372291565 0.6900591850280762 -0.4029655456542969 -0.5241949558258057 0.501738429069519 0.11871275305747986 0.061721209436655045 0.7138752341270447 0.045034945011138916 0.03356315195560455 0.8094476461410522 -0.416925847530365 -0.44532203674316406 0.8107048869132996 -0.37681081891059875 0.7970744371414185 0.05989711731672287 0.20967887341976166 0.9424083828926086 -0.4732855260372162 0.0190846286714077 0.9218789935112 -0.4930746555328369 -0.2656634449958801 0.8636089563369751 0.055506303906440735 -0.09637076407670975 0.7250284552574158 0.062355540692806244 0.4436456859111786 0.8937550187110901 -0.4139489531517029 0.2897854447364807 0.9424083828926086 -0.4732855260372162 0.0190846286714077 0.7970744371414185 0.05989711731672287 0.20967887341976166 0.8937550187110901 -0.4139489531517029 0.2897854447364807 0.8762866854667664 -0.7038726806640625 0.1690652072429657 0.8774987459182739 -0.8100253343582153 -0.07800523191690445 0.9424083828926086 -0.4732855260372162 0.0190846286714077 0.7033299803733826 0.6165112257003784 0.06768012046813965 0.8325779438018799 0.3554672598838806 0.1005178689956665 1.0296316146850586 0.40095531940460205 -0.29676467180252075 0.8852515816688538 0.7023529410362244 -0.30849117040634155 0.5996798872947693 0.5332895517349243 0.233867809176445 0.7275363206863403 0.35290268063545227 0.29450321197509766 0.8325779438018799 0.3554672598838806 0.1005178689956665 0.7033299803733826 0.6165112257003784 0.06768012046813965 0.7275363206863403 0.35290268063545227 0.29450321197509766 0.7250284552574158 0.062355540692806244 0.4436456859111786 0.7970744371414185 0.05989711731672287 0.20967887341976166 0.8325779438018799 0.3554672598838806 0.1005178689956665 0.9701321125030518 0.773672342300415 -0.7305473685264587 1.1147586107254028 0.4766841530799866 -0.6376024484634399 0.952212929725647 0.5177457928657532 -0.9289865493774414 0.8994544148445129 0.7775675654411316 -0.960378885269165 0.8852515816688538 0.7023529410362244 -0.30849117040634155 1.0296316146850586 0.40095531940460205 -0.29676467180252075 1.1147586107254028 0.4766841530799866 -0.6376024484634399 0.9701321125030518 0.773672342300415 -0.7305473685264587 1.0296316146850586 0.40095531940460205 -0.29676467180252075 0.8636089563369751 0.055506303906440735 -0.09637076407670975 0.9344531297683716 0.021410757675766945 -0.47241833806037903 1.1147586107254028 0.4766841530799866 -0.6376024484634399 0.24856379628181458 -0.7926874160766602 0.04918931797146797 -0.052544690668582916 -0.7150371670722961 0.3112373352050781 -0.17225585877895355 -0.7648122906684875 0.07337705790996552 0.16556817293167114 -0.9029416441917419 -0.18934327363967896 0.27781742811203003 -0.5538727641105652 0.33627697825431824 -0.006886370480060577 -0.5610542297363281 0.5802927613258362 -0.052544690668582916 -0.7150371670722961 0.3112373352050781 0.24856379628181458 -0.7926874160766602 0.04918931797146797 -0.006886370480060577 -0.5610542297363281 0.5802927613258362 -0.3268888294696808 -0.5698846578598022 0.6094661355018616 -0.35781750082969666 -0.6563948392868042 0.4031561017036438 -0.052544690668582916 -0.7150371670722961 0.3112373352050781 0.8774987459182739 -0.8100253343582153 -0.07800523191690445 0.6086149215698242 -0.9122979640960693 -0.09797336161136627 0.5570729374885559 -1.032683253288269 -0.35979408025741577 0.8607488870620728 -0.8789818286895752 -0.3617779612541199 0.8762866854667664 -0.7038726806640625 0.1690652072429657 0.6353166699409485 -0.6875690817832947 0.19041842222213745 0.6086149215698242 -0.9122979640960693 -0.09797336161136627 0.8774987459182739 -0.8100253343582153 -0.07800523191690445 0.6353166699409485 -0.6875690817832947 0.19041842222213745 0.27781742811203003 -0.5538727641105652 0.33627697825431824 0.24856379628181458 -0.7926874160766602 0.04918931797146797 0.6086149215698242 -0.9122979640960693 -0.09797336161136627 0.7837050557136536 -0.8660321235656738 -0.6230018138885498 0.4267577528953552 -1.0117480754852295 -0.6231896877288818 0.37539494037628174 -0.8505187630653381 -0.8660004734992981 0.6838569641113281 -0.7779004573822021 -0.8308141827583313 0.8607488870620728 -0.8789818286895752 -0.3617779612541199 0.5570729374885559 -1.032683253288269 -0.35979408025741577 0.4267577528953552 -1.0117480754852295 -0.6231896877288818 0.7837050557136536 -0.8660321235656738 -0.6230018138885498 0.5570729374885559 -1.032683253288269 -0.35979408025741577 0.16556817293167114 -0.9029416441917419 -0.18934327363967896 -0.0008519226685166359 -0.9392910599708557 -0.47587594389915466 0.4267577528953552 -1.0117480754852295 -0.6231896877288818 -0.4605342149734497 -0.05455018952488899 -0.9536449909210205 -0.46655428409576416 0.47621023654937744 -0.9799558520317078 -0.060651931911706924 0.5129883885383606 -1.0026501417160034 -0.06505592167377472 0.01944553479552269 -1.0272135734558105 -0.7825325727462769 -0.017387771978974342 -0.826537013053894 -0.7903183698654175 0.4382873773574829 -0.8378739356994629 -0.46655428409576416 0.47621023654937744 -0.9799558520317078 -0.4605342149734497 -0.05455018952488899 -0.9536449909210205 -0.7903183698654175 0.4382873773574829 -0.8378739356994629 -0.7134923338890076 0.7292736172676086 -0.8049396276473999 -0.4146725535392761 0.8354741930961609 -0.8791777491569519 -0.46655428409576416 0.47621023654937744 -0.9799558520317078 -0.45225954055786133 -1.1131656169891357 -0.6618218421936035 -0.41139155626296997 -0.7597951292991638 -0.8875851035118103 -0.006725587882101536 -0.5212624669075012 -0.9698875546455383 -0.04124106094241142 -0.8722847104072571 -0.7718161344528198 -0.770952582359314 -1.0871535539627075 -0.6979636549949646 -0.792621374130249 -0.7306339144706726 -0.8165335655212402 -0.41139155626296997 -0.7597951292991638 -0.8875851035118103 -0.45225954055786133 -1.1131656169891357 -0.6618218421936035 -0.792621374130249 -0.7306339144706726 -0.8165335655212402 -0.7825325727462769 -0.017387771978974342 -0.826537013053894 -0.4605342149734497 -0.05455018952488899 -0.9536449909210205 -0.41139155626296997 -0.7597951292991638 -0.8875851035118103 0.37539494037628174 -0.8505187630653381 -0.8660004734992981 0.43353936076164246 -0.4760805070400238 -0.9354746341705322 0.780243992805481 -0.4813764691352844 -0.8005625009536743 0.6838569641113281 -0.7779004573822021 -0.8308141827583313 -0.04124106094241142 -0.8722847104072571 -0.7718161344528198 -0.006725587882101536 -0.5212624669075012 -0.9698875546455383 0.43353936076164246 -0.4760805070400238 -0.9354746341705322 0.37539494037628174 -0.8505187630653381 -0.8660004734992981 -0.006725587882101536 -0.5212624669075012 -0.9698875546455383 -0.06505592167377472 0.01944553479552269 -1.0272135734558105 0.4496499001979828 0.06379438191652298 -0.978776752948761 0.43353936076164246 -0.4760805070400238 -0.9354746341705322 0.5621750354766846 0.10169889032840729 0.4495105743408203 0.45686075091362 0.41854992508888245 0.313543438911438 0.03619756922125816 0.38438183069229126 0.41498416662216187 0.17265598475933075 0.07042589783668518 0.5021600723266602 0.7250284552574158 0.062355540692806244 0.4436456859111786 0.7275363206863403 0.35290268063545227 0.29450321197509766 0.45686075091362 0.41854992508888245 0.313543438911438 0.5621750354766846 0.10169889032840729 0.4495105743408203 0.7275363206863403 0.35290268063545227 0.29450321197509766 0.5996798872947693 0.5332895517349243 0.233867809176445 0.3584309220314026 0.6813979148864746 0.2817595601081848 0.45686075091362 0.41854992508888245 0.313543438911438 0.6353166699409485 -0.6875690817832947 0.19041842222213745 0.6649638414382935 -0.34074321389198303 0.391677588224411 0.271903932094574 -0.2870192229747772 0.461511492729187 0.27781742811203003 -0.5538727641105652 0.33627697825431824 0.8762866854667664 -0.7038726806640625 0.1690652072429657 0.8937550187110901 -0.4139489531517029 0.2897854447364807 0.6649638414382935 -0.34074321389198303 0.391677588224411 0.6353166699409485 -0.6875690817832947 0.19041842222213745 0.8937550187110901 -0.4139489531517029 0.2897854447364807 0.7250284552574158 0.062355540692806244 0.4436456859111786 0.5621750354766846 0.10169889032840729 0.4495105743408203 0.6649638414382935 -0.34074321389198303 0.391677588224411 -0.006886370480060577 -0.5610542297363281 0.5802927613258362 -0.13680237531661987 -0.21532927453517914 0.6302365064620972 -0.5363886952400208 -0.32571566104888916 0.3480450510978699 -0.3268888294696808 -0.5698846578598022 0.6094661355018616 0.27781742811203003 -0.5538727641105652 0.33627697825431824 0.271903932094574 -0.2870192229747772 0.461511492729187 -0.13680237531661987 -0.21532927453517914 0.6302365064620972 -0.006886370480060577 -0.5610542297363281 0.5802927613258362 0.271903932094574 -0.2870192229747772 0.461511492729187 0.17265598475933075 0.07042589783668518 0.5021600723266602 -0.33276572823524475 0.0285504050552845 0.45275989174842834 -0.13680237531661987 -0.21532927453517914 0.6302365064620972 -0.33276572823524475 0.0285504050552845 0.45275989174842834 -0.4791630506515503 0.18322046101093292 0.4694671928882599 -0.70634925365448 0.18293039500713348 0.40439724922180176 -0.6426541209220886 -0.07797377556562424 0.33270809054374695 0.17265598475933075 0.07042589783668518 0.5021600723266602 0.03619756922125816 0.38438183069229126 0.41498416662216187 -0.4791630506515503 0.18322046101093292 0.4694671928882599 -0.33276572823524475 0.0285504050552845 0.45275989174842834 0.03619756922125816 0.38438183069229126 0.41498416662216187 -0.08274084329605103 0.5479671359062195 0.37451064586639404 -0.5178741812705994 0.33046770095825195 0.40972912311553955 -0.4791630506515503 0.18322046101093292 0.4694671928882599 0.4496499001979828 0.06379438191652298 -0.978776752948761 0.4675920307636261 0.508593738079071 -0.9623510837554932 0.952212929725647 0.5177457928657532 -0.9289865493774414 0.8521090149879456 0.021044479683041573 -0.8136798143386841 -0.06505592167377472 0.01944553479552269 -1.0272135734558105 -0.060651931911706924 0.5129883885383606 -1.0026501417160034 0.4675920307636261 0.508593738079071 -0.9623510837554932 0.4496499001979828 0.06379438191652298 -0.978776752948761 -0.060651931911706924 0.5129883885383606 -1.0026501417160034 0.00547434389591217 0.8269984126091003 -0.8515605330467224 0.5565873980522156 0.7995147705078125 -0.9110537171363831 0.4675920307636261 0.508593738079071 -0.9623510837554932 -0.0008519226685166359 -0.9392910599708557 -0.47587594389915466 -0.4230498969554901 -0.9683833718299866 -0.28818514943122864 -0.45225954055786133 -1.1131656169891357 -0.6618218421936035 -0.04124106094241142 -0.8722847104072571 -0.7718161344528198 0.16556817293167114 -0.9029416441917419 -0.18934327363967896 -0.17225585877895355 -0.7648122906684875 0.07337705790996552 -0.4230498969554901 -0.9683833718299866 -0.28818514943122864 -0.0008519226685166359 -0.9392910599708557 -0.47587594389915466 -0.17225585877895355 -0.7648122906684875 0.07337705790996552 -0.4068923592567444 -0.7030712962150574 0.17218196392059326 -0.7247247695922852 -0.9343528747558594 -0.31663650274276733 -0.4230498969554901 -0.9683833718299866 -0.28818514943122864 0.9344531297683716 0.021410757675766945 -0.47241833806037903 0.9404549598693848 -0.5048114061355591 -0.5570902228355408 0.780243992805481 -0.4813764691352844 -0.8005625009536743 0.8521090149879456 0.021044479683041573 -0.8136798143386841 0.8636089563369751 0.055506303906440735 -0.09637076407670975 0.9218789935112 -0.4930746555328369 -0.2656634449958801 0.9404549598693848 -0.5048114061355591 -0.5570902228355408 0.9344531297683716 0.021410757675766945 -0.47241833806037903 0.9218789935112 -0.4930746555328369 -0.2656634449958801 0.8607488870620728 -0.8789818286895752 -0.3617779612541199 0.7837050557136536 -0.8660321235656738 -0.6230018138885498 0.9404549598693848 -0.5048114061355591 -0.5570902228355408 0.03356315195560455 0.8094476461410522 -0.416925847530365 0.5823214054107666 0.8598994016647339 -0.6258962750434875 0.5565873980522156 0.7995147705078125 -0.9110537171363831 0.00547434389591217 0.8269984126091003 -0.8515605330467224 0.061721209436655045 0.7138752341270447 0.045034945011138916 0.5089476704597473 0.836358368396759 -0.18476375937461853 0.5823214054107666 0.8598994016647339 -0.6258962750434875 0.03356315195560455 0.8094476461410522 -0.416925847530365 0.5089476704597473 0.836358368396759 -0.18476375937461853 0.8852515816688538 0.7023529410362244 -0.30849117040634155 0.9701321125030518 0.773672342300415 -0.7305473685264587 0.5823214054107666 0.8598994016647339 -0.6258962750434875 -0.9153732061386108 0.0393093004822731 -0.47665852308273315 -0.9467913508415222 0.40998008847236633 -0.4600895643234253 -0.7903183698654175 0.4382873773574829 -0.8378739356994629 -0.7825325727462769 -0.017387771978974342 -0.826537013053894 -0.8818362355232239 0.028657782822847366 -0.02420947141945362 -0.9718196392059326 0.3677409291267395 0.0300033800303936 -0.9467913508415222 0.40998008847236633 -0.4600895643234253 -0.9153732061386108 0.0393093004822731 -0.47665852308273315 -0.9718196392059326 0.3677409291267395 0.0300033800303936 -0.7635347843170166 0.5435082912445068 0.11780783534049988 -0.8077574372291565 0.6900591850280762 -0.4029655456542969 -0.9467913508415222 0.40998008847236633 -0.4600895643234253</float_array>
				<technique_common>
				<accessor source="#id-mesh-7-positions-array" count="384" stride="3">
					<param name="X" type="float"/>
					<param name="Y" type="float"/>
					<param name="Z" type="float"/>
				</accessor>
				</technique_common>
			</source>
			<source id="id-mesh-7-normals">
				<float_array id="id-mesh-7-normals-array" count="1152"> -0.8908502459526062 0.37676727771759033 -0.25383511185646057 -0.8908502459526062 0.37676727771759033 -0.25383511185646057 -0.8908502459526062 0.37676727771759033 -0.25383511185646057 -0.8908502459526062 0.37676727771759033 -0.25383511185646057 0.11831619590520859 0.9844121336936951 -0.13013069331645966 0.11831619590520859 0.9844121336936951 -0.13013069331645966 0.11831619590520859 0.9844121336936951 -0.13013069331645966 0.11831619590520859 0.9844121336936951 -0.13013069331645966 0.8153946995735168 -0.2365616410970688 -0.528365433216095 0.8153946995735168 -0.2365616410970688 -0.528365433216095 0.8153946995735168 -0.2365616410970688 -0.528365433216095 0.8153946995735168 -0.2365616410970688 -0.528365433216095 -0.12789253890514374 -0.9182695746421814 0.3747326135635376 -0.12789253890514374 -0.9182695746421814 0.3747326135635376 -0.12789253890514374 -0.9182695746421814 0.3747326135635376 -0.12789253890514374 -0.9182695746421814 0.3747326135635376 -0.01869395188987255 0.037340566515922546 -0.9991277456283569 -0.01869395188987255 0.037340566515922546 -0.9991277456283569 -0.01869395188987255 0.037340566515922546 -0.9991277456283569 -0.01869395188987255 0.037340566515922546 -0.9991277456283569 0.06427200883626938 -0.11791766434907913 0.9909412860870361 0.06427200883626938 -0.11791766434907913 0.9909412860870361 0.06427200883626938 -0.11791766434907913 0.9909412860870361 0.06427200883626938 -0.11791766434907913 0.9909412860870361 -0.5002949833869934 0.03179765120148659 0.8652710318565369 -0.5002949833869934 0.03179765120148659 0.8652710318565369 -0.5002949833869934 0.03179765120148659 0.8652710318565369 -0.5002949833869934 0.03179765120148659 0.8652710318565369 0.15177467465400696 -0.08292838931083679 0.9849300980567932 0.15177467465400696 -0.08292838931083679 0.9849300980567932 0.15177467465400696 -0.08292838931083679 0.9849300980567932 0.15177467465400696 -0.08292838931083679 0.9849300980567932 0.167064368724823 0.24690014123916626 0.954531192779541 0.167064368724823 0.24690014123916626 0.954531192779541 0.167064368724823 0.24690014123916626 0.954531192779541 0.167064368724823 0.24690014123916626 0.954531192779541 0.366048127412796 -0.08107808232307434 -0.9270572066307068 0.366048127412796 -0.08107808232307434 -0.9270572066307068 0.366048127412796 -0.08107808232307434 -0.9270572066307068 0.366048127412796 -0.08107808232307434 -0.9270572066307068 -0.14843280613422394 -0.11012670397758484 -0.9827715754508972 -0.14843280613422394 -0.11012670397758484 -0.9827715754508972 -0.14843280613422394 -0.11012670397758484 -0.9827715754508972 -0.14843280613422394 -0.11012670397758484 -0.9827715754508972 -0.00645891297608614 0.35136497020721436 -0.9362162947654724 -0.00645891297608614 0.35136497020721436 -0.9362162947654724 -0.00645891297608614 0.35136497020721436 -0.9362162947654724 -0.00645891297608614 0.35136497020721436 -0.9362162947654724 -0.1587282419204712 -0.91852867603302 -0.36209186911582947 -0.1587282419204712 -0.91852867603302 -0.36209186911582947 -0.1587282419204712 -0.91852867603302 -0.36209186911582947 -0.1587282419204712 -0.91852867603302 -0.36209186911582947 -0.10961377620697021 -0.891156792640686 0.44025513529777527 -0.10961377620697021 -0.891156792640686 0.44025513529777527 -0.10961377620697021 -0.891156792640686 0.44025513529777527 -0.10961377620697021 -0.891156792640686 0.44025513529777527 -0.12817761301994324 -0.9612904787063599 0.2439080774784088 -0.12817761301994324 -0.9612904787063599 0.2439080774784088 -0.12817761301994324 -0.9612904787063599 0.2439080774784088 -0.12817761301994324 -0.9612904787063599 0.2439080774784088 0.8623348474502563 -0.35916367173194885 -0.3569032549858093 0.8623348474502563 -0.35916367173194885 -0.3569032549858093 0.8623348474502563 -0.35916367173194885 -0.3569032549858093 0.8623348474502563 -0.35916367173194885 -0.3569032549858093 0.9311496615409851 -0.1278253197669983 0.3414982855319977 0.9311496615409851 -0.1278253197669983 0.3414982855319977 0.9311496615409851 -0.1278253197669983 0.3414982855319977 0.9311496615409851 -0.1278253197669983 0.3414982855319977 0.9860935807228088 -0.16143865883350372 -0.03946002572774887 0.9860935807228088 -0.16143865883350372 -0.03946002572774887 0.9860935807228088 -0.16143865883350372 -0.03946002572774887 0.9860935807228088 -0.16143865883350372 -0.03946002572774887 0.011441974900662899 0.9989148378372192 0.04514778032898903 0.011441974900662899 0.9989148378372192 0.04514778032898903 0.011441974900662899 0.9989148378372192 0.04514778032898903 0.011441974900662899 0.9989148378372192 0.04514778032898903 -0.3499044179916382 0.8929619789123535 0.28317078948020935 -0.3499044179916382 0.8929619789123535 0.28317078948020935 -0.3499044179916382 0.8929619789123535 0.28317078948020935 -0.3499044179916382 0.8929619789123535 0.28317078948020935 0.45799461007118225 0.8143294453620911 0.356522798538208 0.45799461007118225 0.8143294453620911 0.356522798538208 0.45799461007118225 0.8143294453620911 0.356522798538208 0.45799461007118225 0.8143294453620911 0.356522798538208 -0.9614649415016174 -0.03279148042201996 -0.27296510338783264 -0.9614649415016174 -0.03279148042201996 -0.27296510338783264 -0.9614649415016174 -0.03279148042201996 -0.27296510338783264 -0.9614649415016174 -0.03279148042201996 -0.27296510338783264 -0.8956834077835083 -0.39850711822509766 0.1973409205675125 -0.8956834077835083 -0.39850711822509766 0.1973409205675125 -0.8956834077835083 -0.39850711822509766 0.1973409205675125 -0.8956834077835083 -0.39850711822509766 0.1973409205675125 -0.7293391227722168 0.4765789210796356 0.49085336923599243 -0.7293391227722168 0.4765789210796356 0.49085336923599243 -0.7293391227722168 0.4765789210796356 0.49085336923599243 -0.7293391227722168 0.4765789210796356 0.49085336923599243 -0.904936671257019 -0.25033804774284363 0.3441227674484253 -0.904936671257019 -0.25033804774284363 0.3441227674484253 -0.904936671257019 -0.25033804774284363 0.3441227674484253 -0.904936671257019 -0.25033804774284363 0.3441227674484253 -0.7132702469825745 -0.3091309368610382 0.6290338039398193 -0.7132702469825745 -0.3091309368610382 0.6290338039398193 -0.7132702469825745 -0.3091309368610382 0.6290338039398193 -0.7132702469825745 -0.3091309368610382 0.6290338039398193 -0.8262721300125122 -0.008843008428812027 0.5632017254829407 -0.8262721300125122 -0.008843008428812027 0.5632017254829407 -0.8262721300125122 -0.008843008428812027 0.5632017254829407 -0.8262721300125122 -0.008843008428812027 0.5632017254829407 -0.7878385186195374 -0.5600476264953613 0.25623664259910583 -0.7878385186195374 -0.5600476264953613 0.25623664259910583 -0.7878385186195374 -0.5600476264953613 0.25623664259910583 -0.7878385186195374 -0.5600476264953613 0.25623664259910583 -0.8017167448997498 -0.3524906635284424 0.48270151019096375 -0.8017167448997498 -0.3524906635284424 0.48270151019096375 -0.8017167448997498 -0.3524906635284424 0.48270151019096375 -0.8017167448997498 -0.3524906635284424 0.48270151019096375 -0.6807595491409302 -0.239413782954216 0.6922770142555237 -0.6807595491409302 -0.239413782954216 0.6922770142555237 -0.6807595491409302 -0.239413782954216 0.6922770142555237 -0.6807595491409302 -0.239413782954216 0.6922770142555237 -0.9791768789291382 -0.19592812657356262 0.05314800143241882 -0.9791768789291382 -0.19592812657356262 0.05314800143241882 -0.9791768789291382 -0.19592812657356262 0.05314800143241882 -0.9791768789291382 -0.19592812657356262 0.05314800143241882 -0.8040886521339417 -0.3020714223384857 0.5120490789413452 -0.8040886521339417 -0.3020714223384857 0.5120490789413452 -0.8040886521339417 -0.3020714223384857 0.5120490789413452 -0.8040886521339417 -0.3020714223384857 0.5120490789413452 -0.9499713778495789 -0.20126713812351227 0.23884303867816925 -0.9499713778495789 -0.20126713812351227 0.23884303867816925 -0.9499713778495789 -0.20126713812351227 0.23884303867816925 -0.9499713778495789 -0.20126713812351227 0.23884303867816925 -0.2519699037075043 0.9600213766098022 0.12194357067346573 -0.2519699037075043 0.9600213766098022 0.12194357067346573 -0.2519699037075043 0.9600213766098022 0.12194357067346573 -0.2519699037075043 0.9600213766098022 0.12194357067346573 -0.06082594022154808 0.6999144554138184 0.7116319537162781 -0.06082594022154808 0.6999144554138184 0.7116319537162781 -0.06082594022154808 0.6999144554138184 0.7116319537162781 -0.06082594022154808 0.6999144554138184 0.7116319537162781 0.5013244152069092 0.5963611006736755 0.6269187927246094 0.5013244152069092 0.5963611006736755 0.6269187927246094 0.5013244152069092 0.5963611006736755 0.6269187927246094 0.5013244152069092 0.5963611006736755 0.6269187927246094 0.18102440237998962 0.8384952545166016 0.5139609575271606 0.18102440237998962 0.8384952545166016 0.5139609575271606 0.18102440237998962 0.8384952545166016 0.5139609575271606 0.18102440237998962 0.8384952545166016 0.5139609575271606 0.19013245403766632 0.9163433313369751 0.35236966609954834 0.19013245403766632 0.9163433313369751 0.35236966609954834 0.19013245403766632 0.9163433313369751 0.35236966609954834 0.19013245403766632 0.9163433313369751 0.35236966609954834 -0.336590439081192 0.7364891767501831 0.5867627263069153 -0.336590439081192 0.7364891767501831 0.5867627263069153 -0.336590439081192 0.7364891767501831 0.5867627263069153 -0.336590439081192 0.7364891767501831 0.5867627263069153 -0.3229566514492035 0.9461501836776733 0.022332433611154556 -0.3229566514492035 0.9461501836776733 0.022332433611154556 -0.3229566514492035 0.9461501836776733 0.022332433611154556 -0.3229566514492035 0.9461501836776733 0.022332433611154556 -0.13675448298454285 0.9056893587112427 0.40127915143966675 -0.13675448298454285 0.9056893587112427 0.40127915143966675 -0.13675448298454285 0.9056893587112427 0.40127915143966675 -0.13675448298454285 0.9056893587112427 0.40127915143966675 -0.1406407505273819 0.9146503210067749 0.3789920210838318 -0.1406407505273819 0.9146503210067749 0.3789920210838318 -0.1406407505273819 0.9146503210067749 0.3789920210838318 -0.1406407505273819 0.9146503210067749 0.3789920210838318 0.9843088984489441 0.1619674414396286 0.0700187087059021 0.9843088984489441 0.1619674414396286 0.0700187087059021 0.9843088984489441 0.1619674414396286 0.0700187087059021 0.9843088984489441 0.1619674414396286 0.0700187087059021 0.9528578519821167 0.22821728885173798 0.19994671642780304 0.9528578519821167 0.22821728885173798 0.19994671642780304 0.9528578519821167 0.22821728885173798 0.19994671642780304 0.9528578519821167 0.22821728885173798 0.19994671642780304 0.9719096422195435 -0.18032853305339813 0.1512388437986374 0.9719096422195435 -0.18032853305339813 0.1512388437986374 0.9719096422195435 -0.18032853305339813 0.1512388437986374 0.9719096422195435 -0.18032853305339813 0.1512388437986374 0.7855778336524963 0.4183098077774048 0.4559433162212372 0.7855778336524963 0.4183098077774048 0.4559433162212372 0.7855778336524963 0.4183098077774048 0.4559433162212372 0.7855778336524963 0.4183098077774048 0.4559433162212372 0.6862536072731018 0.50959712266922 0.5190056562423706 0.6862536072731018 0.50959712266922 0.5190056562423706 0.6862536072731018 0.50959712266922 0.5190056562423706 0.6862536072731018 0.50959712266922 0.5190056562423706 0.9186039566993713 0.1079576388001442 0.38014718890190125 0.9186039566993713 0.1079576388001442 0.38014718890190125 0.9186039566993713 0.1079576388001442 0.38014718890190125 0.9186039566993713 0.1079576388001442 0.38014718890190125 0.8951207399368286 0.23234926164150238 -0.38049009442329407 0.8951207399368286 0.23234926164150238 -0.38049009442329407 0.8951207399368286 0.23234926164150238 -0.38049009442329407 0.8951207399368286 0.23234926164150238 -0.38049009442329407 0.8455500602722168 0.45674118399620056 0.27646422386169434 0.8455500602722168 0.45674118399620056 0.27646422386169434 0.8455500602722168 0.45674118399620056 0.27646422386169434 0.8455500602722168 0.45674118399620056 0.27646422386169434 0.9299913048744202 -0.31830036640167236 0.1838507205247879 0.9299913048744202 -0.31830036640167236 0.1838507205247879 0.9299913048744202 -0.31830036640167236 0.1838507205247879 0.9299913048744202 -0.31830036640167236 0.1838507205247879 -0.04312635585665703 -0.9413806796073914 0.33457815647125244 -0.04312635585665703 -0.9413806796073914 0.33457815647125244 -0.04312635585665703 -0.9413806796073914 0.33457815647125244 -0.04312635585665703 -0.9413806796073914 0.33457815647125244 0.34566545486450195 -0.7877722978591919 0.5098336338996887 0.34566545486450195 -0.7877722978591919 0.5098336338996887 0.34566545486450195 -0.7877722978591919 0.5098336338996887 0.34566545486450195 -0.7877722978591919 0.5098336338996887 0.015861814841628075 -0.8932217955589294 0.4493364989757538 0.015861814841628075 -0.8932217955589294 0.4493364989757538 0.015861814841628075 -0.8932217955589294 0.4493364989757538 0.015861814841628075 -0.8932217955589294 0.4493364989757538 0.3874765634536743 -0.8848707675933838 0.25858357548713684 0.3874765634536743 -0.8848707675933838 0.25858357548713684 0.3874765634536743 -0.8848707675933838 0.25858357548713684 0.3874765634536743 -0.8848707675933838 0.25858357548713684 0.1438603699207306 -0.8448870182037354 0.5152379870414734 0.1438603699207306 -0.8448870182037354 0.5152379870414734 0.1438603699207306 -0.8448870182037354 0.5152379870414734 0.1438603699207306 -0.8448870182037354 0.5152379870414734 -0.018016396090388298 -0.7777955532073975 0.6282591223716736 -0.018016396090388298 -0.7777955532073975 0.6282591223716736 -0.018016396090388298 -0.7777955532073975 0.6282591223716736 -0.018016396090388298 -0.7777955532073975 0.6282591223716736 0.28880056738853455 -0.793337881565094 -0.5359190106391907 0.28880056738853455 -0.793337881565094 -0.5359190106391907 0.28880056738853455 -0.793337881565094 -0.5359190106391907 0.28880056738853455 -0.793337881565094 -0.5359190106391907 0.4025293290615082 -0.8894248604774475 -0.2165493667125702 0.4025293290615082 -0.8894248604774475 -0.2165493667125702 0.4025293290615082 -0.8894248604774475 -0.2165493667125702 0.4025293290615082 -0.8894248604774475 -0.2165493667125702 -0.18989969789981842 -0.9731927514076233 0.12974557280540466 -0.18989969789981842 -0.9731927514076233 0.12974557280540466 -0.18989969789981842 -0.9731927514076233 0.12974557280540466 -0.18989969789981842 -0.9731927514076233 0.12974557280540466 -0.11900734901428223 -0.0018816107185557485 -0.9928916692733765 -0.11900734901428223 -0.0018816107185557485 -0.9928916692733765 -0.11900734901428223 -0.0018816107185557485 -0.9928916692733765 -0.11900734901428223 -0.0018816107185557485 -0.9928916692733765 -0.384406715631485 -0.04057898372411728 -0.9222714900970459 -0.384406715631485 -0.04057898372411728 -0.9222714900970459 -0.384406715631485 -0.04057898372411728 -0.9222714900970459 -0.384406715631485 -0.04057898372411728 -0.9222714900970459 -0.36970898509025574 0.25679901242256165 -0.8929554224014282 -0.36970898509025574 0.25679901242256165 -0.8929554224014282 -0.36970898509025574 0.25679901242256165 -0.8929554224014282 -0.36970898509025574 0.25679901242256165 -0.8929554224014282 0.10654883831739426 -0.5209798812866211 -0.8468927145004272 0.10654883831739426 -0.5209798812866211 -0.8468927145004272 0.10654883831739426 -0.5209798812866211 -0.8468927145004272 0.10654883831739426 -0.5209798812866211 -0.8468927145004272 -0.07893618941307068 -0.43333035707473755 -0.8977715969085693 -0.07893618941307068 -0.43333035707473755 -0.8977715969085693 -0.07893618941307068 -0.43333035707473755 -0.8977715969085693 -0.07893618941307068 -0.43333035707473755 -0.8977715969085693 -0.2759051024913788 -0.059040237218141556 -0.959369957447052 -0.2759051024913788 -0.059040237218141556 -0.959369957447052 -0.2759051024913788 -0.059040237218141556 -0.959369957447052 -0.2759051024913788 -0.059040237218141556 -0.959369957447052 0.2607538402080536 -0.1160803958773613 -0.958401083946228 0.2607538402080536 -0.1160803958773613 -0.958401083946228 0.2607538402080536 -0.1160803958773613 -0.958401083946228 0.2607538402080536 -0.1160803958773613 -0.958401083946228 -0.038834959268569946 -0.3413824737071991 -0.9391219019889832 -0.038834959268569946 -0.3413824737071991 -0.9391219019889832 -0.038834959268569946 -0.3413824737071991 -0.9391219019889832 -0.038834959268569946 -0.3413824737071991 -0.9391219019889832 0.09433778375387192 -0.08865439891815186 -0.9915850162506104 0.09433778375387192 -0.08865439891815186 -0.9915850162506104 0.09433778375387192 -0.08865439891815186 -0.9915850162506104 0.09433778375387192 -0.08865439891815186 -0.9915850162506104 0.1433565765619278 0.37842872738838196 0.9144619107246399 0.1433565765619278 0.37842872738838196 0.9144619107246399 0.1433565765619278 0.37842872738838196 0.9144619107246399 0.1433565765619278 0.37842872738838196 0.9144619107246399 0.15762998163700104 0.44133758544921875 0.8833876252174377 0.15762998163700104 0.44133758544921875 0.8833876252174377 0.15762998163700104 0.44133758544921875 0.8833876252174377 0.15762998163700104 0.44133758544921875 0.8833876252174377 0.2528059184551239 0.31948745250701904 0.9132453203201294 0.2528059184551239 0.31948745250701904 0.9132453203201294 0.2528059184551239 0.31948745250701904 0.9132453203201294 0.2528059184551239 0.31948745250701904 0.9132453203201294 0.13357441127300262 -0.46950212121009827 0.8727689385414124 0.13357441127300262 -0.46950212121009827 0.8727689385414124 0.13357441127300262 -0.46950212121009827 0.8727689385414124 0.13357441127300262 -0.46950212121009827 0.8727689385414124 0.14385724067687988 -0.455013245344162 0.8787878155708313 0.14385724067687988 -0.455013245344162 0.8787878155708313 0.14385724067687988 -0.455013245344162 0.8787878155708313 0.14385724067687988 -0.455013245344162 0.8787878155708313 0.21983033418655396 -0.15688705444335938 0.96284019947052 0.21983033418655396 -0.15688705444335938 0.96284019947052 0.21983033418655396 -0.15688705444335938 0.96284019947052 0.21983033418655396 -0.15688705444335938 0.96284019947052 -0.34822988510131836 0.13233038783073425 0.9280219078063965 -0.34822988510131836 0.13233038783073425 0.9280219078063965 -0.34822988510131836 0.13233038783073425 0.9280219078063965 -0.34822988510131836 0.13233038783073425 0.9280219078063965 0.4975320100784302 -0.13473199307918549 0.856918454170227 0.4975320100784302 -0.13473199307918549 0.856918454170227 0.4975320100784302 -0.13473199307918549 0.856918454170227 0.4975320100784302 -0.13473199307918549 0.856918454170227 0.133222758769989 0.2816234827041626 0.9502315521240234 0.133222758769989 0.2816234827041626 0.9502315521240234 0.133222758769989 0.2816234827041626 0.9502315521240234 0.133222758769989 0.2816234827041626 0.9502315521240234 -0.25090882182121277 -0.32109349966049194 0.9132052063941956 -0.25090882182121277 -0.32109349966049194 0.9132052063941956 -0.25090882182121277 -0.32109349966049194 0.9132052063941956 -0.25090882182121277 -0.32109349966049194 0.9132052063941956 -0.02670121379196644 0.13286902010440826 0.9907738566398621 -0.02670121379196644 0.13286902010440826 0.9907738566398621 -0.02670121379196644 0.13286902010440826 0.9907738566398621 -0.02670121379196644 0.13286902010440826 0.9907738566398621 -0.03723892197012901 0.28947359323501587 0.9564613103866577 -0.03723892197012901 0.28947359323501587 0.9564613103866577 -0.03723892197012901 0.28947359323501587 0.9564613103866577 -0.03723892197012901 0.28947359323501587 0.9564613103866577 0.21189142763614655 -0.12831871211528778 -0.9688324928283691 0.21189142763614655 -0.12831871211528778 -0.9688324928283691 0.21189142763614655 -0.12831871211528778 -0.9688324928283691 0.21189142763614655 -0.12831871211528778 -0.9688324928283691 0.08312331885099411 0.041513968259096146 -0.995674192905426 0.08312331885099411 0.041513968259096146 -0.995674192905426 0.08312331885099411 0.041513968259096146 -0.995674192905426 0.08312331885099411 0.041513968259096146 -0.995674192905426 -0.007432503625750542 0.3189810514450073 -0.9477319717407227 -0.007432503625750542 0.3189810514450073 -0.9477319717407227 -0.007432503625750542 0.3189810514450073 -0.9477319717407227 -0.007432503625750542 0.3189810514450073 -0.9477319717407227 0.3314562737941742 -0.94050133228302 0.07479251176118851 0.3314562737941742 -0.94050133228302 0.07479251176118851 0.3314562737941742 -0.94050133228302 0.07479251176118851 0.3314562737941742 -0.94050133228302 0.07479251176118851 0.05204175412654877 -0.9469757676124573 0.31706225872039795 0.05204175412654877 -0.9469757676124573 0.31706225872039795 0.05204175412654877 -0.9469757676124573 0.31706225872039795 0.05204175412654877 -0.9469757676124573 0.31706225872039795 -0.08832505345344543 -0.8616867661476135 0.4996946156024933 -0.08832505345344543 -0.8616867661476135 0.4996946156024933 -0.08832505345344543 -0.8616867661476135 0.4996946156024933 -0.08832505345344543 -0.8616867661476135 0.4996946156024933 0.9227471351623535 -0.03236803784966469 -0.384044349193573 0.9227471351623535 -0.03236803784966469 -0.384044349193573 0.9227471351623535 -0.03236803784966469 -0.384044349193573 0.9227471351623535 -0.03236803784966469 -0.384044349193573 0.991001307964325 0.028350461274385452 0.13081566989421844 0.991001307964325 0.028350461274385452 0.13081566989421844 0.991001307964325 0.028350461274385452 0.13081566989421844 0.991001307964325 0.028350461274385452 0.13081566989421844 0.9607225060462952 -0.2580043077468872 -0.102206289768219 0.9607225060462952 -0.2580043077468872 -0.102206289768219 0.9607225060462952 -0.2580043077468872 -0.102206289768219 0.9607225060462952 -0.2580043077468872 -0.102206289768219 -0.03469604626297951 0.9977834820747375 -0.05678221583366394 -0.03469604626297951 0.9977834820747375 -0.05678221583366394 -0.03469604626297951 0.9977834820747375 -0.05678221583366394 -0.03469604626297951 0.9977834820747375 -0.05678221583366394 -0.11640965938568115 0.9854122400283813 0.12414263933897018 -0.11640965938568115 0.9854122400283813 0.12414263933897018 -0.11640965938568115 0.9854122400283813 0.12414263933897018 -0.11640965938568115 0.9854122400283813 0.12414263933897018 0.317438542842865 0.9345290064811707 0.1608985960483551 0.317438542842865 0.9345290064811707 0.1608985960483551 0.317438542842865 0.9345290064811707 0.1608985960483551 0.317438542842865 0.9345290064811707 0.1608985960483551 -0.9289939999580383 -0.041745416820049286 -0.3677327334880829 -0.9289939999580383 -0.041745416820049286 -0.3677327334880829 -0.9289939999580383 -0.041745416820049286 -0.3677327334880829 -0.9289939999580383 -0.041745416820049286 -0.3677327334880829 -0.9856939315795898 -0.16854435205459595 -0.0005596366827376187 -0.9856939315795898 -0.16854435205459595 -0.0005596366827376187 -0.9856939315795898 -0.16854435205459595 -0.0005596366827376187 -0.9856939315795898 -0.16854435205459595 -0.0005596366827376187 -0.8078490495681763 0.5764139294624329 0.1229909136891365 -0.8078490495681763 0.5764139294624329 0.1229909136891365 -0.8078490495681763 0.5764139294624329 0.1229909136891365 -0.8078490495681763 0.5764139294624329 0.1229909136891365</float_array>
				<technique_common>
				<accessor source="#id-mesh-7-normals-array" count="384" stride="3">
					<param name="X" type="float"/>
					<param name="Y" type="float"/>
					<param name="Z" type="float"/>
				</accessor>
				</technique_common>
			</source>
			<vertices id="id-mesh-7-vertices">
				<input semantic="POSITION" source="#id-mesh-7-positions"/>
			</vertices>
			<polygons count="96" material="id-trimat-8">
				<input semantic="VERTEX" source="#id-mesh-7-vertices" offset="0"/>
				<input semantic="NORMAL" source="#id-mesh-7-normals" offset="0"/>
				<p> 0 1 2 3 </p>
				<p> 4 5 6 7 </p>
				<p> 8 9 10 11 </p>
				<p> 12 13 14 15 </p>
				<p> 16 17 18 19 </p>
				<p> 20 21 22 23 </p>
				<p> 24 25 26 27 </p>
				<p> 28 29 30 31 </p>
				<p> 32 33 34 35 </p>
				<p> 36 37 38 39 </p>
				<p> 40 41 42 43 </p>
				<p> 44 45 46 47 </p>
				<p> 48 49 50 51 </p>
				<p> 52 53 54 55 </p>
				<p> 56 57 58 59 </p>
				<p> 60 61 62 63 </p>
				<p> 64 65 66 67 </p>
				<p> 68 69 70 71 </p>
				<p> 72 73 74 75 </p>
				<p> 76 77 78 79 </p>
				<p> 80 81 82 83 </p>
				<p> 84 85 86 87 </p>
				<p> 88 89 90 91 </p>
				<p> 92 93 94 95 </p>
				<p> 96 97 98 99 </p>
				<p> 100 101 102 103 </p>
				<p> 104 105 106 107 </p>
				<p> 108 109 110 111 </p>
				<p> 112 113 114 115 </p>
				<p> 116 117 118 119 </p>
				<p> 120 121 122 123 </p>
				<p> 124 125 126 127 </p>
				<p> 128 129 130 131 </p>
				<p> 132 133 134 135 </p>
				<p> 136 137 138 139 </p>
				<p> 140 141 142 143 </p>
				<p> 144 145 146 147 </p>
				<p> 148 149 150 151 </p>
				<p> 152 153 154 155 </p>
				<p> 156 157 158 159 </p>
				<p> 160 161 162 163 </p>
				<p> 164 165 166 167 </p>
				<p> 168 169 170 171 </p>
				<p> 172 173 174 175 </p>
				<p> 176 177 178 179 </p>
				<p> 180 181 182 183 </p>
				<p> 184 185 186 187 </p>
				<p> 188 189 190 191 </p>
				<p> 192 193 194 195 </p>
				<p> 196 197 198 199 </p>
				<p> 200 201 202 203 </p>
				<p> 204 205 206 207 </p>
				<p> 208 209 210 211 </p>
				<p> 212 213 214 215 </p>
				<p> 216 217 218 219 </p>
				<p> 220 221 222 223 </p>
				<p> 224 225 226 227 </p>
				<p> 228 229 230 231 </p>
				<p> 232 233 234 235 </p>
				<p> 236 237 238 239 </p>
				<p> 240 241 242 243 </p>
				<p> 244 245 246 247 </p>
				<p> 248 249 250 251 </p>
				<p> 252 253 254 255 </p>
				<p> 256 257 258 259 </p>
				<p> 260 261 262 263 </p>
				<p> 264 265 266 267 </p>
				<p> 268 269 270 271 </p>
				<p> 272 273 274 275 </p>
				<p> 276 277 278 279 </p>
				<p> 280 281 282 283 </p>
				<p> 284 285 286 287 </p>
				<p> 288 289 290 291 </p>
				<p> 292 293 294 295 </p>
				<p> 296 297 298 299 </p>
				<p> 300 301 302 303 </p>
				<p> 304 305 306 307 </p>
				<p> 308 309 310 311 </p>
				<p> 312 313 314 315 </p>
				<p> 316 317 318 319 </p>
				<p> 320 321 322 323 </p>
				<p> 324 325 326 327 </p>
				<p> 328 329 330 331 </p>
				<p> 332 333 334 335 </p>
				<p> 336 337 338 339 </p>
				<p> 340 341 342 343 </p>
				<p> 344 345 346 347 </p>
				<p> 348 349 350 351 </p>
				<p> 352 353 354 355 </p>
				<p> 356 357 358 359 </p>
				<p> 360 361 362 363 </p>
				<p> 364 365 366 367 </p>
				<p> 368 369 370 371 </p>
				<p> 372 373 374 375 </p>
				<p> 376 377 378 379 </p>
				<p> 380 381 382 383 </p>
			</polygons>
		</mesh>
	</geometry>
</library_geometries>
<library_visual_scenes>
	<visual_scene id="id-scene-1" name="scene">
		<node id="Cube" name="Cube" type="NODE">
			<matrix sid="transform"> 1.5926743745803833 0.0 0.0 -0.02349257469177246 0.0 1.5926743745803833 0.0 -0.20981240272521973 0.0 0.0 1.127963900566101 1.155123233795166 0.0 0.0 0.0 1.0  </matrix>
			<instance_geometry url="#id-mesh-7">
				<bind_material>
					<technique_common>
						<instance_material symbol="id-trimat-8" target="#id-material-6"/>
					</technique_common>
				</bind_material>
			</instance_geometry>
		</node>
	</visual_scene>
</library_visual_scenes>
<scene>
	<instance_visual_scene url="#id-scene-1" />
</scene>
</COLLADA>
