<?xml version="1.0" encoding="utf-8"?>
<COLLADA xmlns="http://www.collada.org/2005/11/COLLADASchema" version="1.4.1">
<asset>
	<contributor>
		<author>Anonymous</author>
		<authoring_tool>Collada Exporter for Blender 2.6+, by Juan Linietsky (juan@codenix.com)</authoring_tool>
	</contributor>
	<created>2019-01-11T16:38:17Z</created>
	<modified>2019-01-11T16:38:17Z</modified>
	<unit meter="1.0" name="meter"/>
	<up_axis>Z_UP</up_axis>
</asset>
<library_geometries>
	<geometry id="id-mesh-2" name="Cube">
		<mesh>
			<source id="id-mesh-2-positions">
				<float_array id="id-mesh-2-positions-array" count="420"> -1.0 3.654538154602051 -1.0 -1.0 -1.0 -1.0 -1.397660732269287 -0.5033260583877563 -0.9182882308959961 -1.397660732269287 3.1578640937805176 -0.9182882308959961 -0.41659581661224365 3.654538154602051 -0.23424530029296875 0.3942912220954895 3.654538154602051 -0.23424530029296875 0.45719337463378906 3.654538154602051 -1.0 -0.39192771911621094 3.654538154602051 -1.0 1.0 3.654538154602051 -0.23424530029296875 1.0 -1.0 -0.23424530029296875 1.3854484558105469 -0.5200005769729614 -0.3132137954235077 1.3854484558105469 3.1745386123657227 -0.3132137954235077 1.0 -1.0 -0.23424530029296875 -1.0 -1.0 -0.23424530029296875 -1.0 -1.0 -1.0 1.0 -1.0 -1.0 -1.0 -1.0 -1.0 -1.0 3.654538154602051 -1.0 -0.39192771911621094 3.654538154602051 -1.0 0.45719337463378906 3.654538154602051 -1.0 1.0 3.654538154602051 -1.0 1.0 -1.0 -1.0 1.0 -1.0 -0.23424530029296875 1.0 3.654538154602051 -0.23424530029296875 0.804577112197876 3.529562473297119 -0.23424530029296875 0.804577112197876 -0.7500486373901367 -0.23424530029296875 -0.41659581661224365 3.654538154602051 -0.23424530029296875 -0.39192771911621094 3.654538154602051 -1.0 -0.27545028924942017 4.394799709320068 -0.8630673289299011 -0.26568347215652466 4.394799709320068 -0.3711779713630676 1.0 3.654538154602051 -0.23424530029296875 1.0 3.654538154602051 -1.0 0.6442794799804688 4.394125461578369 -0.8630673289299011 0.6442794799804688 4.394125461578369 -0.3711779713630676 -0.640438437461853 4.394799709320068 -0.3711779713630676 -0.26568347215652466 4.394799709320068 -0.3711779713630676 -0.27545028924942017 4.394799709320068 -0.8630673289299011 -0.640438437461853 4.394799709320068 -0.8630673289299011 -1.0 3.654538154602051 -0.23424530029296875 -0.41659581661224365 3.654538154602051 -0.23424530029296875 -0.26568347215652466 4.394799709320068 -0.3711779713630676 -0.640438437461853 4.394799709320068 -0.3711779713630676 -0.39192771911621094 3.654538154602051 -1.0 -1.0 3.654538154602051 -1.0 -0.640438437461853 4.394799709320068 -0.8630673289299011 -0.27545028924942017 4.394799709320068 -0.8630673289299011 -1.0 3.654538154602051 -1.0 -1.0 3.654538154602051 -0.23424530029296875 -0.640438437461853 4.394799709320068 -0.3711779713630676 -0.640438437461853 4.394799709320068 -0.8630673289299011 0.25519707798957825 4.394125461578369 -0.3711779713630676 0.6442794799804688 4.394125461578369 -0.3711779713630676 0.6442794799804688 4.394125461578369 -0.8630673289299011 0.2643645107746124 4.394125461578369 -0.8630673289299011 1.0 3.654538154602051 -1.0 0.45719337463378906 3.654538154602051 -1.0 0.2643645107746124 4.394125461578369 -0.8630673289299011 0.6442794799804688 4.394125461578369 -0.8630673289299011 0.45719337463378906 3.654538154602051 -1.0 0.3942912220954895 3.654538154602051 -0.23424530029296875 0.25519707798957825 4.394125461578369 -0.3711779713630676 0.2643645107746124 4.394125461578369 -0.8630673289299011 0.3942912220954895 3.654538154602051 -0.23424530029296875 1.0 3.654538154602051 -0.23424530029296875 0.6442794799804688 4.394125461578369 -0.3711779713630676 0.25519707798957825 4.394125461578369 -0.3711779713630676 -0.3362087607383728 3.529562473297119 -0.23424530029296875 -0.8060246706008911 3.529562473297119 -0.23424530029296875 -0.6883955001831055 3.3204126358032227 -0.37989479303359985 -0.2874610126018524 3.3204126358032227 -0.37989479303359985 -0.41659581661224365 3.654538154602051 -0.23424530029296875 -1.0 3.654538154602051 -0.23424530029296875 -0.8060246706008911 3.529562473297119 -0.23424530029296875 -0.3362087607383728 3.529562473297119 -0.23424530029296875 -1.0 -1.0 -0.23424530029296875 -0.8060246706008911 -0.7500486373901367 -0.23424530029296875 1.0 -1.0 -0.23424530029296875 0.804577112197876 -0.7500486373901367 -0.23424530029296875 0.3942912220954895 3.654538154602051 -0.23424530029296875 0.3167992830276489 3.529562473297119 -0.23424530029296875 1.0 3.654538154602051 -0.23424530029296875 0.804577112197876 3.529562473297119 -0.23424530029296875 0.6860701441764832 -0.33174920082092285 -0.37989479303359985 0.6860701441764832 3.3204126358032227 -0.37989479303359985 0.26980718970298767 3.3204126358032227 -0.37989479303359985 -0.2874610126018524 3.3204126358032227 -0.37989479303359985 -0.6883955001831055 3.3204126358032227 -0.37989479303359985 -0.6883955001831055 -0.33174920082092285 -0.37989479303359985 0.804577112197876 -0.7500486373901367 -0.23424530029296875 0.804577112197876 3.529562473297119 -0.23424530029296875 0.6860701441764832 3.3204126358032227 -0.37989479303359985 0.6860701441764832 -0.33174920082092285 -0.37989479303359985 -0.8060246706008911 3.529562473297119 -0.23424530029296875 -0.8060246706008911 -0.7500486373901367 -0.23424530029296875 -0.6883955001831055 -0.33174920082092285 -0.37989479303359985 -0.6883955001831055 3.3204126358032227 -0.37989479303359985 0.3167992830276489 3.529562473297119 -0.23424530029296875 -0.3362087607383728 3.529562473297119 -0.23424530029296875 -0.2874610126018524 3.3204126358032227 -0.37989479303359985 0.26980718970298767 3.3204126358032227 -0.37989479303359985 -0.8060246706008911 -0.7500486373901367 -0.23424530029296875 0.804577112197876 -0.7500486373901367 -0.23424530029296875 0.6860701441764832 -0.33174920082092285 -0.37989479303359985 -0.6883955001831055 -0.33174920082092285 -0.37989479303359985 0.804577112197876 3.529562473297119 -0.23424530029296875 0.3167992830276489 3.529562473297119 -0.23424530029296875 0.26980718970298767 3.3204126358032227 -0.37989479303359985 0.6860701441764832 3.3204126358032227 -0.37989479303359985 -1.397660732269287 -0.5033260583877563 -0.31595703959465027 -1.397660732269287 3.1578640937805176 -0.31595703959465027 -1.397660732269287 3.1578640937805176 -0.9182882308959961 -1.397660732269287 -0.5033260583877563 -0.9182882308959961 -1.0 -1.0 -0.23424530029296875 -1.0 3.654538154602051 -0.23424530029296875 -1.397660732269287 3.1578640937805176 -0.31595703959465027 -1.397660732269287 -0.5033260583877563 -0.31595703959465027 -1.0 3.654538154602051 -0.23424530029296875 -1.0 3.654538154602051 -1.0 -1.397660732269287 3.1578640937805176 -0.9182882308959961 -1.397660732269287 3.1578640937805176 -0.31595703959465027 -1.0 -1.0 -1.0 -1.0 -1.0 -0.23424530029296875 -1.397660732269287 -0.5033260583877563 -0.31595703959465027 -1.397660732269287 -0.5033260583877563 -0.9182882308959961 1.3854484558105469 3.1745386123657227 -0.3132137954235077 1.3854484558105469 -0.5200005769729614 -0.3132137954235077 1.3854484558105469 -0.5200005769729614 -0.9210314750671387 1.3854484558105469 3.1745386123657227 -0.9210314750671387 1.0 3.654538154602051 -1.0 1.0 3.654538154602051 -0.23424530029296875 1.3854484558105469 3.1745386123657227 -0.3132137954235077 1.3854484558105469 3.1745386123657227 -0.9210314750671387 1.0 -1.0 -0.23424530029296875 1.0 -1.0 -1.0 1.3854484558105469 -0.5200005769729614 -0.9210314750671387 1.3854484558105469 -0.5200005769729614 -0.3132137954235077 1.0 -1.0 -1.0 1.0 3.654538154602051 -1.0 1.3854484558105469 3.1745386123657227 -0.9210314750671387 1.3854484558105469 -0.5200005769729614 -0.9210314750671387</float_array>
				<technique_common>
				<accessor source="#id-mesh-2-positions-array" count="140" stride="3">
					<param name="X" type="float"/>
					<param name="Y" type="float"/>
					<param name="Z" type="float"/>
				</accessor>
				</technique_common>
			</source>
			<source id="id-mesh-2-normals">
				<float_array id="id-mesh-2-normals-array" count="420"> -0.20127588510513306 0.0 -0.9795345664024353 -0.20127588510513306 0.0 -0.9795345664024353 -0.20127588510513306 0.0 -0.9795345664024353 -0.20127588510513306 0.0 -0.9795345664024353 0.0 1.0 0.0 0.0 1.0 0.0 0.0 1.0 0.0 0.0 1.0 0.0 0.20070545375347137 0.0 0.9796515703201294 0.20070545375347137 0.0 0.9796515703201294 0.20070545375347137 0.0 0.9796515703201294 0.20070545375347137 0.0 0.9796515703201294 0.0 -0.9999999403953552 0.0 0.0 -0.9999999403953552 0.0 0.0 -0.9999999403953552 0.0 0.0 -0.9999999403953552 0.0 0.0 0.0 -1.0 0.0 0.0 -1.0 0.0 0.0 -1.0 0.0 0.0 -1.0 0.0 0.0 -1.0 0.0 0.0 -1.0 0.0 0.0 0.9999999403953552 0.0 0.0 0.9999999403953552 0.0 0.0 0.9999999403953552 0.0 0.0 0.9999999403953552 0.9840124845504761 -0.1777174472808838 0.011659162119030952 0.9840124845504761 -0.1777174472808838 0.011659162119030952 0.9840124845504761 -0.1777174472808838 0.011659162119030952 0.9840124845504761 -0.1777174472808838 0.011659162119030952 0.901181161403656 0.43344250321388245 0.0 0.901181161403656 0.43344250321388245 0.0 0.901181161403656 0.43344250321388245 0.0 0.901181161403656 0.43344250321388245 0.0 0.0 0.9999999403953552 0.0 0.0 0.9999999403953552 0.0 0.0 0.9999999403953552 0.0 0.0 0.9999999403953552 0.0 0.0 0.18189308047294617 0.9833183288574219 0.0 0.18189308047294617 0.9833183288574219 0.0 0.18189308047294617 0.9833183288574219 0.0 0.18189308047294617 0.9833183288574219 0.0 0.18189305067062378 -0.9833183288574219 0.0 0.18189305067062378 -0.9833183288574219 0.0 0.18189305067062378 -0.9833183288574219 0.0 0.18189305067062378 -0.9833183288574219 -0.8995053768157959 0.4369097948074341 0.0 -0.8995053768157959 0.4369097948074341 0.0 -0.8995053768157959 0.4369097948074341 0.0 -0.8995053768157959 0.4369097948074341 0.0 0.0 1.0 0.0 0.0 1.0 0.0 0.0 1.0 0.0 0.0 1.0 0.0 0.0 0.1820533573627472 -0.9832886457443237 0.0 0.1820533573627472 -0.9832886457443237 0.0 0.1820533573627472 -0.9832886457443237 0.0 0.1820533573627472 -0.9832886457443237 -0.974213719367981 -0.21861107647418976 -0.055827487260103226 -0.974213719367981 -0.21861107647418976 -0.055827487260103226 -0.974213719367981 -0.21861107647418976 -0.055827487260103226 -0.974213719367981 -0.21861107647418976 -0.055827487260103226 0.0 0.1820533573627472 0.9832887053489685 0.0 0.1820533573627472 0.9832887053489685 0.0 0.1820533573627472 0.9832887053489685 0.0 0.1820533573627472 0.9832887053489685 0.0 -0.5714712142944336 0.8206221461296082 0.0 -0.5714712142944336 0.8206221461296082 0.0 -0.5714712142944336 0.8206221461296082 0.0 -0.5714712142944336 0.8206221461296082 0.0 0.0 1.0 0.0 0.0 1.0 0.0 0.0 1.0 0.0 0.0 1.0 0.0 0.0 1.0 0.0 0.0 1.0 0.0 0.0 1.0 0.0 0.0 1.0 0.0 0.0 1.0 0.0 0.0 1.0 0.0 0.0 1.0 0.0 0.0 1.0 0.0 0.0 1.0 0.0 0.0 1.0 0.0 0.0 1.0 0.0 0.0 1.0 0.0 0.0 1.0 0.0 0.0 1.0 -0.7756791710853577 0.0 0.6311274766921997 -0.7756791710853577 0.0 0.6311274766921997 -0.7756791710853577 0.0 0.6311274766921997 -0.7756791710853577 0.0 0.6311274766921997 0.7779693007469177 0.0 0.6283022165298462 0.7779693007469177 0.0 0.6283022165298462 0.7779693007469177 0.0 0.6283022165298462 0.7779693007469177 0.0 0.6283022165298462 0.0 -0.5714715719223022 0.8206217885017395 0.0 -0.5714715719223022 0.8206217885017395 0.0 -0.5714715719223022 0.8206217885017395 0.0 -0.5714715719223022 0.8206217885017395 0.0 0.32883086800575256 0.9443888664245605 0.0 0.32883086800575256 0.9443888664245605 0.0 0.32883086800575256 0.9443888664245605 0.0 0.32883086800575256 0.9443888664245605 0.0 -0.5714709758758545 0.8206223249435425 0.0 -0.5714709758758545 0.8206223249435425 0.0 -0.5714709758758545 0.8206223249435425 0.0 -0.5714709758758545 0.8206223249435425 -1.0 0.0 0.0 -1.0 0.0 0.0 -1.0 0.0 0.0 -1.0 0.0 0.0 -0.2012758105993271 0.0 0.9795345664024353 -0.2012758105993271 0.0 0.9795345664024353 -0.2012758105993271 0.0 0.9795345664024353 -0.2012758105993271 0.0 0.9795345664024353 -0.7806222438812256 0.6250029802322388 0.0 -0.7806222438812256 0.6250029802322388 0.0 -0.7806222438812256 0.6250029802322388 0.0 -0.7806222438812256 0.6250029802322388 0.0 -0.7806222438812256 -0.6250032186508179 0.0 -0.7806222438812256 -0.6250032186508179 0.0 -0.7806222438812256 -0.6250032186508179 0.0 -0.7806222438812256 -0.6250032186508179 0.0 1.0 0.0 0.0 1.0 0.0 0.0 1.0 0.0 0.0 1.0 0.0 0.0 0.7797194719314575 0.6261289715766907 0.0 0.7797194719314575 0.6261289715766907 0.0 0.7797194719314575 0.6261289715766907 0.0 0.7797194719314575 0.6261289715766907 0.0 0.7797194123268127 -0.6261290907859802 0.0 0.7797194123268127 -0.6261290907859802 0.0 0.7797194123268127 -0.6261290907859802 0.0 0.7797194123268127 -0.6261290907859802 0.0 0.20070548355579376 0.0 -0.9796515703201294 0.20070548355579376 0.0 -0.9796515703201294 0.20070548355579376 0.0 -0.9796515703201294 0.20070548355579376 0.0 -0.9796515703201294</float_array>
				<technique_common>
				<accessor source="#id-mesh-2-normals-array" count="140" stride="3">
					<param name="X" type="float"/>
					<param name="Y" type="float"/>
					<param name="Z" type="float"/>
				</accessor>
				</technique_common>
			</source>
			<vertices id="id-mesh-2-vertices">
				<input semantic="POSITION" source="#id-mesh-2-positions"/>
			</vertices>
			<polygons count="36">
				<input semantic="VERTEX" source="#id-mesh-2-vertices" offset="0"/>
				<input semantic="NORMAL" source="#id-mesh-2-normals" offset="0"/>
				<p> 0 1 2 3 </p>
				<p> 4 5 6 7 </p>
				<p> 8 9 10 11 </p>
				<p> 12 13 14 15 </p>
				<p> 16 17 18 19 20 21 </p>
				<p> 22 23 24 25 </p>
				<p> 26 27 28 29 </p>
				<p> 30 31 32 33 </p>
				<p> 34 35 36 37 </p>
				<p> 38 39 40 41 </p>
				<p> 42 43 44 45 </p>
				<p> 46 47 48 49 </p>
				<p> 50 51 52 53 </p>
				<p> 54 55 56 57 </p>
				<p> 58 59 60 61 </p>
				<p> 62 63 64 65 </p>
				<p> 66 67 68 69 </p>
				<p> 70 71 72 73 </p>
				<p> 71 74 75 72 </p>
				<p> 74 76 77 75 </p>
				<p> 78 70 73 79 </p>
				<p> 80 78 79 81 </p>
				<p> 82 83 84 85 86 87 </p>
				<p> 88 89 90 91 </p>
				<p> 92 93 94 95 </p>
				<p> 96 97 98 99 </p>
				<p> 100 101 102 103 </p>
				<p> 104 105 106 107 </p>
				<p> 108 109 110 111 </p>
				<p> 112 113 114 115 </p>
				<p> 116 117 118 119 </p>
				<p> 120 121 122 123 </p>
				<p> 124 125 126 127 </p>
				<p> 128 129 130 131 </p>
				<p> 132 133 134 135 </p>
				<p> 136 137 138 139 </p>
			</polygons>
		</mesh>
	</geometry>
	<geometry id="id-mesh-3" name="Cube.002">
		<mesh>
			<source id="id-mesh-3-positions">
				<float_array id="id-mesh-3-positions-array" count="156"> -0.8752109408378601 -1.0 1.0 -0.8752109408378601 1.0 1.0 -0.8752109408378601 1.0 -1.0 -0.8752109408378601 -1.0 -1.0 -0.8752109408378601 1.0 1.0 0.8752109408378601 1.0 1.0 0.8752109408378601 1.0 -1.0 -0.8752109408378601 1.0 -1.0 0.8752109408378601 1.0 1.0 0.8752109408378601 -1.0 1.0 0.8752109408378601 -1.0 -1.0 0.8752109408378601 1.0 -1.0 0.8752109408378601 -1.0 1.0 -0.8752109408378601 -1.0 1.0 -1.208141803741455 -1.5717687606811523 1.0 1.208141803741455 -1.5717687606811523 1.0 -0.8752109408378601 -1.0 -1.0 -0.8752109408378601 1.0 -1.0 0.8752109408378601 1.0 -1.0 0.8752109408378601 -1.0 -1.0 0.8752109408378601 1.0 1.0 -0.8752109408378601 1.0 1.0 -1.208141803741455 -2.572373867034912 1.0 1.208141803741455 -2.572373867034912 1.0 0.8752109408378601 -1.0 -1.0 0.8752109408378601 -1.0 1.0 1.208141803741455 -1.5717687606811523 1.0 1.208141803741455 -1.5717687606811523 -2.0782761573791504 -0.8752109408378601 -1.0 1.0 -0.8752109408378601 -1.0 -1.0 -1.208141803741455 -1.5717687606811523 -2.0782761573791504 -1.208141803741455 -1.5717687606811523 1.0 -0.8752109408378601 -1.0 -1.0 0.8752109408378601 -1.0 -1.0 1.208141803741455 -1.5717687606811523 -2.0782761573791504 -1.208141803741455 -1.5717687606811523 -2.0782761573791504 1.208141803741455 -2.572373867034912 1.0 -1.208141803741455 -2.572373867034912 1.0 -1.208141803741455 -2.572373867034912 -2.0782761573791504 1.208141803741455 -2.572373867034912 -2.0782761573791504 -1.208141803741455 -1.5717687606811523 1.0 -1.208141803741455 -1.5717687606811523 -2.0782761573791504 -1.208141803741455 -2.572373867034912 -2.0782761573791504 -1.208141803741455 -2.572373867034912 1.0 -1.208141803741455 -1.5717687606811523 -2.0782761573791504 1.208141803741455 -1.5717687606811523 -2.0782761573791504 1.208141803741455 -2.572373867034912 -2.0782761573791504 -1.208141803741455 -2.572373867034912 -2.0782761573791504 1.208141803741455 -1.5717687606811523 -2.0782761573791504 1.208141803741455 -1.5717687606811523 1.0 1.208141803741455 -2.572373867034912 1.0 1.208141803741455 -2.572373867034912 -2.0782761573791504</float_array>
				<technique_common>
				<accessor source="#id-mesh-3-positions-array" count="52" stride="3">
					<param name="X" type="float"/>
					<param name="Y" type="float"/>
					<param name="Z" type="float"/>
				</accessor>
				</technique_common>
			</source>
			<source id="id-mesh-3-normals">
				<float_array id="id-mesh-3-normals-array" count="156"> -1.0 0.0 0.0 -1.0 0.0 0.0 -1.0 0.0 0.0 -1.0 0.0 0.0 0.0 1.0 0.0 0.0 1.0 0.0 0.0 1.0 0.0 0.0 1.0 0.0 1.0 0.0 0.0 1.0 0.0 0.0 1.0 0.0 0.0 1.0 0.0 0.0 0.0 0.0 1.0 0.0 0.0 1.0 0.0 0.0 1.0 0.0 0.0 1.0 0.0 0.0 -1.0 0.0 0.0 -1.0 0.0 0.0 -1.0 0.0 0.0 -1.0 0.0 0.0 1.0 0.0 0.0 1.0 0.0 0.0 1.0 0.0 0.0 1.0 0.864173948764801 0.503193199634552 0.0 0.864173948764801 0.503193199634552 0.0 0.864173948764801 0.503193199634552 0.0 0.864173948764801 0.503193199634552 0.0 -0.864173948764801 0.503193199634552 0.0 -0.864173948764801 0.503193199634552 0.0 -0.864173948764801 0.503193199634552 0.0 -0.864173948764801 0.503193199634552 0.0 0.0 0.8834772109985352 -0.46847426891326904 0.0 0.8834772109985352 -0.46847426891326904 0.0 0.8834772109985352 -0.46847426891326904 0.0 0.8834772109985352 -0.46847426891326904 0.0 -1.0 0.0 0.0 -1.0 0.0 0.0 -1.0 0.0 0.0 -1.0 0.0 -1.0 0.0 0.0 -1.0 0.0 0.0 -1.0 0.0 0.0 -1.0 0.0 0.0 0.0 0.0 -1.0 0.0 0.0 -1.0 0.0 0.0 -1.0 0.0 0.0 -1.0 1.0 0.0 0.0 1.0 0.0 0.0 1.0 0.0 0.0 1.0 0.0 0.0</float_array>
				<technique_common>
				<accessor source="#id-mesh-3-normals-array" count="52" stride="3">
					<param name="X" type="float"/>
					<param name="Y" type="float"/>
					<param name="Z" type="float"/>
				</accessor>
				</technique_common>
			</source>
			<vertices id="id-mesh-3-vertices">
				<input semantic="POSITION" source="#id-mesh-3-positions"/>
			</vertices>
			<polygons count="14">
				<input semantic="VERTEX" source="#id-mesh-3-vertices" offset="0"/>
				<input semantic="NORMAL" source="#id-mesh-3-normals" offset="0"/>
				<p> 0 1 2 3 </p>
				<p> 4 5 6 7 </p>
				<p> 8 9 10 11 </p>
				<p> 12 13 14 15 </p>
				<p> 16 17 18 19 </p>
				<p> 12 20 21 13 </p>
				<p> 15 14 22 23 </p>
				<p> 24 25 26 27 </p>
				<p> 28 29 30 31 </p>
				<p> 32 33 34 35 </p>
				<p> 36 37 38 39 </p>
				<p> 40 41 42 43 </p>
				<p> 44 45 46 47 </p>
				<p> 48 49 50 51 </p>
			</polygons>
		</mesh>
	</geometry>
	<geometry id="id-mesh-4" name="Cube.003">
		<mesh>
			<source id="id-mesh-4-positions">
				<float_array id="id-mesh-4-positions-array" count="72"> -1.0 -1.0 1.0 -1.0 1.0 1.0 -0.6206303238868713 0.6206303238868713 -1.0 -0.6206303238868713 -0.6206303238868713 -1.0 -1.0 1.0 1.0 1.0 1.0 1.0 0.6206303238868713 0.6206303238868713 -1.0 -0.6206303238868713 0.6206303238868713 -1.0 1.0 1.0 1.0 1.0 -1.0 1.0 0.6206303238868713 -0.6206303238868713 -1.0 0.6206303238868713 0.6206303238868713 -1.0 1.0 -1.0 1.0 -1.0 -1.0 1.0 -0.6206303238868713 -0.6206303238868713 -1.0 0.6206303238868713 -0.6206303238868713 -1.0 -0.6206303238868713 -0.6206303238868713 -1.0 -0.6206303238868713 0.6206303238868713 -1.0 0.6206303238868713 0.6206303238868713 -1.0 0.6206303238868713 -0.6206303238868713 -1.0 1.0 -1.0 1.0 1.0 1.0 1.0 -1.0 1.0 1.0 -1.0 -1.0 1.0</float_array>
				<technique_common>
				<accessor source="#id-mesh-4-positions-array" count="24" stride="3">
					<param name="X" type="float"/>
					<param name="Y" type="float"/>
					<param name="Z" type="float"/>
				</accessor>
				</technique_common>
			</source>
			<source id="id-mesh-4-normals">
				<float_array id="id-mesh-4-normals-array" count="72"> -0.9824811816215515 0.0 -0.18636178970336914 -0.9824811816215515 0.0 -0.18636178970336914 -0.9824811816215515 0.0 -0.18636178970336914 -0.9824811816215515 0.0 -0.18636178970336914 0.0 0.9824811816215515 -0.18636175990104675 0.0 0.9824811816215515 -0.18636175990104675 0.0 0.9824811816215515 -0.18636175990104675 0.0 0.9824811816215515 -0.18636175990104675 0.9824811816215515 0.0 -0.18636178970336914 0.9824811816215515 0.0 -0.18636178970336914 0.9824811816215515 0.0 -0.18636178970336914 0.9824811816215515 0.0 -0.18636178970336914 0.0 -0.9824811816215515 -0.18636175990104675 0.0 -0.9824811816215515 -0.18636175990104675 0.0 -0.9824811816215515 -0.18636175990104675 0.0 -0.9824811816215515 -0.18636175990104675 0.0 0.0 -1.0 0.0 0.0 -1.0 0.0 0.0 -1.0 0.0 0.0 -1.0 0.0 0.0 1.0 0.0 0.0 1.0 0.0 0.0 1.0 0.0 0.0 1.0</float_array>
				<technique_common>
				<accessor source="#id-mesh-4-normals-array" count="24" stride="3">
					<param name="X" type="float"/>
					<param name="Y" type="float"/>
					<param name="Z" type="float"/>
				</accessor>
				</technique_common>
			</source>
			<vertices id="id-mesh-4-vertices">
				<input semantic="POSITION" source="#id-mesh-4-positions"/>
			</vertices>
			<polygons count="6">
				<input semantic="VERTEX" source="#id-mesh-4-vertices" offset="0"/>
				<input semantic="NORMAL" source="#id-mesh-4-normals" offset="0"/>
				<p> 0 1 2 3 </p>
				<p> 4 5 6 7 </p>
				<p> 8 9 10 11 </p>
				<p> 12 13 14 15 </p>
				<p> 16 17 18 19 </p>
				<p> 20 21 22 23 </p>
			</polygons>
		</mesh>
	</geometry>
	<geometry id="id-mesh-5" name="Cube.005">
		<mesh>
			<source id="id-mesh-5-positions">
				<float_array id="id-mesh-5-positions-array" count="576"> -1.0 -1.0 1.0 -1.0 1.0 1.0 -1.0 1.0 -1.0 -1.0 -1.0 -1.0 1.0 1.0 -1.0 -1.0 1.0 -1.0 -1.0 2.2179746627807617 -1.0 1.0 2.2179746627807617 -1.0 1.0 1.0 1.0 1.0 -1.0 1.0 1.0 -1.0 -1.0 1.0 1.0 -1.0 -1.0 -2.0736777782440186 -0.7945659160614014 -1.0 -2.0736777782440186 -0.004315882921218872 -1.0 -1.0 -1.0 1.0 -1.0 -1.0 1.0 -1.0 1.0 1.0 1.0 1.0 -1.0 1.0 1.0 -1.0 -1.0 1.0 1.0 -2.0736777782440186 -0.004315882921218872 -1.0 -2.0736777782440186 -0.004315882921218872 -1.0 -2.0736777782440186 -0.7945659160614014 1.0 -2.0736777782440186 -0.7945659160614014 -1.0 -1.0 -1.0 1.0 -1.0 -1.0 1.0 -2.0736777782440186 -0.7945659160614014 -1.0 -2.0736777782440186 -0.7945659160614014 1.0 -1.0 1.0 -1.0 -1.0 1.0 -1.0 -2.0736777782440186 -0.004315882921218872 1.0 -2.0736777782440186 -0.004315882921218872 1.0 -2.0736777782440186 -0.004315882921218872 1.0 -2.0736777782440186 -0.7945659160614014 1.0 2.2179746627807617 0.5076826810836792 1.0 2.2179746627807617 -1.0 1.0 3.473639488220215 -1.0 1.0 3.473639488220215 0.5076826810836792 -1.0 1.0 1.0 1.0 1.0 1.0 1.0 2.2179746627807617 0.5076826810836792 -1.0 2.2179746627807617 0.5076826810836792 -1.0 1.0 -1.0 -1.0 1.0 1.0 -1.0 2.2179746627807617 0.5076826810836792 -1.0 2.2179746627807617 -1.0 1.0 1.0 1.0 1.0 1.0 -1.0 1.0 2.2179746627807617 -1.0 1.0 2.2179746627807617 0.5076826810836792 1.0 3.473639488220215 0.5076826810836792 1.0 3.473639488220215 -1.0 1.3470845222473145 4.278417587280273 -1.2616467475891113 1.3470845222473145 4.278417587280273 0.7693293690681458 -1.0 2.2179746627807617 -1.0 -1.0 2.2179746627807617 0.5076826810836792 -1.0 3.473639488220215 0.5076826810836792 -1.0 3.473639488220215 -1.0 -1.0 3.473639488220215 -1.0 1.0 3.473639488220215 -1.0 -1.0 2.2179746627807617 0.5076826810836792 1.0 2.2179746627807617 0.5076826810836792 1.0 3.473639488220215 0.5076826810836792 -1.0 3.473639488220215 0.5076826810836792 1.3470845222473145 4.278417587280273 -1.2616467475891113 -1.3470845222473145 4.278417587280273 -1.2616467475891113 -1.3470845222473145 6.712029933929443 -1.2616467475891113 1.3470845222473145 6.712029933929443 -1.2616467475891113 -1.0 3.473639488220215 -1.0 -1.0 3.473639488220215 0.5076826810836792 -1.3470845222473145 4.278417587280273 0.7693293690681458 -1.3470845222473145 4.278417587280273 -1.2616467475891113 1.0 3.473639488220215 -1.0 -1.0 3.473639488220215 -1.0 -1.3470845222473145 4.278417587280273 -1.2616467475891113 1.3470845222473145 4.278417587280273 -1.2616467475891113 -1.0 3.473639488220215 0.5076826810836792 1.0 3.473639488220215 0.5076826810836792 1.3470845222473145 4.278417587280273 0.7693293690681458 -1.3470845222473145 4.278417587280273 0.7693293690681458 1.3470845222473145 6.712029933929443 0.7693293690681458 1.3470845222473145 6.712029933929443 -1.2616467475891113 0.8861885070800781 7.4753217697143555 -0.9142042398452759 0.8861885070800781 7.4753217697143555 0.4218868315219879 -1.3470845222473145 4.278417587280273 0.7693293690681458 1.3470845222473145 4.278417587280273 0.7693293690681458 1.3470845222473145 6.712029933929443 0.7693293690681458 -1.3470845222473145 6.712029933929443 0.7693293690681458 1.3470845222473145 4.278417587280273 0.7693293690681458 1.3470845222473145 4.278417587280273 -1.2616467475891113 1.3470845222473145 6.712029933929443 -1.2616467475891113 1.3470845222473145 6.712029933929443 0.7693293690681458 -1.3470845222473145 4.278417587280273 -1.2616467475891113 -1.3470845222473145 4.278417587280273 0.7693293690681458 -1.3470845222473145 6.712029933929443 0.7693293690681458 -1.3470845222473145 6.712029933929443 -1.2616467475891113 -0.8861885070800781 7.4753217697143555 -0.9142042398452759 -0.8861885070800781 7.4753217697143555 0.4218868315219879 -0.8861885070800781 9.781091690063477 0.4218868315219879 -0.8861885070800781 9.781091690063477 -0.9142042398452759 -1.3470845222473145 6.712029933929443 -1.2616467475891113 -1.3470845222473145 6.712029933929443 0.7693293690681458 -0.8861885070800781 7.4753217697143555 0.4218868315219879 -0.8861885070800781 7.4753217697143555 -0.9142042398452759 1.3470845222473145 6.712029933929443 -1.2616467475891113 -1.3470845222473145 6.712029933929443 -1.2616467475891113 -0.8861885070800781 7.4753217697143555 -0.9142042398452759 0.8861885070800781 7.4753217697143555 -0.9142042398452759 -1.3470845222473145 6.712029933929443 0.7693293690681458 1.3470845222473145 6.712029933929443 0.7693293690681458 0.8861885070800781 7.4753217697143555 0.4218868315219879 -0.8861885070800781 7.4753217697143555 0.4218868315219879 0.8861885070800781 9.781091690063477 -0.9142042398452759 -0.8861885070800781 9.781091690063477 -0.9142042398452759 -1.2333667278289795 10.216941833496094 -1.1759216785430908 1.2333667278289795 10.216941833496094 -1.1759216785430908 0.8861885070800781 7.4753217697143555 -0.9142042398452759 -0.8861885070800781 7.4753217697143555 -0.9142042398452759 -0.8861885070800781 9.781091690063477 -0.9142042398452759 0.8861885070800781 9.781091690063477 -0.9142042398452759 -0.8861885070800781 7.4753217697143555 0.4218868315219879 0.8861885070800781 7.4753217697143555 0.4218868315219879 0.8861885070800781 9.781091690063477 0.4218868315219879 -0.8861885070800781 9.781091690063477 0.4218868315219879 0.8861885070800781 7.4753217697143555 0.4218868315219879 0.8861885070800781 7.4753217697143555 -0.9142042398452759 0.8861885070800781 9.781091690063477 -0.9142042398452759 0.8861885070800781 9.781091690063477 0.4218868315219879 1.2333667278289795 10.216941833496094 0.6836042404174805 1.2333667278289795 10.216941833496094 -1.1759216785430908 1.2333667278289795 10.961828231811523 -1.1759216785430908 1.2333667278289795 12.158672332763672 0.6836042404174805 -0.8861885070800781 9.781091690063477 0.4218868315219879 0.8861885070800781 9.781091690063477 0.4218868315219879 1.2333667278289795 10.216941833496094 0.6836042404174805 -1.2333667278289795 10.216941833496094 0.6836042404174805 0.8861885070800781 9.781091690063477 0.4218868315219879 0.8861885070800781 9.781091690063477 -0.9142042398452759 1.2333667278289795 10.216941833496094 -1.1759216785430908 1.2333667278289795 10.216941833496094 0.6836042404174805 -0.8861885070800781 9.781091690063477 -0.9142042398452759 -0.8861885070800781 9.781091690063477 0.4218868315219879 -1.2333667278289795 10.216941833496094 0.6836042404174805 -1.2333667278289795 10.216941833496094 -1.1759216785430908 1.2333667278289795 12.158672332763672 0.6836042404174805 1.2333667278289795 10.961828231811523 -1.1759216785430908 1.016187071800232 11.0672025680542 -1.0122026205062866 1.016187071800232 12.053297996520996 0.5198851823806763 -1.2333667278289795 10.216941833496094 -1.1759216785430908 -1.2333667278289795 10.216941833496094 0.6836042404174805 -1.2333667278289795 12.158672332763672 0.6836042404174805 -1.2333667278289795 10.961828231811523 -1.1759216785430908 1.2333667278289795 10.216941833496094 -1.1759216785430908 -1.2333667278289795 10.216941833496094 -1.1759216785430908 -1.2333667278289795 10.961828231811523 -1.1759216785430908 1.2333667278289795 10.961828231811523 -1.1759216785430908 -1.2333667278289795 10.216941833496094 0.6836042404174805 1.2333667278289795 10.216941833496094 0.6836042404174805 1.2333667278289795 12.158672332763672 0.6836042404174805 -1.2333667278289795 12.158672332763672 0.6836042404174805 1.016187071800232 11.0672025680542 -1.0122026205062866 -1.016187071800232 11.0672025680542 -1.0122026205062866 -1.016187071800232 10.742875099182129 -1.0122026205062866 1.016187071800232 10.742875099182129 -1.0122026205062866 -1.2333667278289795 10.961828231811523 -1.1759216785430908 -1.2333667278289795 12.158672332763672 0.6836042404174805 -1.016187071800232 12.053297996520996 0.5198851823806763 -1.016187071800232 11.0672025680542 -1.0122026205062866 1.2333667278289795 10.961828231811523 -1.1759216785430908 -1.2333667278289795 10.961828231811523 -1.1759216785430908 -1.016187071800232 11.0672025680542 -1.0122026205062866 1.016187071800232 11.0672025680542 -1.0122026205062866 -1.2333667278289795 12.158672332763672 0.6836042404174805 1.2333667278289795 12.158672332763672 0.6836042404174805 1.016187071800232 12.053297996520996 0.5198851823806763 -1.016187071800232 12.053297996520996 0.5198851823806763 -1.016187071800232 11.728970527648926 0.5198851823806763 1.016187071800232 11.728970527648926 0.5198851823806763 1.016187071800232 10.742875099182129 -1.0122026205062866 -1.016187071800232 10.742875099182129 -1.0122026205062866 -1.016187071800232 12.053297996520996 0.5198851823806763 1.016187071800232 12.053297996520996 0.5198851823806763 1.016187071800232 11.728970527648926 0.5198851823806763 -1.016187071800232 11.728970527648926 0.5198851823806763 1.016187071800232 12.053297996520996 0.5198851823806763 1.016187071800232 11.0672025680542 -1.0122026205062866 1.016187071800232 10.742875099182129 -1.0122026205062866 1.016187071800232 11.728970527648926 0.5198851823806763 -1.016187071800232 11.0672025680542 -1.0122026205062866 -1.016187071800232 12.053297996520996 0.5198851823806763 -1.016187071800232 11.728970527648926 0.5198851823806763 -1.016187071800232 10.742875099182129 -1.0122026205062866</float_array>
				<technique_common>
				<accessor source="#id-mesh-5-positions-array" count="192" stride="3">
					<param name="X" type="float"/>
					<param name="Y" type="float"/>
					<param name="Z" type="float"/>
				</accessor>
				</technique_common>
			</source>
			<source id="id-mesh-5-normals">
				<float_array id="id-mesh-5-normals-array" count="576"> -1.0 0.0 0.0 -1.0 0.0 0.0 -1.0 0.0 0.0 -1.0 0.0 0.0 0.0 0.0 -1.0 0.0 0.0 -1.0 0.0 0.0 -1.0 0.0 0.0 -1.0 1.0 0.0 0.0 1.0 0.0 0.0 1.0 0.0 0.0 1.0 0.0 0.0 -1.0 0.0 0.0 -1.0 0.0 0.0 0.0 0.0 -1.0 0.0 0.0 -1.0 0.0 0.0 1.0 0.0 0.0 1.0 0.0 0.0 1.0 0.0 0.0 1.0 0.0 -1.0 0.0 0.0 -1.0 0.0 0.0 -1.0 0.0 0.0 -1.0 0.0 0.0 -0.1879277378320694 -0.9821828603744507 0.0 -0.1879277378320694 -0.9821828603744507 0.0 -0.1879277378320694 -0.9821828603744507 0.0 -0.1879277378320694 -0.9821828603744507 0.0 -0.6831236481666565 0.7303028106689453 0.0 -0.6831236481666565 0.7303028106689453 0.0 -0.6831236481666565 0.7303028106689453 0.0 -0.6831236481666565 0.7303028106689453 1.0 0.0 0.0 1.0 0.0 0.0 1.0 0.0 0.0 1.0 0.0 0.0 1.0 0.0 0.0 1.0 0.0 0.0 0.0 0.3747529089450836 0.9271247386932373 0.0 0.3747529089450836 0.9271247386932373 0.0 0.3747529089450836 0.9271247386932373 0.0 0.3747529089450836 0.9271247386932373 -0.9999999403953552 0.0 0.0 -0.9999999403953552 0.0 0.0 -0.9999999403953552 0.0 0.0 -0.9999999403953552 0.0 0.0 0.9999999403953552 0.0 0.0 0.9999999403953552 0.0 0.0 0.9999999403953552 0.0 0.0 0.9999999403953552 0.0 0.0 0.9182422757148743 -0.39601919054985046 0.0 0.9182422757148743 -0.39601919054985046 0.0 0.9182422757148743 -0.39601919054985046 0.0 0.9182422757148743 -0.39601919054985046 0.0 -1.0 0.0 0.0 -1.0 0.0 0.0 -1.0 0.0 0.0 -1.0 0.0 0.0 0.0 0.0 -1.0 0.0 0.0 -1.0 0.0 0.0 1.0 0.0 0.0 1.0 0.0 0.0 1.0 0.0 0.0 1.0 0.0 0.0 -1.0 0.0 0.0 -1.0 0.0 0.0 -1.0 0.0 0.0 -1.0 -0.9182421565055847 -0.39601930975914 0.0 -0.9182421565055847 -0.39601930975914 0.0 -0.9182421565055847 -0.39601930975914 0.0 -0.9182421565055847 -0.39601930975914 0.0 0.0 -0.30918633937835693 -0.9510014653205872 0.0 -0.30918633937835693 -0.9510014653205872 0.0 -0.30918633937835693 -0.9510014653205872 0.0 -0.30918633937835693 -0.9510014653205872 0.0 -0.30918627977371216 0.9510014653205872 0.0 -0.30918627977371216 0.9510014653205872 0.0 -0.30918627977371216 0.9510014653205872 0.0 -0.30918627977371216 0.9510014653205872 0.8560442924499512 0.5169023275375366 0.0 0.8560442924499512 0.5169023275375366 0.0 0.8560442924499512 0.5169023275375366 0.0 0.8560442924499512 0.5169023275375366 0.0 0.0 0.0 1.0 0.0 0.0 1.0 0.0 0.0 1.0 0.0 0.0 1.0 1.0 0.0 0.0 1.0 0.0 0.0 1.0 0.0 0.0 1.0 0.0 0.0 -1.0 0.0 0.0 -1.0 0.0 0.0 -1.0 0.0 0.0 -1.0 0.0 0.0 -0.9999999403953552 0.0 0.0 -0.9999999403953552 0.0 0.0 -0.9999999403953552 0.0 0.0 -0.9999999403953552 0.0 0.0 -0.8560442924499512 0.516902506351471 0.0 -0.8560442924499512 0.516902506351471 0.0 -0.8560442924499512 0.516902506351471 0.0 -0.8560442924499512 0.516902506351471 0.0 0.0 0.4142886996269226 -0.9101455211639404 0.0 0.4142886996269226 -0.9101455211639404 0.0 0.4142886996269226 -0.9101455211639404 0.0 0.4142886996269226 -0.9101455211639404 0.0 0.414288729429245 0.9101455211639404 0.0 0.414288729429245 0.9101455211639404 0.0 0.414288729429245 0.9101455211639404 0.0 0.414288729429245 0.9101455211639404 0.0 -0.5147961378097534 -0.8573126196861267 0.0 -0.5147961378097534 -0.8573126196861267 0.0 -0.5147961378097534 -0.8573126196861267 0.0 -0.5147961378097534 -0.8573126196861267 0.0 0.0 -1.0 0.0 0.0 -1.0 0.0 0.0 -1.0 0.0 0.0 -1.0 0.0 0.0 1.0 0.0 0.0 1.0 0.0 0.0 1.0 0.0 0.0 1.0 0.9999999403953552 0.0 0.0 0.9999999403953552 0.0 0.0 0.9999999403953552 0.0 0.0 0.9999999403953552 0.0 0.0 0.9999999403953552 0.0 0.0 0.9999999403953552 0.0 0.0 0.9999999403953552 0.0 0.0 0.9999999403953552 0.0 0.0 0.0 -0.5147960782051086 0.8573126196861267 0.0 -0.5147960782051086 0.8573126196861267 0.0 -0.5147960782051086 0.8573126196861267 0.0 -0.5147960782051086 0.8573126196861267 0.7821818590164185 -0.6230500936508179 0.0 0.7821818590164185 -0.6230500936508179 0.0 0.7821818590164185 -0.6230500936508179 0.0 0.7821818590164185 -0.6230500936508179 0.0 -0.7821818590164185 -0.6230502128601074 0.0 -0.7821818590164185 -0.6230502128601074 0.0 -0.7821818590164185 -0.6230502128601074 0.0 -0.7821818590164185 -0.6230502128601074 0.0 3.40220260852675e-08 0.8408829569816589 -0.5412169694900513 3.40220260852675e-08 0.8408829569816589 -0.5412169694900513 3.40220260852675e-08 0.8408829569816589 -0.5412169694900513 3.40220260852675e-08 0.8408829569816589 -0.5412169694900513 -0.9999999403953552 0.0 0.0 -0.9999999403953552 0.0 0.0 -0.9999999403953552 0.0 0.0 -0.9999999403953552 0.0 0.0 0.0 0.0 -0.9999999403953552 0.0 0.0 -0.9999999403953552 0.0 0.0 -0.9999999403953552 0.0 0.0 -0.9999999403953552 0.0 0.0 1.0 0.0 0.0 1.0 0.0 0.0 1.0 0.0 0.0 1.0 0.0 0.0 1.0 0.0 0.0 1.0 0.0 0.0 1.0 0.0 0.0 1.0 0.0 0.8408829569816589 -0.5412169694900513 0.0 0.8408829569816589 -0.5412169694900513 0.0 0.8408829569816589 -0.5412169694900513 0.0 0.8408829569816589 -0.5412169694900513 0.0 0.8408849835395813 -0.5412137508392334 0.0 0.8408849835395813 -0.5412137508392334 0.0 0.8408849835395813 -0.5412137508392334 0.0 0.8408849835395813 -0.5412137508392334 0.0 0.8408810496330261 -0.54121994972229 0.0 0.8408810496330261 -0.54121994972229 0.0 0.8408810496330261 -0.54121994972229 0.0 0.8408810496330261 -0.54121994972229 0.0 0.8408834338188171 -0.5412163734436035 0.0 0.8408834338188171 -0.5412163734436035 0.0 0.8408834338188171 -0.5412163734436035 0.0 0.8408834338188171 -0.5412163734436035 0.0 0.0 -1.0 0.0 0.0 -1.0 0.0 0.0 -1.0 0.0 0.0 -1.0 -1.0 0.0 0.0 -1.0 0.0 0.0 -1.0 0.0 0.0 -1.0 0.0 0.0 1.0 0.0 0.0 1.0 0.0 0.0 1.0 0.0 0.0 1.0 0.0 0.0</float_array>
				<technique_common>
				<accessor source="#id-mesh-5-normals-array" count="192" stride="3">
					<param name="X" type="float"/>
					<param name="Y" type="float"/>
					<param name="Z" type="float"/>
				</accessor>
				</technique_common>
			</source>
			<vertices id="id-mesh-5-vertices">
				<input semantic="POSITION" source="#id-mesh-5-positions"/>
			</vertices>
			<polygons count="50">
				<input semantic="VERTEX" source="#id-mesh-5-vertices" offset="0"/>
				<input semantic="NORMAL" source="#id-mesh-5-normals" offset="0"/>
				<p> 0 1 2 3 </p>
				<p> 4 5 6 7 </p>
				<p> 8 9 10 11 </p>
				<p> 0 3 12 13 </p>
				<p> 14 5 4 15 </p>
				<p> 16 17 18 19 </p>
				<p> 20 21 22 23 </p>
				<p> 24 25 26 27 </p>
				<p> 28 29 30 31 </p>
				<p> 10 9 32 33 </p>
				<p> 34 35 36 37 </p>
				<p> 38 39 40 41 </p>
				<p> 42 43 44 45 </p>
				<p> 46 47 48 49 </p>
				<p> 50 51 52 53 </p>
				<p> 54 55 56 57 </p>
				<p> 7 6 58 59 </p>
				<p> 60 61 62 63 </p>
				<p> 64 65 66 67 </p>
				<p> 68 69 70 71 </p>
				<p> 72 73 74 75 </p>
				<p> 76 77 78 79 </p>
				<p> 80 81 82 83 </p>
				<p> 84 85 86 87 </p>
				<p> 88 89 90 91 </p>
				<p> 92 93 94 95 </p>
				<p> 96 97 98 99 </p>
				<p> 100 101 102 103 </p>
				<p> 104 105 106 107 </p>
				<p> 108 109 110 111 </p>
				<p> 112 113 114 115 </p>
				<p> 116 117 118 119 </p>
				<p> 120 121 122 123 </p>
				<p> 124 125 126 127 </p>
				<p> 128 129 130 131 </p>
				<p> 132 133 134 135 </p>
				<p> 136 137 138 139 </p>
				<p> 140 141 142 143 </p>
				<p> 144 145 146 147 </p>
				<p> 148 149 150 151 </p>
				<p> 152 153 154 155 </p>
				<p> 156 157 158 159 </p>
				<p> 160 161 162 163 </p>
				<p> 164 165 166 167 </p>
				<p> 168 169 170 171 </p>
				<p> 172 173 174 175 </p>
				<p> 176 177 178 179 </p>
				<p> 180 181 182 183 </p>
				<p> 184 185 186 187 </p>
				<p> 188 189 190 191 </p>
			</polygons>
		</mesh>
	</geometry>
	<geometry id="id-mesh-6" name="Cylinder">
		<mesh>
			<source id="id-mesh-6-positions">
				<float_array id="id-mesh-6-positions-array" count="960"> 1.4876255249873793e-07 0.5678255558013916 0.2906928062438965 0.0 1.0 1.0 0.19509032368659973 0.9807852506637573 1.0 0.11077743023633957 0.5569149255752563 0.2906928062438965 0.11077743023633957 0.5569149255752563 0.2906928062438965 0.19509032368659973 0.9807852506637573 1.0 0.3826834559440613 0.9238795042037964 1.0 0.21729762852191925 0.5246024131774902 0.2906928062438965 0.21729762852191925 0.5246024131774902 0.2906928062438965 0.3826834559440613 0.9238795042037964 1.0 0.5555702447891235 0.8314695954322815 1.0 0.31546714901924133 0.4721297025680542 0.2906928062438965 0.31546714901924133 0.4721297025680542 0.2906928062438965 0.5555702447891235 0.8314695954322815 1.0 0.7071067690849304 0.7071067690849304 1.0 0.4015134871006012 0.40151330828666687 0.2906928062438965 0.4015134871006012 0.40151330828666687 0.2906928062438965 0.7071067690849304 0.7071067690849304 1.0 0.8314696550369263 0.5555701851844788 1.0 0.4721299111843109 0.315466970205307 0.2906928062438965 0.4721299111843109 0.315466970205307 0.2906928062438965 0.8314696550369263 0.5555701851844788 1.0 0.9238795042037964 0.3826834261417389 1.0 0.5246025919914246 0.21729741990566254 0.2906928062438965 0.5246025919914246 0.21729741990566254 0.2906928062438965 0.9238795042037964 0.3826834261417389 1.0 0.9807852506637573 0.19509035348892212 1.0 0.5569151639938354 0.11077726632356644 0.2906928062438965 0.5569151639938354 0.11077726632356644 0.2906928062438965 0.9807852506637573 0.19509035348892212 1.0 1.0 7.549790126404332e-08 1.0 0.5678257942199707 1.217013334553485e-08 0.2906928062438965 0.5678257942199707 1.217013334553485e-08 0.2906928062438965 1.0 7.549790126404332e-08 1.0 0.9807853102684021 -0.19509020447731018 1.0 0.5569151639938354 -0.11077725142240524 0.2906928062438965 0.5569151639938354 -0.11077725142240524 0.2906928062438965 0.9807853102684021 -0.19509020447731018 1.0 0.9238795638084412 -0.38268327713012695 1.0 0.5246026515960693 -0.21729740500450134 0.2906928062438965 0.5246026515960693 -0.21729740500450134 0.2906928062438965 0.9238795638084412 -0.38268327713012695 1.0 0.8314696550369263 -0.5555701851844788 1.0 0.4721299111843109 -0.3154670000076294 0.2906928062438965 0.4721299111843109 -0.3154670000076294 0.2906928062438965 0.8314696550369263 -0.5555701851844788 1.0 0.7071067690849304 -0.7071067690849304 1.0 0.4015134871006012 -0.40151336789131165 0.2906928062438965 0.4015134871006012 -0.40151336789131165 0.2906928062438965 0.7071067690849304 -0.7071067690849304 1.0 0.5555701851844788 -0.8314696550369263 1.0 0.31546711921691895 -0.47212979197502136 0.2906928062438965 0.31546711921691895 -0.47212979197502136 0.2906928062438965 0.5555701851844788 -0.8314696550369263 1.0 0.38268327713012695 -0.9238796234130859 1.0 0.2172975242137909 -0.5246025919914246 0.2906928062438965 0.2172975242137909 -0.5246025919914246 0.2906928062438965 0.38268327713012695 -0.9238796234130859 1.0 0.19509008526802063 -0.9807853102684021 1.0 0.11077729612588882 -0.5569150447845459 0.2906928062438965 0.11077729612588882 -0.5569150447845459 0.2906928062438965 0.19509008526802063 -0.9807853102684021 1.0 -3.2584136988589307e-07 -1.0 1.0 -3.6258512636777596e-08 -0.5678256154060364 0.2906928062438965 -3.6258512636777596e-08 -0.5678256154060364 0.2906928062438965 -3.2584136988589307e-07 -1.0 1.0 -0.19509072601795197 -0.9807851910591125 1.0 -0.1107773631811142 -0.5569149851799011 0.2906928062438965 -0.1107773631811142 -0.5569149851799011 0.2906928062438965 -0.19509072601795197 -0.9807851910591125 1.0 -0.3826838731765747 -0.9238793253898621 1.0 -0.21729755401611328 -0.5246024131774902 0.2906928062438965 -0.21729755401611328 -0.5246024131774902 0.2906928062438965 -0.3826838731765747 -0.9238793253898621 1.0 -0.5555707216262817 -0.8314692974090576 1.0 -0.31546714901924133 -0.47212958335876465 0.2906928062438965 -0.31546714901924133 -0.47212958335876465 0.2906928062438965 -0.5555707216262817 -0.8314692974090576 1.0 -0.7071072459220886 -0.707106351852417 1.0 -0.4015134572982788 -0.40151312947273254 0.2906928062438965 -0.4015134572982788 -0.40151312947273254 0.2906928062438965 -0.7071072459220886 -0.707106351852417 1.0 -0.8314700126647949 -0.5555696487426758 1.0 -0.47212982177734375 -0.3154667019844055 0.2906928062438965 -0.47212982177734375 -0.3154667019844055 0.2906928062438965 -0.8314700126647949 -0.5555696487426758 1.0 -0.923879861831665 -0.3826826810836792 1.0 -0.524602472782135 -0.21729706227779388 0.2906928062438965 -0.524602472782135 -0.21729706227779388 0.2906928062438965 -0.923879861831665 -0.3826826810836792 1.0 -0.9807854294776917 -0.1950894594192505 1.0 -0.5569149255752563 -0.11077682673931122 0.2906928062438965 -0.5569149255752563 -0.11077682673931122 0.2906928062438965 -0.9807854294776917 -0.1950894594192505 1.0 -1.0 9.655991561885457e-07 1.0 -0.567825436592102 5.175924684408528e-07 0.2906928062438965 -0.567825436592102 5.175924684408528e-07 0.2906928062438965 -1.0 9.655991561885457e-07 1.0 -0.980785071849823 0.1950913518667221 1.0 -0.5569146871566772 0.1107778325676918 0.2906928062438965 -0.5569146871566772 0.1107778325676918 0.2906928062438965 -0.980785071849823 0.1950913518667221 1.0 -0.923879086971283 0.38268446922302246 1.0 -0.5246020555496216 0.2172980159521103 0.2906928062438965 -0.5246020555496216 0.2172980159521103 0.2906928062438965 -0.923879086971283 0.38268446922302246 1.0 -0.831468939781189 0.5555712580680847 1.0 -0.472129225730896 0.31546756625175476 0.2906928062438965 -0.472129225730896 0.31546756625175476 0.2906928062438965 -0.831468939781189 0.5555712580680847 1.0 -0.7071058750152588 0.707107663154602 1.0 -0.40151268243789673 0.40151381492614746 0.2906928062438965 -0.40151268243789673 0.40151381492614746 0.2906928062438965 -0.7071058750152588 0.707107663154602 1.0 -0.5555691123008728 0.8314703702926636 1.0 -0.3154662251472473 0.47213014960289 0.2906928062438965 -0.3154662251472473 0.47213014960289 0.2906928062438965 -0.5555691123008728 0.8314703702926636 1.0 -0.38268208503723145 0.9238801002502441 1.0 -0.2172965407371521 0.5246027112007141 0.2906928062438965 -3.2584136988589307e-07 -1.0 1.0 0.19509008526802063 -0.9807853102684021 1.0 0.19509008526802063 -0.9807853102684021 1.163530707359314 -3.322053601095831e-07 -1.0 1.163530707359314 -0.11077628284692764 0.5569151043891907 0.2906928062438965 -0.19508881866931915 0.9807855486869812 1.0 0.0 1.0 1.0 1.4876255249873793e-07 0.5678255558013916 0.2906928062438965 -0.2172965407371521 0.5246027112007141 0.2906928062438965 -0.38268208503723145 0.9238801002502441 1.0 -0.19508881866931915 0.9807855486869812 1.0 -0.11077628284692764 0.5569151043891907 0.2906928062438965 1.4876255249873793e-07 0.5678255558013916 0.2906928062438965 0.11077743023633957 0.5569149255752563 0.2906928062438965 0.21729762852191925 0.5246024131774902 0.2906928062438965 0.31546714901924133 0.4721297025680542 0.2906928062438965 0.4015134871006012 0.40151330828666687 0.2906928062438965 0.4721299111843109 0.315466970205307 0.2906928062438965 0.5246025919914246 0.21729741990566254 0.2906928062438965 0.5569151639938354 0.11077726632356644 0.2906928062438965 0.5678257942199707 1.217013334553485e-08 0.2906928062438965 0.5569151639938354 -0.11077725142240524 0.2906928062438965 0.5246026515960693 -0.21729740500450134 0.2906928062438965 0.4721299111843109 -0.3154670000076294 0.2906928062438965 0.4015134871006012 -0.40151336789131165 0.2906928062438965 0.31546711921691895 -0.47212979197502136 0.2906928062438965 0.2172975242137909 -0.5246025919914246 0.2906928062438965 0.11077729612588882 -0.5569150447845459 0.2906928062438965 -3.6258512636777596e-08 -0.5678256154060364 0.2906928062438965 -0.1107773631811142 -0.5569149851799011 0.2906928062438965 -0.21729755401611328 -0.5246024131774902 0.2906928062438965 -0.31546714901924133 -0.47212958335876465 0.2906928062438965 -0.4015134572982788 -0.40151312947273254 0.2906928062438965 -0.47212982177734375 -0.3154667019844055 0.2906928062438965 -0.524602472782135 -0.21729706227779388 0.2906928062438965 -0.5569149255752563 -0.11077682673931122 0.2906928062438965 -0.567825436592102 5.175924684408528e-07 0.2906928062438965 -0.5569146871566772 0.1107778325676918 0.2906928062438965 -0.5246020555496216 0.2172980159521103 0.2906928062438965 -0.472129225730896 0.31546756625175476 0.2906928062438965 -0.40151268243789673 0.40151381492614746 0.2906928062438965 -0.3154662251472473 0.47213014960289 0.2906928062438965 -0.2172965407371521 0.5246027112007141 0.2906928062438965 -0.11077628284692764 0.5569151043891907 0.2906928062438965 0.19509032368659973 0.9807852506637573 1.163530707359314 -6.364000881831089e-09 1.0 1.163530707359314 -0.19508881866931915 0.9807855486869812 1.163530707359314 -0.38268208503723145 0.9238801002502441 1.163530707359314 -0.5555691123008728 0.8314703702926636 1.163530707359314 -0.7071058750152588 0.707107663154602 1.163530707359314 -0.831468939781189 0.5555712580680847 1.163530707359314 -0.923879086971283 0.3826844394207001 1.163530707359314 -0.980785071849823 0.1950913369655609 1.163530707359314 -1.0 9.461047625336505e-07 1.163530707359314 -0.9807854294776917 -0.19508947432041168 1.163530707359314 -0.923879861831665 -0.3826827108860016 1.163530707359314 -0.8314700126647949 -0.5555696487426758 1.163530707359314 -0.7071072459220886 -0.707106351852417 1.163530707359314 -0.5555707216262817 -0.8314692974090576 1.163530707359314 -0.3826838731765747 -0.9238793253898621 1.163530707359314 -0.19509072601795197 -0.9807851910591125 1.163530707359314 -3.322053601095831e-07 -1.0 1.163530707359314 0.19509008526802063 -0.9807853102684021 1.163530707359314 0.38268327713012695 -0.9238796234130859 1.163530707359314 0.5555701851844788 -0.8314696550369263 1.163530707359314 0.7071067690849304 -0.7071067690849304 1.163530707359314 0.8314696550369263 -0.5555701851844788 1.163530707359314 0.9238795638084412 -0.38268330693244934 1.163530707359314 0.9807853102684021 -0.19509021937847137 1.163530707359314 1.0 5.600352182000279e-08 1.163530707359314 0.9807852506637573 0.19509033858776093 1.163530707359314 0.9238795042037964 0.3826833963394165 1.163530707359314 0.8314696550369263 0.5555701851844788 1.163530707359314 0.7071067690849304 0.7071067690849304 1.163530707359314 0.5555702447891235 0.8314695954322815 1.163530707359314 0.3826834559440613 0.9238795042037964 1.163530707359314 -0.980785071849823 0.1950913518667221 1.0 -1.0 9.655991561885457e-07 1.0 -1.0 9.461047625336505e-07 1.163530707359314 -0.980785071849823 0.1950913369655609 1.163530707359314 0.5555702447891235 0.8314695954322815 1.0 0.3826834559440613 0.9238795042037964 1.0 0.3826834559440613 0.9238795042037964 1.163530707359314 0.5555702447891235 0.8314695954322815 1.163530707359314 0.7071067690849304 -0.7071067690849304 1.0 0.8314696550369263 -0.5555701851844788 1.0 0.8314696550369263 -0.5555701851844788 1.163530707359314 0.7071067690849304 -0.7071067690849304 1.163530707359314 -0.8314700126647949 -0.5555696487426758 1.0 -0.7071072459220886 -0.707106351852417 1.0 -0.7071072459220886 -0.707106351852417 1.163530707359314 -0.8314700126647949 -0.5555696487426758 1.163530707359314 -0.38268208503723145 0.9238801002502441 1.0 -0.5555691123008728 0.8314703702926636 1.0 -0.5555691123008728 0.8314703702926636 1.163530707359314 -0.38268208503723145 0.9238801002502441 1.163530707359314 1.0 7.549790126404332e-08 1.0 0.9807852506637573 0.19509035348892212 1.0 0.9807852506637573 0.19509033858776093 1.163530707359314 1.0 5.600352182000279e-08 1.163530707359314 -0.19509072601795197 -0.9807851910591125 1.0 -3.2584136988589307e-07 -1.0 1.0 -3.322053601095831e-07 -1.0 1.163530707359314 -0.19509072601795197 -0.9807851910591125 1.163530707359314 -0.923879086971283 0.38268446922302246 1.0 -0.980785071849823 0.1950913518667221 1.0 -0.980785071849823 0.1950913369655609 1.163530707359314 -0.923879086971283 0.3826844394207001 1.163530707359314 0.7071067690849304 0.7071067690849304 1.0 0.5555702447891235 0.8314695954322815 1.0 0.5555702447891235 0.8314695954322815 1.163530707359314 0.7071067690849304 0.7071067690849304 1.163530707359314 0.5555701851844788 -0.8314696550369263 1.0 0.7071067690849304 -0.7071067690849304 1.0 0.7071067690849304 -0.7071067690849304 1.163530707359314 0.5555701851844788 -0.8314696550369263 1.163530707359314 -0.923879861831665 -0.3826826810836792 1.0 -0.8314700126647949 -0.5555696487426758 1.0 -0.8314700126647949 -0.5555696487426758 1.163530707359314 -0.923879861831665 -0.3826827108860016 1.163530707359314 -0.19508881866931915 0.9807855486869812 1.0 -0.38268208503723145 0.9238801002502441 1.0 -0.38268208503723145 0.9238801002502441 1.163530707359314 -0.19508881866931915 0.9807855486869812 1.163530707359314 0.9807853102684021 -0.19509020447731018 1.0 1.0 7.549790126404332e-08 1.0 1.0 5.600352182000279e-08 1.163530707359314 0.9807853102684021 -0.19509021937847137 1.163530707359314 -0.3826838731765747 -0.9238793253898621 1.0 -0.19509072601795197 -0.9807851910591125 1.0 -0.19509072601795197 -0.9807851910591125 1.163530707359314 -0.3826838731765747 -0.9238793253898621 1.163530707359314 -0.831468939781189 0.5555712580680847 1.0 -0.923879086971283 0.38268446922302246 1.0 -0.923879086971283 0.3826844394207001 1.163530707359314 -0.831468939781189 0.5555712580680847 1.163530707359314 0.8314696550369263 0.5555701851844788 1.0 0.7071067690849304 0.7071067690849304 1.0 0.7071067690849304 0.7071067690849304 1.163530707359314 0.8314696550369263 0.5555701851844788 1.163530707359314 0.38268327713012695 -0.9238796234130859 1.0 0.5555701851844788 -0.8314696550369263 1.0 0.5555701851844788 -0.8314696550369263 1.163530707359314 0.38268327713012695 -0.9238796234130859 1.163530707359314 -0.9807854294776917 -0.1950894594192505 1.0 -0.923879861831665 -0.3826826810836792 1.0 -0.923879861831665 -0.3826827108860016 1.163530707359314 -0.9807854294776917 -0.19508947432041168 1.163530707359314 0.19509032368659973 0.9807852506637573 1.0 0.0 1.0 1.0 -6.364000881831089e-09 1.0 1.163530707359314 0.19509032368659973 0.9807852506637573 1.163530707359314 0.0 1.0 1.0 -0.19508881866931915 0.9807855486869812 1.0 -0.19508881866931915 0.9807855486869812 1.163530707359314 -6.364000881831089e-09 1.0 1.163530707359314 0.9238795638084412 -0.38268327713012695 1.0 0.9807853102684021 -0.19509020447731018 1.0 0.9807853102684021 -0.19509021937847137 1.163530707359314 0.9238795638084412 -0.38268330693244934 1.163530707359314 -0.5555707216262817 -0.8314692974090576 1.0 -0.3826838731765747 -0.9238793253898621 1.0 -0.3826838731765747 -0.9238793253898621 1.163530707359314 -0.5555707216262817 -0.8314692974090576 1.163530707359314 -0.7071058750152588 0.707107663154602 1.0 -0.831468939781189 0.5555712580680847 1.0 -0.831468939781189 0.5555712580680847 1.163530707359314 -0.7071058750152588 0.707107663154602 1.163530707359314 0.9238795042037964 0.3826834261417389 1.0 0.8314696550369263 0.5555701851844788 1.0 0.8314696550369263 0.5555701851844788 1.163530707359314 0.9238795042037964 0.3826833963394165 1.163530707359314 0.19509008526802063 -0.9807853102684021 1.0 0.38268327713012695 -0.9238796234130859 1.0 0.38268327713012695 -0.9238796234130859 1.163530707359314 0.19509008526802063 -0.9807853102684021 1.163530707359314 -1.0 9.655991561885457e-07 1.0 -0.9807854294776917 -0.1950894594192505 1.0 -0.9807854294776917 -0.19508947432041168 1.163530707359314 -1.0 9.461047625336505e-07 1.163530707359314 0.3826834559440613 0.9238795042037964 1.0 0.19509032368659973 0.9807852506637573 1.0 0.19509032368659973 0.9807852506637573 1.163530707359314 0.3826834559440613 0.9238795042037964 1.163530707359314 0.8314696550369263 -0.5555701851844788 1.0 0.9238795638084412 -0.38268327713012695 1.0 0.9238795638084412 -0.38268330693244934 1.163530707359314 0.8314696550369263 -0.5555701851844788 1.163530707359314 -0.7071072459220886 -0.707106351852417 1.0 -0.5555707216262817 -0.8314692974090576 1.0 -0.5555707216262817 -0.8314692974090576 1.163530707359314 -0.7071072459220886 -0.707106351852417 1.163530707359314 -0.5555691123008728 0.8314703702926636 1.0 -0.7071058750152588 0.707107663154602 1.0 -0.7071058750152588 0.707107663154602 1.163530707359314 -0.5555691123008728 0.8314703702926636 1.163530707359314 0.9807852506637573 0.19509035348892212 1.0 0.9238795042037964 0.3826834261417389 1.0 0.9238795042037964 0.3826833963394165 1.163530707359314 0.9807852506637573 0.19509033858776093 1.163530707359314</float_array>
				<technique_common>
				<accessor source="#id-mesh-6-positions-array" count="320" stride="3">
					<param name="X" type="float"/>
					<param name="Y" type="float"/>
					<param name="Z" type="float"/>
				</accessor>
				</technique_common>
			</source>
			<source id="id-mesh-6-normals">
				<float_array id="id-mesh-6-normals-array" count="960"> 0.08381292223930359 0.8509680032730103 -0.5184870362281799 0.08381292223930359 0.8509680032730103 -0.5184870362281799 0.08381292223930359 0.8509680032730103 -0.5184870362281799 0.08381292223930359 0.8509680032730103 -0.5184870362281799 0.24821831285953522 0.8182657361030579 -0.5184870362281799 0.24821831285953522 0.8182657361030579 -0.5184870362281799 0.24821831285953522 0.8182657361030579 -0.5184870362281799 0.24821831285953522 0.8182657361030579 -0.5184870362281799 0.4030843675136566 0.7541181445121765 -0.5184870958328247 0.4030843675136566 0.7541181445121765 -0.5184870958328247 0.4030843675136566 0.7541181445121765 -0.5184870958328247 0.4030843675136566 0.7541181445121765 -0.5184870958328247 0.5424604415893555 0.6609901189804077 -0.5184869170188904 0.5424604415893555 0.6609901189804077 -0.5184869170188904 0.5424604415893555 0.6609901189804077 -0.5184869170188904 0.5424604415893555 0.6609901189804077 -0.5184869170188904 0.6609899997711182 0.542460560798645 -0.5184869766235352 0.6609899997711182 0.542460560798645 -0.5184869766235352 0.6609899997711182 0.542460560798645 -0.5184869766235352 0.6609899997711182 0.542460560798645 -0.5184869766235352 0.7541183233261108 0.4030841290950775 -0.5184869766235352 0.7541183233261108 0.4030841290950775 -0.5184869766235352 0.7541183233261108 0.4030841290950775 -0.5184869766235352 0.7541183233261108 0.4030841290950775 -0.5184869766235352 0.8182657957077026 0.24821840226650238 -0.5184868574142456 0.8182657957077026 0.24821840226650238 -0.5184868574142456 0.8182657957077026 0.24821840226650238 -0.5184868574142456 0.8182657957077026 0.24821840226650238 -0.5184868574142456 0.8509681820869446 0.08381319791078568 -0.5184868574142456 0.8509681820869446 0.08381319791078568 -0.5184868574142456 0.8509681820869446 0.08381319791078568 -0.5184868574142456 0.8509681820869446 0.08381319791078568 -0.5184868574142456 0.850968062877655 -0.08381319046020508 -0.5184869170188904 0.850968062877655 -0.08381319046020508 -0.5184869170188904 0.850968062877655 -0.08381319046020508 -0.5184869170188904 0.850968062877655 -0.08381319046020508 -0.5184869170188904 0.8182660341262817 -0.24821799993515015 -0.5184869170188904 0.8182660341262817 -0.24821799993515015 -0.5184869170188904 0.8182660341262817 -0.24821799993515015 -0.5184869170188904 0.8182660341262817 -0.24821799993515015 -0.5184869170188904 0.7541182041168213 -0.40308433771133423 -0.5184869170188904 0.7541182041168213 -0.40308433771133423 -0.5184869170188904 0.7541182041168213 -0.40308433771133423 -0.5184869170188904 0.7541182041168213 -0.40308433771133423 -0.5184869170188904 0.6609899997711182 -0.542460560798645 -0.5184869170188904 0.6609899997711182 -0.542460560798645 -0.5184869170188904 0.6609899997711182 -0.542460560798645 -0.5184869170188904 0.6609899997711182 -0.542460560798645 -0.5184869170188904 0.542460560798645 -0.6609900593757629 -0.5184868574142456 0.542460560798645 -0.6609900593757629 -0.5184868574142456 0.542460560798645 -0.6609900593757629 -0.5184868574142456 0.542460560798645 -0.6609900593757629 -0.5184868574142456 0.4030849039554596 -0.7541179060935974 -0.5184869170188904 0.4030849039554596 -0.7541179060935974 -0.5184869170188904 0.4030849039554596 -0.7541179060935974 -0.5184869170188904 0.4030849039554596 -0.7541179060935974 -0.5184869170188904 0.24821755290031433 -0.8182660341262817 -0.5184869170188904 0.24821755290031433 -0.8182660341262817 -0.5184869170188904 0.24821755290031433 -0.8182660341262817 -0.5184869170188904 0.24821755290031433 -0.8182660341262817 -0.5184869170188904 0.0838128924369812 -0.8509680032730103 -0.5184871554374695 0.0838128924369812 -0.8509680032730103 -0.5184871554374695 0.0838128924369812 -0.8509680032730103 -0.5184871554374695 0.0838128924369812 -0.8509680032730103 -0.5184871554374695 -0.08381334692239761 -0.8509678840637207 -0.5184870362281799 -0.08381334692239761 -0.8509678840637207 -0.5184870362281799 -0.08381334692239761 -0.8509678840637207 -0.5184870362281799 -0.08381334692239761 -0.8509678840637207 -0.5184870362281799 -0.24821852147579193 -0.8182657957077026 -0.5184869766235352 -0.24821852147579193 -0.8182657957077026 -0.5184869766235352 -0.24821852147579193 -0.8182657957077026 -0.5184869766235352 -0.24821852147579193 -0.8182657957077026 -0.5184869766235352 -0.40308478474617004 -0.7541179060935974 -0.5184870958328247 -0.40308478474617004 -0.7541179060935974 -0.5184870958328247 -0.40308478474617004 -0.7541179060935974 -0.5184870958328247 -0.40308478474617004 -0.7541179060935974 -0.5184870958328247 -0.5424609184265137 -0.6609896421432495 -0.5184871554374695 -0.5424609184265137 -0.6609896421432495 -0.5184871554374695 -0.5424609184265137 -0.6609896421432495 -0.5184871554374695 -0.5424609184265137 -0.6609896421432495 -0.5184871554374695 -0.660990297794342 -0.5424601435661316 -0.5184870958328247 -0.660990297794342 -0.5424601435661316 -0.5184870958328247 -0.660990297794342 -0.5424601435661316 -0.5184870958328247 -0.660990297794342 -0.5424601435661316 -0.5184870958328247 -0.7541184425354004 -0.40308359265327454 -0.5184871554374695 -0.7541184425354004 -0.40308359265327454 -0.5184871554374695 -0.7541184425354004 -0.40308359265327454 -0.5184871554374695 -0.7541184425354004 -0.40308359265327454 -0.5184871554374695 -0.8182658553123474 -0.24821776151657104 -0.5184871554374695 -0.8182658553123474 -0.24821776151657104 -0.5184871554374695 -0.8182658553123474 -0.24821776151657104 -0.5184871554374695 -0.8182658553123474 -0.24821776151657104 -0.5184871554374695 -0.8509680032730103 -0.0838121846318245 -0.5184871554374695 -0.8509680032730103 -0.0838121846318245 -0.5184871554374695 -0.8509680032730103 -0.0838121846318245 -0.5184871554374695 -0.8509680032730103 -0.0838121846318245 -0.5184871554374695 -0.8509677648544312 0.08381405472755432 -0.5184872150421143 -0.8509677648544312 0.08381405472755432 -0.5184872150421143 -0.8509677648544312 0.08381405472755432 -0.5184872150421143 -0.8509677648544312 0.08381405472755432 -0.5184872150421143 -0.818265438079834 0.24821913242340088 -0.5184871554374695 -0.818265438079834 0.24821913242340088 -0.5184871554374695 -0.818265438079834 0.24821913242340088 -0.5184871554374695 -0.818265438079834 0.24821913242340088 -0.5184871554374695 -0.7541177868843079 0.403084933757782 -0.5184871554374695 -0.7541177868843079 0.403084933757782 -0.5184871554374695 -0.7541177868843079 0.403084933757782 -0.5184871554374695 -0.7541177868843079 0.403084933757782 -0.5184871554374695 -0.6609891653060913 0.5424615144729614 -0.5184870958328247 -0.6609891653060913 0.5424615144729614 -0.5184870958328247 -0.6609891653060913 0.5424615144729614 -0.5184870958328247 -0.6609891653060913 0.5424615144729614 -0.5184870958328247 -0.5424597263336182 0.6609904766082764 -0.518487274646759 -0.5424597263336182 0.6609904766082764 -0.518487274646759 -0.5424597263336182 0.6609904766082764 -0.518487274646759 -0.5424597263336182 0.6609904766082764 -0.518487274646759 -0.4030834436416626 0.7541186213493347 -0.5184869766235352 -0.4030834436416626 0.7541186213493347 -0.5184869766235352 -0.4030834436416626 0.7541186213493347 -0.5184869766235352 -0.4030834436416626 0.7541186213493347 -0.5184869766235352 0.09801693260669708 -0.9951847791671753 0.0 0.09801693260669708 -0.9951847791671753 0.0 0.09801693260669708 -0.9951847791671753 0.0 0.09801693260669708 -0.9951847791671753 0.0 -0.0838124006986618 0.8509680032730103 -0.5184872150421143 -0.0838124006986618 0.8509680032730103 -0.5184872150421143 -0.0838124006986618 0.8509680032730103 -0.5184872150421143 -0.0838124006986618 0.8509680032730103 -0.5184872150421143 -0.24821682274341583 0.8182660341262817 -0.5184872150421143 -0.24821682274341583 0.8182660341262817 -0.5184872150421143 -0.24821682274341583 0.8182660341262817 -0.5184872150421143 -0.24821682274341583 0.8182660341262817 -0.5184872150421143 -5.274597114635071e-08 0.0 -1.0 -5.274597114635071e-08 0.0 -1.0 -5.274597114635071e-08 0.0 -1.0 -5.274597114635071e-08 0.0 -1.0 -5.274597114635071e-08 0.0 -1.0 -5.274597114635071e-08 0.0 -1.0 -5.274597114635071e-08 0.0 -1.0 -5.274597114635071e-08 0.0 -1.0 -5.274597114635071e-08 0.0 -1.0 -5.274597114635071e-08 0.0 -1.0 -5.274597114635071e-08 0.0 -1.0 -5.274597114635071e-08 0.0 -1.0 -5.274597114635071e-08 0.0 -1.0 -5.274597114635071e-08 0.0 -1.0 -5.274597114635071e-08 0.0 -1.0 -5.274597114635071e-08 0.0 -1.0 -5.274597114635071e-08 0.0 -1.0 -5.274597114635071e-08 0.0 -1.0 -5.274597114635071e-08 0.0 -1.0 -5.274597114635071e-08 0.0 -1.0 -5.274597114635071e-08 0.0 -1.0 -5.274597114635071e-08 0.0 -1.0 -5.274597114635071e-08 0.0 -1.0 -5.274597114635071e-08 0.0 -1.0 -5.274597114635071e-08 0.0 -1.0 -5.274597114635071e-08 0.0 -1.0 -5.274597114635071e-08 0.0 -1.0 -5.274597114635071e-08 0.0 -1.0 -5.274597114635071e-08 0.0 -1.0 -5.274597114635071e-08 0.0 -1.0 -5.274597114635071e-08 0.0 -1.0 -5.274597114635071e-08 0.0 -1.0 -7.160704029729459e-09 0.0 1.0 -7.160704029729459e-09 0.0 1.0 -7.160704029729459e-09 0.0 1.0 -7.160704029729459e-09 0.0 1.0 -7.160704029729459e-09 0.0 1.0 -7.160704029729459e-09 0.0 1.0 -7.160704029729459e-09 0.0 1.0 -7.160704029729459e-09 0.0 1.0 -7.160704029729459e-09 0.0 1.0 -7.160704029729459e-09 0.0 1.0 -7.160704029729459e-09 0.0 1.0 -7.160704029729459e-09 0.0 1.0 -7.160704029729459e-09 0.0 1.0 -7.160704029729459e-09 0.0 1.0 -7.160704029729459e-09 0.0 1.0 -7.160704029729459e-09 0.0 1.0 -7.160704029729459e-09 0.0 1.0 -7.160704029729459e-09 0.0 1.0 -7.160704029729459e-09 0.0 1.0 -7.160704029729459e-09 0.0 1.0 -7.160704029729459e-09 0.0 1.0 -7.160704029729459e-09 0.0 1.0 -7.160704029729459e-09 0.0 1.0 -7.160704029729459e-09 0.0 1.0 -7.160704029729459e-09 0.0 1.0 -7.160704029729459e-09 0.0 1.0 -7.160704029729459e-09 0.0 1.0 -7.160704029729459e-09 0.0 1.0 -7.160704029729459e-09 0.0 1.0 -7.160704029729459e-09 0.0 1.0 -7.160704029729459e-09 0.0 1.0 -7.160704029729459e-09 0.0 1.0 -0.9951846599578857 0.0980183407664299 1.4525745939408807e-08 -0.9951846599578857 0.0980183407664299 1.4525745939408807e-08 -0.9951846599578857 0.0980183407664299 1.4525745939408807e-08 -0.9951846599578857 0.0980183407664299 1.4525745939408807e-08 0.47139662504196167 0.8819212317466736 0.0 0.47139662504196167 0.8819212317466736 0.0 0.47139662504196167 0.8819212317466736 0.0 0.47139662504196167 0.8819212317466736 0.0 0.7730103731155396 -0.6343933343887329 0.0 0.7730103731155396 -0.6343933343887329 0.0 0.7730103731155396 -0.6343933343887329 0.0 0.7730103731155396 -0.6343933343887329 0.0 -0.7730109095573425 -0.6343926787376404 0.0 -0.7730109095573425 -0.6343926787376404 0.0 -0.7730109095573425 -0.6343926787376404 0.0 -0.7730109095573425 -0.6343926787376404 0.0 -0.47139543294906616 0.8819219470024109 0.0 -0.47139543294906616 0.8819219470024109 0.0 -0.47139543294906616 0.8819219470024109 0.0 -0.47139543294906616 0.8819219470024109 0.0 0.9951846599578857 0.09801749885082245 7.262879631042551e-09 0.9951846599578857 0.09801749885082245 7.262879631042551e-09 0.9951846599578857 0.09801749885082245 7.262879631042551e-09 0.9951846599578857 0.09801749885082245 7.262879631042551e-09 -0.09801755845546722 -0.9951846599578857 0.0 -0.09801755845546722 -0.9951846599578857 0.0 -0.09801755845546722 -0.9951846599578857 0.0 -0.09801755845546722 -0.9951846599578857 0.0 -0.9569400548934937 0.29028549790382385 5.8103022837485696e-08 -0.9569400548934937 0.29028549790382385 5.8103022837485696e-08 -0.9569400548934937 0.29028549790382385 5.8103022837485696e-08 -0.9569400548934937 0.29028549790382385 5.8103022837485696e-08 0.6343932747840881 0.7730104327201843 0.0 0.6343932747840881 0.7730104327201843 0.0 0.6343932747840881 0.7730104327201843 0.0 0.6343932747840881 0.7730104327201843 0.0 0.6343933343887329 -0.7730103731155396 0.0 0.6343933343887329 -0.7730103731155396 0.0 0.6343933343887329 -0.7730103731155396 0.0 0.6343933343887329 -0.7730103731155396 0.0 -0.8819214701652527 -0.47139623761177063 0.0 -0.8819214701652527 -0.47139623761177063 0.0 -0.8819214701652527 -0.47139623761177063 0.0 -0.8819214701652527 -0.47139623761177063 0.0 -0.29028311371803284 0.9569408297538757 0.0 -0.29028311371803284 0.9569408297538757 0.0 -0.29028311371803284 0.9569408297538757 0.0 -0.29028311371803284 0.9569408297538757 0.0 0.9951846599578857 -0.09801703691482544 -7.262879631042551e-09 0.9951846599578857 -0.09801703691482544 -7.262879631042551e-09 0.9951846599578857 -0.09801703691482544 -7.262879631042551e-09 0.9951846599578857 -0.09801703691482544 -7.262879631042551e-09 -0.2902851998806 -0.956940233707428 0.0 -0.2902851998806 -0.956940233707428 0.0 -0.2902851998806 -0.956940233707428 0.0 -0.2902851998806 -0.956940233707428 0.0 -0.8819206357002258 0.47139793634414673 1.1620598172612517e-07 -0.8819206357002258 0.47139793634414673 1.1620598172612517e-07 -0.8819206357002258 0.47139793634414673 1.1620598172612517e-07 -0.8819206357002258 0.47139793634414673 1.1620598172612517e-07 0.7730103731155396 0.6343933343887329 0.0 0.7730103731155396 0.6343933343887329 0.0 0.7730103731155396 0.6343933343887329 0.0 0.7730103731155396 0.6343933343887329 0.0 0.4713968336582184 -0.8819212317466736 0.0 0.4713968336582184 -0.8819212317466736 0.0 0.4713968336582184 -0.8819212317466736 0.0 0.4713968336582184 -0.8819212317466736 0.0 -0.9569407105445862 -0.29028353095054626 -5.81030050739173e-08 -0.9569407105445862 -0.29028353095054626 -5.81030050739173e-08 -0.9569407105445862 -0.29028353095054626 -5.81030050739173e-08 -0.9569407105445862 -0.29028353095054626 -5.81030050739173e-08 0.09801729768514633 0.995184600353241 0.0 0.09801729768514633 0.995184600353241 0.0 0.09801729768514633 0.995184600353241 0.0 0.09801729768514633 0.995184600353241 0.0 -0.09801650792360306 0.9951848387718201 0.0 -0.09801650792360306 0.9951848387718201 0.0 -0.09801650792360306 0.9951848387718201 0.0 -0.09801650792360306 0.9951848387718201 0.0 0.9569402933120728 -0.2902846336364746 -5.810303704834041e-08 0.9569402933120728 -0.2902846336364746 -5.810303704834041e-08 0.9569402933120728 -0.2902846336364746 -5.810303704834041e-08 0.9569402933120728 -0.2902846336364746 -5.810303704834041e-08 -0.47139713168144226 -0.881921112537384 0.0 -0.47139713168144226 -0.881921112537384 0.0 -0.47139713168144226 -0.881921112537384 0.0 -0.47139713168144226 -0.881921112537384 0.0 -0.7730096578598022 0.6343942284584045 0.0 -0.7730096578598022 0.6343942284584045 0.0 -0.7730096578598022 0.6343942284584045 0.0 -0.7730096578598022 0.6343942284584045 0.0 0.8819213509559631 0.47139644622802734 0.0 0.8819213509559631 0.47139644622802734 0.0 0.8819213509559631 0.47139644622802734 0.0 0.8819213509559631 0.47139644622802734 0.0 0.29028427600860596 -0.9569404721260071 0.0 0.29028427600860596 -0.9569404721260071 0.0 0.29028427600860596 -0.9569404721260071 0.0 0.29028427600860596 -0.9569404721260071 0.0 -0.9951847791671753 -0.09801658242940903 -1.4525761038441942e-08 -0.9951847791671753 -0.09801658242940903 -1.4525761038441942e-08 -0.9951847791671753 -0.09801658242940903 -1.4525761038441942e-08 -0.9951847791671753 -0.09801658242940903 -1.4525761038441942e-08 0.29028457403182983 0.9569402933120728 0.0 0.29028457403182983 0.9569402933120728 0.0 0.29028457403182983 0.9569402933120728 0.0 0.29028457403182983 0.9569402933120728 0.0 0.8819213509559631 -0.47139665484428406 0.0 0.8819213509559631 -0.47139665484428406 0.0 0.8819213509559631 -0.47139665484428406 0.0 0.8819213509559631 -0.47139665484428406 0.0 -0.6343938112258911 -0.7730101346969604 0.0 -0.6343938112258911 -0.7730101346969604 0.0 -0.6343938112258911 -0.7730101346969604 0.0 -0.6343938112258911 -0.7730101346969604 0.0 -0.6343923807144165 0.773011326789856 0.0 -0.6343923807144165 0.773011326789856 0.0 -0.6343923807144165 0.773011326789856 0.0 -0.6343923807144165 0.773011326789856 0.0 0.9569402933120728 0.2902846336364746 5.810303704834041e-08 0.9569402933120728 0.2902846336364746 5.810303704834041e-08 0.9569402933120728 0.2902846336364746 5.810303704834041e-08 0.9569402933120728 0.2902846336364746 5.810303704834041e-08</float_array>
				<technique_common>
				<accessor source="#id-mesh-6-normals-array" count="320" stride="3">
					<param name="X" type="float"/>
					<param name="Y" type="float"/>
					<param name="Z" type="float"/>
				</accessor>
				</technique_common>
			</source>
			<vertices id="id-mesh-6-vertices">
				<input semantic="POSITION" source="#id-mesh-6-positions"/>
			</vertices>
			<polygons count="66">
				<input semantic="VERTEX" source="#id-mesh-6-vertices" offset="0"/>
				<input semantic="NORMAL" source="#id-mesh-6-normals" offset="0"/>
				<p> 0 1 2 3 </p>
				<p> 4 5 6 7 </p>
				<p> 8 9 10 11 </p>
				<p> 12 13 14 15 </p>
				<p> 16 17 18 19 </p>
				<p> 20 21 22 23 </p>
				<p> 24 25 26 27 </p>
				<p> 28 29 30 31 </p>
				<p> 32 33 34 35 </p>
				<p> 36 37 38 39 </p>
				<p> 40 41 42 43 </p>
				<p> 44 45 46 47 </p>
				<p> 48 49 50 51 </p>
				<p> 52 53 54 55 </p>
				<p> 56 57 58 59 </p>
				<p> 60 61 62 63 </p>
				<p> 64 65 66 67 </p>
				<p> 68 69 70 71 </p>
				<p> 72 73 74 75 </p>
				<p> 76 77 78 79 </p>
				<p> 80 81 82 83 </p>
				<p> 84 85 86 87 </p>
				<p> 88 89 90 91 </p>
				<p> 92 93 94 95 </p>
				<p> 96 97 98 99 </p>
				<p> 100 101 102 103 </p>
				<p> 104 105 106 107 </p>
				<p> 108 109 110 111 </p>
				<p> 112 113 114 115 </p>
				<p> 116 117 118 119 </p>
				<p> 120 121 122 123 </p>
				<p> 124 125 126 127 </p>
				<p> 128 129 130 131 </p>
				<p> 132 133 134 135 136 137 138 139 140 141 142 143 144 145 146 147 148 149 150 151 152 153 154 155 156 157 158 159 160 161 162 163 </p>
				<p> 164 165 166 167 168 169 170 171 172 173 174 175 176 177 178 179 180 181 182 183 184 185 186 187 188 189 190 191 192 193 194 195 </p>
				<p> 196 197 198 199 </p>
				<p> 200 201 202 203 </p>
				<p> 204 205 206 207 </p>
				<p> 208 209 210 211 </p>
				<p> 212 213 214 215 </p>
				<p> 216 217 218 219 </p>
				<p> 220 221 222 223 </p>
				<p> 224 225 226 227 </p>
				<p> 228 229 230 231 </p>
				<p> 232 233 234 235 </p>
				<p> 236 237 238 239 </p>
				<p> 240 241 242 243 </p>
				<p> 244 245 246 247 </p>
				<p> 248 249 250 251 </p>
				<p> 252 253 254 255 </p>
				<p> 256 257 258 259 </p>
				<p> 260 261 262 263 </p>
				<p> 264 265 266 267 </p>
				<p> 268 269 270 271 </p>
				<p> 272 273 274 275 </p>
				<p> 276 277 278 279 </p>
				<p> 280 281 282 283 </p>
				<p> 284 285 286 287 </p>
				<p> 288 289 290 291 </p>
				<p> 292 293 294 295 </p>
				<p> 296 297 298 299 </p>
				<p> 300 301 302 303 </p>
				<p> 304 305 306 307 </p>
				<p> 308 309 310 311 </p>
				<p> 312 313 314 315 </p>
				<p> 316 317 318 319 </p>
			</polygons>
		</mesh>
	</geometry>
	<geometry id="id-mesh-7" name="Cylinder.001">
		<mesh>
			<source id="id-mesh-7-positions">
				<float_array id="id-mesh-7-positions-array" count="576"> 0.0 1.0 -1.0 0.0 1.0 1.0 0.19509032368659973 0.9807852506637573 1.0 0.19509032368659973 0.9807852506637573 -1.0 0.19509032368659973 0.9807852506637573 -1.0 0.19509032368659973 0.9807852506637573 1.0 0.3826834559440613 0.9238795042037964 1.0 0.3826834559440613 0.9238795042037964 -1.0 0.3826834559440613 0.9238795042037964 -1.0 0.3826834559440613 0.9238795042037964 1.0 0.5555702447891235 0.8314695954322815 1.0 0.5555702447891235 0.8314695954322815 -1.0 0.5555702447891235 0.8314695954322815 -1.0 0.5555702447891235 0.8314695954322815 1.0 0.7071067690849304 0.7071067690849304 1.0 0.7071067690849304 0.7071067690849304 -1.0 0.7071067690849304 0.7071067690849304 -1.0 0.7071067690849304 0.7071067690849304 1.0 0.8314696550369263 0.5555701851844788 1.0 0.8314696550369263 0.5555701851844788 -1.0 0.8314696550369263 0.5555701851844788 -1.0 0.8314696550369263 0.5555701851844788 1.0 0.9238795042037964 0.3826834261417389 1.0 0.9238795042037964 0.3826834261417389 -1.0 0.9238795042037964 0.3826834261417389 -1.0 0.9238795042037964 0.3826834261417389 1.0 0.9807852506637573 0.19509035348892212 1.0 0.9807852506637573 0.19509035348892212 -1.0 0.9807852506637573 0.19509035348892212 -1.0 0.9807852506637573 0.19509035348892212 1.0 1.0 7.549790126404332e-08 1.0 1.0 7.549790126404332e-08 -1.0 1.0 7.549790126404332e-08 -1.0 1.0 7.549790126404332e-08 1.0 0.9807853102684021 -0.19509020447731018 1.0 0.9807853102684021 -0.19509020447731018 -1.0 0.9807853102684021 -0.19509020447731018 -1.0 0.9807853102684021 -0.19509020447731018 1.0 0.9238795638084412 -0.38268327713012695 1.0 0.9238795638084412 -0.38268327713012695 -1.0 0.9238795638084412 -0.38268327713012695 -1.0 0.9238795638084412 -0.38268327713012695 1.0 0.8314696550369263 -0.5555701851844788 1.0 0.8314696550369263 -0.5555701851844788 -1.0 0.8314696550369263 -0.5555701851844788 -1.0 0.8314696550369263 -0.5555701851844788 1.0 0.7071067690849304 -0.7071067690849304 1.0 0.7071067690849304 -0.7071067690849304 -1.0 0.7071067690849304 -0.7071067690849304 -1.0 0.7071067690849304 -0.7071067690849304 1.0 0.5555701851844788 -0.8314696550369263 1.0 0.5555701851844788 -0.8314696550369263 -1.0 0.5555701851844788 -0.8314696550369263 -1.0 0.5555701851844788 -0.8314696550369263 1.0 0.38268327713012695 -0.9238796234130859 1.0 0.38268327713012695 -0.9238796234130859 -1.0 0.38268327713012695 -0.9238796234130859 -1.0 0.38268327713012695 -0.9238796234130859 1.0 0.19509008526802063 -0.9807853102684021 1.0 0.19509008526802063 -0.9807853102684021 -1.0 0.19509008526802063 -0.9807853102684021 -1.0 0.19509008526802063 -0.9807853102684021 1.0 -3.2584136988589307e-07 -1.0 1.0 -3.2584136988589307e-07 -1.0 -1.0 -3.2584136988589307e-07 -1.0 -1.0 -3.2584136988589307e-07 -1.0 1.0 -0.19509072601795197 -0.9807851910591125 1.0 -0.19509072601795197 -0.9807851910591125 -1.0 -0.19509072601795197 -0.9807851910591125 -1.0 -0.19509072601795197 -0.9807851910591125 1.0 -0.3826838731765747 -0.9238793253898621 1.0 -0.3826838731765747 -0.9238793253898621 -1.0 -0.3826838731765747 -0.9238793253898621 -1.0 -0.3826838731765747 -0.9238793253898621 1.0 -0.5555707216262817 -0.8314692974090576 1.0 -0.5555707216262817 -0.8314692974090576 -1.0 -0.5555707216262817 -0.8314692974090576 -1.0 -0.5555707216262817 -0.8314692974090576 1.0 -0.7071072459220886 -0.707106351852417 1.0 -0.7071072459220886 -0.707106351852417 -1.0 -0.7071072459220886 -0.707106351852417 -1.0 -0.7071072459220886 -0.707106351852417 1.0 -0.8314700126647949 -0.5555696487426758 1.0 -0.8314700126647949 -0.5555696487426758 -1.0 -0.8314700126647949 -0.5555696487426758 -1.0 -0.8314700126647949 -0.5555696487426758 1.0 -0.923879861831665 -0.3826826810836792 1.0 -0.923879861831665 -0.3826826810836792 -1.0 -0.923879861831665 -0.3826826810836792 -1.0 -0.923879861831665 -0.3826826810836792 1.0 -0.9807854294776917 -0.1950894594192505 1.0 -0.9807854294776917 -0.1950894594192505 -1.0 -0.9807854294776917 -0.1950894594192505 -1.0 -0.9807854294776917 -0.1950894594192505 1.0 -1.0 9.655991561885457e-07 1.0 -1.0 9.655991561885457e-07 -1.0 -1.0 9.655991561885457e-07 -1.0 -1.0 9.655991561885457e-07 1.0 -0.980785071849823 0.1950913518667221 1.0 -0.980785071849823 0.1950913518667221 -1.0 -0.980785071849823 0.1950913518667221 -1.0 -0.980785071849823 0.1950913518667221 1.0 -0.923879086971283 0.38268446922302246 1.0 -0.923879086971283 0.38268446922302246 -1.0 -0.923879086971283 0.38268446922302246 -1.0 -0.923879086971283 0.38268446922302246 1.0 -0.831468939781189 0.5555712580680847 1.0 -0.831468939781189 0.5555712580680847 -1.0 -0.831468939781189 0.5555712580680847 -1.0 -0.831468939781189 0.5555712580680847 1.0 -0.7071058750152588 0.707107663154602 1.0 -0.7071058750152588 0.707107663154602 -1.0 -0.7071058750152588 0.707107663154602 -1.0 -0.7071058750152588 0.707107663154602 1.0 -0.5555691123008728 0.8314703702926636 1.0 -0.5555691123008728 0.8314703702926636 -1.0 -0.5555691123008728 0.8314703702926636 -1.0 -0.5555691123008728 0.8314703702926636 1.0 -0.38268208503723145 0.9238801002502441 1.0 -0.38268208503723145 0.9238801002502441 -1.0 0.19509032368659973 0.9807852506637573 1.0 0.0 1.0 1.0 -0.19508881866931915 0.9807855486869812 1.0 -0.38268208503723145 0.9238801002502441 1.0 -0.5555691123008728 0.8314703702926636 1.0 -0.7071058750152588 0.707107663154602 1.0 -0.831468939781189 0.5555712580680847 1.0 -0.923879086971283 0.38268446922302246 1.0 -0.980785071849823 0.1950913518667221 1.0 -1.0 9.655991561885457e-07 1.0 -0.9807854294776917 -0.1950894594192505 1.0 -0.923879861831665 -0.3826826810836792 1.0 -0.8314700126647949 -0.5555696487426758 1.0 -0.7071072459220886 -0.707106351852417 1.0 -0.5555707216262817 -0.8314692974090576 1.0 -0.3826838731765747 -0.9238793253898621 1.0 -0.19509072601795197 -0.9807851910591125 1.0 -3.2584136988589307e-07 -1.0 1.0 0.19509008526802063 -0.9807853102684021 1.0 0.38268327713012695 -0.9238796234130859 1.0 0.5555701851844788 -0.8314696550369263 1.0 0.7071067690849304 -0.7071067690849304 1.0 0.8314696550369263 -0.5555701851844788 1.0 0.9238795638084412 -0.38268327713012695 1.0 0.9807853102684021 -0.19509020447731018 1.0 1.0 7.549790126404332e-08 1.0 0.9807852506637573 0.19509035348892212 1.0 0.9238795042037964 0.3826834261417389 1.0 0.8314696550369263 0.5555701851844788 1.0 0.7071067690849304 0.7071067690849304 1.0 0.5555702447891235 0.8314695954322815 1.0 0.3826834559440613 0.9238795042037964 1.0 -0.19508881866931915 0.9807855486869812 -1.0 -0.19508881866931915 0.9807855486869812 1.0 0.0 1.0 1.0 0.0 1.0 -1.0 -0.38268208503723145 0.9238801002502441 -1.0 -0.38268208503723145 0.9238801002502441 1.0 -0.19508881866931915 0.9807855486869812 1.0 -0.19508881866931915 0.9807855486869812 -1.0 0.0 1.0 -1.0 0.19509032368659973 0.9807852506637573 -1.0 0.3826834559440613 0.9238795042037964 -1.0 0.5555702447891235 0.8314695954322815 -1.0 0.7071067690849304 0.7071067690849304 -1.0 0.8314696550369263 0.5555701851844788 -1.0 0.9238795042037964 0.3826834261417389 -1.0 0.9807852506637573 0.19509035348892212 -1.0 1.0 7.549790126404332e-08 -1.0 0.9807853102684021 -0.19509020447731018 -1.0 0.9238795638084412 -0.38268327713012695 -1.0 0.8314696550369263 -0.5555701851844788 -1.0 0.7071067690849304 -0.7071067690849304 -1.0 0.5555701851844788 -0.8314696550369263 -1.0 0.38268327713012695 -0.9238796234130859 -1.0 0.19509008526802063 -0.9807853102684021 -1.0 -3.2584136988589307e-07 -1.0 -1.0 -0.19509072601795197 -0.9807851910591125 -1.0 -0.3826838731765747 -0.9238793253898621 -1.0 -0.5555707216262817 -0.8314692974090576 -1.0 -0.7071072459220886 -0.707106351852417 -1.0 -0.8314700126647949 -0.5555696487426758 -1.0 -0.923879861831665 -0.3826826810836792 -1.0 -0.9807854294776917 -0.1950894594192505 -1.0 -1.0 9.655991561885457e-07 -1.0 -0.980785071849823 0.1950913518667221 -1.0 -0.923879086971283 0.38268446922302246 -1.0 -0.831468939781189 0.5555712580680847 -1.0 -0.7071058750152588 0.707107663154602 -1.0 -0.5555691123008728 0.8314703702926636 -1.0 -0.38268208503723145 0.9238801002502441 -1.0 -0.19508881866931915 0.9807855486869812 -1.0</float_array>
				<technique_common>
				<accessor source="#id-mesh-7-positions-array" count="192" stride="3">
					<param name="X" type="float"/>
					<param name="Y" type="float"/>
					<param name="Z" type="float"/>
				</accessor>
				</technique_common>
			</source>
			<source id="id-mesh-7-normals">
				<float_array id="id-mesh-7-normals-array" count="576"> 0.09801729023456573 0.9951847195625305 0.0 0.09801729023456573 0.9951847195625305 0.0 0.09801729023456573 0.9951847195625305 0.0 0.09801729023456573 0.9951847195625305 0.0 0.2902846336364746 0.9569403529167175 0.0 0.2902846336364746 0.9569403529167175 0.0 0.2902846336364746 0.9569403529167175 0.0 0.2902846336364746 0.9569403529167175 0.0 0.47139671444892883 0.8819212913513184 0.0 0.47139671444892883 0.8819212913513184 0.0 0.47139671444892883 0.8819212913513184 0.0 0.47139671444892883 0.8819212913513184 0.0 0.6343933343887329 0.7730103731155396 0.0 0.6343933343887329 0.7730103731155396 0.0 0.6343933343887329 0.7730103731155396 0.0 0.6343933343887329 0.7730103731155396 0.0 0.7730104327201843 0.6343933939933777 0.0 0.7730104327201843 0.6343933939933777 0.0 0.7730104327201843 0.6343933939933777 0.0 0.7730104327201843 0.6343933939933777 0.0 0.8819213509559631 0.4713965356349945 0.0 0.8819213509559631 0.4713965356349945 0.0 0.8819213509559631 0.4713965356349945 0.0 0.8819213509559631 0.4713965356349945 0.0 0.9569402933120728 0.2902847230434418 0.0 0.9569402933120728 0.2902847230434418 0.0 0.9569402933120728 0.2902847230434418 0.0 0.9569402933120728 0.2902847230434418 0.0 0.9951847195625305 0.09801731258630753 0.0 0.9951847195625305 0.09801731258630753 0.0 0.9951847195625305 0.09801731258630753 0.0 0.9951847195625305 0.09801731258630753 0.0 0.9951847195625305 -0.09801700711250305 0.0 0.9951847195625305 -0.09801700711250305 0.0 0.9951847195625305 -0.09801700711250305 0.0 0.9951847195625305 -0.09801700711250305 0.0 0.9569402933120728 -0.2902847230434418 0.0 0.9569402933120728 -0.2902847230434418 0.0 0.9569402933120728 -0.2902847230434418 0.0 0.9569402933120728 -0.2902847230434418 0.0 0.8819214105606079 -0.47139644622802734 0.0 0.8819214105606079 -0.47139644622802734 0.0 0.8819214105606079 -0.47139644622802734 0.0 0.8819214105606079 -0.47139644622802734 0.0 0.7730104327201843 -0.6343933939933777 0.0 0.7730104327201843 -0.6343933939933777 0.0 0.7730104327201843 -0.6343933939933777 0.0 0.7730104327201843 -0.6343933939933777 0.0 0.6343933939933777 -0.7730104327201843 0.0 0.6343933939933777 -0.7730104327201843 0.0 0.6343933939933777 -0.7730104327201843 0.0 0.6343933939933777 -0.7730104327201843 0.0 0.47139668464660645 -0.8819212317466736 0.0 0.47139668464660645 -0.8819212317466736 0.0 0.47139668464660645 -0.8819212317466736 0.0 0.47139668464660645 -0.8819212317466736 0.0 0.29028427600860596 -0.9569404721260071 0.0 0.29028427600860596 -0.9569404721260071 0.0 0.29028427600860596 -0.9569404721260071 0.0 0.29028427600860596 -0.9569404721260071 0.0 0.09801694005727768 -0.9951847195625305 0.0 0.09801694005727768 -0.9951847195625305 0.0 0.09801694005727768 -0.9951847195625305 0.0 0.09801694005727768 -0.9951847195625305 0.0 -0.09801755100488663 -0.9951846599578857 0.0 -0.09801755100488663 -0.9951846599578857 0.0 -0.09801755100488663 -0.9951846599578857 0.0 -0.09801755100488663 -0.9951846599578857 0.0 -0.2902851700782776 -0.9569401741027832 0.0 -0.2902851700782776 -0.9569401741027832 0.0 -0.2902851700782776 -0.9569401741027832 0.0 -0.2902851700782776 -0.9569401741027832 0.0 -0.4713970720767975 -0.881921112537384 0.0 -0.4713970720767975 -0.881921112537384 0.0 -0.4713970720767975 -0.881921112537384 0.0 -0.4713970720767975 -0.881921112537384 0.0 -0.6343936920166016 -0.7730101346969604 0.0 -0.6343936920166016 -0.7730101346969604 0.0 -0.6343936920166016 -0.7730101346969604 0.0 -0.6343936920166016 -0.7730101346969604 0.0 -0.7730109691619873 -0.6343927383422852 0.0 -0.7730109691619873 -0.6343927383422852 0.0 -0.7730109691619873 -0.6343927383422852 0.0 -0.7730109691619873 -0.6343927383422852 0.0 -0.8819215297698975 -0.4713960587978363 0.0 -0.8819215297698975 -0.4713960587978363 0.0 -0.8819215297698975 -0.4713960587978363 0.0 -0.8819215297698975 -0.4713960587978363 0.0 -0.9569406509399414 -0.2902836799621582 0.0 -0.9569406509399414 -0.2902836799621582 0.0 -0.9569406509399414 -0.2902836799621582 0.0 -0.9569406509399414 -0.2902836799621582 0.0 -0.9951847791671753 -0.09801633656024933 0.0 -0.9951847791671753 -0.09801633656024933 0.0 -0.9951847791671753 -0.09801633656024933 0.0 -0.9951847791671753 -0.09801633656024933 0.0 -0.995184600353241 0.09801815450191498 0.0 -0.995184600353241 0.09801815450191498 0.0 -0.995184600353241 0.09801815450191498 0.0 -0.995184600353241 0.09801815450191498 0.0 -0.9569399952888489 0.29028576612472534 0.0 -0.9569399952888489 0.29028576612472534 0.0 -0.9569399952888489 0.29028576612472534 0.0 -0.9569399952888489 0.29028576612472534 0.0 -0.8819208145141602 0.47139766812324524 0.0 -0.8819208145141602 0.47139766812324524 0.0 -0.8819208145141602 0.47139766812324524 0.0 -0.8819208145141602 0.47139766812324524 0.0 -0.7730095982551575 0.6343943476676941 0.0 -0.7730095982551575 0.6343943476676941 0.0 -0.7730095982551575 0.6343943476676941 0.0 -0.7730095982551575 0.6343943476676941 0.0 -0.6343923807144165 0.7730112075805664 0.0 -0.6343923807144165 0.7730112075805664 0.0 -0.6343923807144165 0.7730112075805664 0.0 -0.6343923807144165 0.7730112075805664 0.0 -0.47139546275138855 0.8819218277931213 0.0 -0.47139546275138855 0.8819218277931213 0.0 -0.47139546275138855 0.8819218277931213 0.0 -0.47139546275138855 0.8819218277931213 0.0 -6.683323761080828e-08 0.0 1.0 -6.683323761080828e-08 0.0 1.0 -6.683323761080828e-08 0.0 1.0 -6.683323761080828e-08 0.0 1.0 -6.683323761080828e-08 0.0 1.0 -6.683323761080828e-08 0.0 1.0 -6.683323761080828e-08 0.0 1.0 -6.683323761080828e-08 0.0 1.0 -6.683323761080828e-08 0.0 1.0 -6.683323761080828e-08 0.0 1.0 -6.683323761080828e-08 0.0 1.0 -6.683323761080828e-08 0.0 1.0 -6.683323761080828e-08 0.0 1.0 -6.683323761080828e-08 0.0 1.0 -6.683323761080828e-08 0.0 1.0 -6.683323761080828e-08 0.0 1.0 -6.683323761080828e-08 0.0 1.0 -6.683323761080828e-08 0.0 1.0 -6.683323761080828e-08 0.0 1.0 -6.683323761080828e-08 0.0 1.0 -6.683323761080828e-08 0.0 1.0 -6.683323761080828e-08 0.0 1.0 -6.683323761080828e-08 0.0 1.0 -6.683323761080828e-08 0.0 1.0 -6.683323761080828e-08 0.0 1.0 -6.683323761080828e-08 0.0 1.0 -6.683323761080828e-08 0.0 1.0 -6.683323761080828e-08 0.0 1.0 -6.683323761080828e-08 0.0 1.0 -6.683323761080828e-08 0.0 1.0 -6.683323761080828e-08 0.0 1.0 -6.683323761080828e-08 0.0 1.0 -0.09801653027534485 0.9951847791671753 0.0 -0.09801653027534485 0.9951847791671753 0.0 -0.09801653027534485 0.9951847791671753 0.0 -0.09801653027534485 0.9951847791671753 0.0 -0.29028305411338806 0.9569408893585205 0.0 -0.29028305411338806 0.9569408893585205 0.0 -0.29028305411338806 0.9569408893585205 0.0 -0.29028305411338806 0.9569408893585205 0.0 5.7285621579694634e-08 0.0 -1.0 5.7285621579694634e-08 0.0 -1.0 5.7285621579694634e-08 0.0 -1.0 5.7285621579694634e-08 0.0 -1.0 5.7285621579694634e-08 0.0 -1.0 5.7285621579694634e-08 0.0 -1.0 5.7285621579694634e-08 0.0 -1.0 5.7285621579694634e-08 0.0 -1.0 5.7285621579694634e-08 0.0 -1.0 5.7285621579694634e-08 0.0 -1.0 5.7285621579694634e-08 0.0 -1.0 5.7285621579694634e-08 0.0 -1.0 5.7285621579694634e-08 0.0 -1.0 5.7285621579694634e-08 0.0 -1.0 5.7285621579694634e-08 0.0 -1.0 5.7285621579694634e-08 0.0 -1.0 5.7285621579694634e-08 0.0 -1.0 5.7285621579694634e-08 0.0 -1.0 5.7285621579694634e-08 0.0 -1.0 5.7285621579694634e-08 0.0 -1.0 5.7285621579694634e-08 0.0 -1.0 5.7285621579694634e-08 0.0 -1.0 5.7285621579694634e-08 0.0 -1.0 5.7285621579694634e-08 0.0 -1.0 5.7285621579694634e-08 0.0 -1.0 5.7285621579694634e-08 0.0 -1.0 5.7285621579694634e-08 0.0 -1.0 5.7285621579694634e-08 0.0 -1.0 5.7285621579694634e-08 0.0 -1.0 5.7285621579694634e-08 0.0 -1.0 5.7285621579694634e-08 0.0 -1.0 5.7285621579694634e-08 0.0 -1.0</float_array>
				<technique_common>
				<accessor source="#id-mesh-7-normals-array" count="192" stride="3">
					<param name="X" type="float"/>
					<param name="Y" type="float"/>
					<param name="Z" type="float"/>
				</accessor>
				</technique_common>
			</source>
			<vertices id="id-mesh-7-vertices">
				<input semantic="POSITION" source="#id-mesh-7-positions"/>
			</vertices>
			<polygons count="34">
				<input semantic="VERTEX" source="#id-mesh-7-vertices" offset="0"/>
				<input semantic="NORMAL" source="#id-mesh-7-normals" offset="0"/>
				<p> 0 1 2 3 </p>
				<p> 4 5 6 7 </p>
				<p> 8 9 10 11 </p>
				<p> 12 13 14 15 </p>
				<p> 16 17 18 19 </p>
				<p> 20 21 22 23 </p>
				<p> 24 25 26 27 </p>
				<p> 28 29 30 31 </p>
				<p> 32 33 34 35 </p>
				<p> 36 37 38 39 </p>
				<p> 40 41 42 43 </p>
				<p> 44 45 46 47 </p>
				<p> 48 49 50 51 </p>
				<p> 52 53 54 55 </p>
				<p> 56 57 58 59 </p>
				<p> 60 61 62 63 </p>
				<p> 64 65 66 67 </p>
				<p> 68 69 70 71 </p>
				<p> 72 73 74 75 </p>
				<p> 76 77 78 79 </p>
				<p> 80 81 82 83 </p>
				<p> 84 85 86 87 </p>
				<p> 88 89 90 91 </p>
				<p> 92 93 94 95 </p>
				<p> 96 97 98 99 </p>
				<p> 100 101 102 103 </p>
				<p> 104 105 106 107 </p>
				<p> 108 109 110 111 </p>
				<p> 112 113 114 115 </p>
				<p> 116 117 118 119 </p>
				<p> 120 121 122 123 124 125 126 127 128 129 130 131 132 133 134 135 136 137 138 139 140 141 142 143 144 145 146 147 148 149 150 151 </p>
				<p> 152 153 154 155 </p>
				<p> 156 157 158 159 </p>
				<p> 160 161 162 163 164 165 166 167 168 169 170 171 172 173 174 175 176 177 178 179 180 181 182 183 184 185 186 187 188 189 190 191 </p>
			</polygons>
		</mesh>
	</geometry>
</library_geometries>
<library_visual_scenes>
	<visual_scene id="id-scene-1" name="scene">
		<node id="Cube" name="Cube" type="NODE">
			<matrix sid="transform"> 1.0 0.0 0.0 0.00010325014591217041 0.0 1.0 0.0 -1.0246162414550781 0.0 0.0 1.0 1.3404737710952759 0.0 0.0 0.0 1.0  </matrix>
			<instance_geometry url="#id-mesh-2">
			</instance_geometry>
		</node>
		<node id="Cube.001" name="Cube.001" type="NODE">
			<matrix sid="transform"> 1.0 0.0 0.0 -0.0035048574209213257 0.0 1.0 0.0 -0.730980396270752 0.0 0.0 -0.28453946113586426 1.4944181442260742 0.0 0.0 0.0 1.0  </matrix>
			<instance_geometry url="#id-mesh-3">
			</instance_geometry>
		</node>
		<node id="Cube.002" name="Cube.002" type="NODE">
			<matrix sid="transform"> 0.5250478386878967 0.0 0.0 -0.0035047978162765503 0.0 0.5250478386878967 0.0 1.444098949432373 0.0 0.0 -0.14939682185649872 1.0917391777038574 0.0 0.0 0.0 1.0  </matrix>
			<instance_geometry url="#id-mesh-4">
			</instance_geometry>
		</node>
		<node id="Cube.003" name="Cube.003" type="NODE">
			<matrix sid="transform"> 0.39113086462020874 0.0 0.0 0.4403608441352844 0.0 0.39113086462020874 0.0 -2.223529100418091 0.0 0.0 0.28225094079971313 2.3000497817993164 0.0 0.0 0.0 1.0  </matrix>
			<instance_geometry url="#id-mesh-5">
			</instance_geometry>
		</node>
		<node id="Cylinder" name="Cylinder" type="NODE">
			<matrix sid="transform"> 4.8078259595740747e-08 -7.591436457232703e-08 0.6368158459663391 -2.0190370082855225 0.0 0.6368158459663391 7.591436457232703e-08 -1.0779824256896973 -0.6368158459663391 -5.731375169246286e-15 4.8078259595740747e-08 0.6463165283203125 0.0 0.0 0.0 1.0  </matrix>
			<instance_geometry url="#id-mesh-6">
			</instance_geometry>
		</node>
		<node id="Cylinder.001" name="Cylinder.001" type="NODE">
			<matrix sid="transform"> 4.8078259595740747e-08 -7.591436457232703e-08 0.6368158459663391 -2.0190370082855225 0.0 0.6368158459663391 7.591436457232703e-08 0.29657959938049316 -0.6368158459663391 -5.731375169246286e-15 4.8078259595740747e-08 0.6463165283203125 0.0 0.0 0.0 1.0  </matrix>
			<instance_geometry url="#id-mesh-6">
			</instance_geometry>
		</node>
		<node id="Cylinder.002" name="Cylinder.002" type="NODE">
			<matrix sid="transform"> 4.8078259595740747e-08 -7.591436457232703e-08 0.6368158459663391 -2.0190374851226807 0.0 0.6368158459663391 7.591436457232703e-08 1.683542251586914 -0.6368158459663391 -5.731375169246286e-15 4.8078259595740747e-08 0.6463165283203125 0.0 0.0 0.0 1.0  </matrix>
			<instance_geometry url="#id-mesh-6">
			</instance_geometry>
		</node>
		<node id="Cylinder.003" name="Cylinder.003" type="NODE">
			<matrix sid="transform"> 4.8078259595740747e-08 -7.591436457232703e-08 -0.6368158459663391 2.0068953037261963 0.0 0.6368158459663391 -7.591436457232703e-08 1.6835427284240723 -0.6368158459663391 -5.731375169246286e-15 -4.8078259595740747e-08 0.6463165283203125 0.0 0.0 0.0 1.0  </matrix>
			<instance_geometry url="#id-mesh-6">
			</instance_geometry>
		</node>
		<node id="Cylinder.004" name="Cylinder.004" type="NODE">
			<matrix sid="transform"> 4.8078259595740747e-08 -7.591436457232703e-08 -0.6368158459663391 2.006895065307617 0.0 0.6368158459663391 -7.591436457232703e-08 0.2965797185897827 -0.6368158459663391 -5.731375169246286e-15 -4.8078259595740747e-08 0.6463165283203125 0.0 0.0 0.0 1.0  </matrix>
			<instance_geometry url="#id-mesh-6">
			</instance_geometry>
		</node>
		<node id="Cylinder.005" name="Cylinder.005" type="NODE">
			<matrix sid="transform"> 4.8078259595740747e-08 -7.591436457232703e-08 -0.6368158459663391 2.0068953037261963 0.0 0.6368158459663391 -7.591436457232703e-08 -1.0779823064804077 -0.6368158459663391 -5.731375169246286e-15 -4.8078259595740747e-08 0.6463165283203125 0.0 0.0 0.0 1.0  </matrix>
			<instance_geometry url="#id-mesh-6">
			</instance_geometry>
		</node>
		<node id="Cylinder.006" name="Cylinder.006" type="NODE">
			<matrix sid="transform"> 0.8508136868476868 0.0 0.0 0.0108574777841568 0.0 0.8508136868476868 0.0 -0.730980396270752 0.0 0.0 0.17203888297080994 1.0842151641845703 0.0 0.0 0.0 1.0  </matrix>
			<instance_geometry url="#id-mesh-7">
			</instance_geometry>
		</node>
	</visual_scene>
</library_visual_scenes>
<scene>
	<instance_visual_scene url="#id-scene-1" />
</scene>
</COLLADA>
