[gd_scene load_steps=12 format=2]

[ext_resource path="res://Powerup_Tier.gd" type="Script" id=1]
[ext_resource path="res://assets/graphics/powerup_tier.png" type="Texture" id=2]
[ext_resource path="res://assets/graphics/plasma_particle.png" type="Texture" id=3]

[sub_resource type="SphereShape" id=1]

radius = 1.0

[sub_resource type="SphereShape" id=2]

radius = 1.0

[sub_resource type="SpatialMaterial" id=3]

render_priority = 0
flags_transparent = true
flags_unshaded = true
flags_vertex_lighting = false
flags_no_depth_test = false
flags_use_point_size = false
flags_world_triplanar = false
flags_fixed_size = false
flags_albedo_tex_force_srgb = false
vertex_color_use_as_albedo = false
vertex_color_is_srgb = false
params_diffuse_mode = 0
params_specular_mode = 0
params_blend_mode = 0
params_cull_mode = 0
params_depth_draw_mode = 0
params_line_width = 1.0
params_point_size = 1.0
params_billboard_mode = 3
params_grow = false
params_use_alpha_scissor = false
particles_anim_h_frames = 1
particles_anim_v_frames = 1
particles_anim_loop = 0
albedo_color = Color( 0.728058, 0.480469, 1, 1 )
metallic = 0.0
metallic_specular = 0.0
metallic_texture_channel = 0
roughness = 0.0
roughness_texture_channel = 0
emission_enabled = false
normal_enabled = false
rim_enabled = false
clearcoat_enabled = false
anisotropy_enabled = false
ao_enabled = false
depth_enabled = false
subsurf_scatter_enabled = false
transmission_enabled = false
refraction_enabled = false
detail_enabled = false
uv1_scale = Vector3( 1, 1, 1 )
uv1_offset = Vector3( 0, 0, 0 )
uv1_triplanar = false
uv1_triplanar_sharpness = 1.0
uv2_scale = Vector3( 1, 1, 1 )
uv2_offset = Vector3( 0, 0, 0 )
uv2_triplanar = false
uv2_triplanar_sharpness = 1.0
proximity_fade_enable = false
distance_fade_enable = false
_sections_unfolded = [ "Albedo", "Flags", "Metallic", "Parameters", "Refraction" ]

[sub_resource type="SpatialMaterial" id=4]

render_priority = 0
flags_transparent = true
flags_unshaded = false
flags_vertex_lighting = false
flags_no_depth_test = false
flags_use_point_size = false
flags_world_triplanar = false
flags_fixed_size = false
flags_albedo_tex_force_srgb = false
vertex_color_use_as_albedo = false
vertex_color_is_srgb = false
params_diffuse_mode = 0
params_specular_mode = 0
params_blend_mode = 0
params_cull_mode = 0
params_depth_draw_mode = 0
params_line_width = 1.0
params_point_size = 1.0
params_billboard_mode = 0
params_grow = false
params_use_alpha_scissor = false
albedo_color = Color( 0.499054, 0, 0.808594, 0.513843 )
metallic = 0.0
metallic_specular = 0.0
metallic_texture_channel = 0
roughness = 0.0
roughness_texture_channel = 0
emission_enabled = false
normal_enabled = false
rim_enabled = false
clearcoat_enabled = false
anisotropy_enabled = false
ao_enabled = false
depth_enabled = false
subsurf_scatter_enabled = false
transmission_enabled = false
refraction_enabled = false
detail_enabled = false
uv1_scale = Vector3( 1, 1, 1 )
uv1_offset = Vector3( 0, 0, 0 )
uv1_triplanar = false
uv1_triplanar_sharpness = 1.0
uv2_scale = Vector3( 1, 1, 1 )
uv2_offset = Vector3( 0, 0, 0 )
uv2_triplanar = false
uv2_triplanar_sharpness = 1.0
proximity_fade_enable = false
distance_fade_enable = false
_sections_unfolded = [ "Albedo", "Flags", "Metallic", "Parameters" ]

[sub_resource type="SphereMesh" id=5]

custom_aabb = AABB( 0, 0, 0, 0, 0, 0 )
radius = 1.0
height = 2.0
radial_segments = 64
rings = 32
is_hemisphere = false

[sub_resource type="SpatialMaterial" id=6]

render_priority = 0
flags_transparent = true
flags_unshaded = false
flags_vertex_lighting = false
flags_no_depth_test = false
flags_use_point_size = false
flags_world_triplanar = false
flags_fixed_size = false
flags_albedo_tex_force_srgb = false
vertex_color_use_as_albedo = false
vertex_color_is_srgb = false
params_diffuse_mode = 0
params_specular_mode = 0
params_blend_mode = 0
params_cull_mode = 0
params_depth_draw_mode = 0
params_line_width = 1.0
params_point_size = 1.0
params_billboard_mode = 1
params_grow = false
params_use_alpha_scissor = false
albedo_color = Color( 0.525757, 0.132812, 1, 1 )
albedo_texture = ExtResource( 3 )
metallic = 0.0
metallic_specular = 0.5
metallic_texture_channel = 0
roughness = 0.0
roughness_texture_channel = 0
emission_enabled = false
normal_enabled = false
rim_enabled = false
clearcoat_enabled = false
anisotropy_enabled = false
ao_enabled = false
depth_enabled = false
subsurf_scatter_enabled = false
transmission_enabled = false
refraction_enabled = false
detail_enabled = false
uv1_scale = Vector3( 1, 1, 1 )
uv1_offset = Vector3( 0, 0, 0 )
uv1_triplanar = false
uv1_triplanar_sharpness = 1.0
uv2_scale = Vector3( 1, 1, 1 )
uv2_offset = Vector3( 0, 0, 0 )
uv2_triplanar = false
uv2_triplanar_sharpness = 1.0
proximity_fade_enable = false
distance_fade_enable = false
_sections_unfolded = [ "Albedo", "Flags", "Parameters" ]

[sub_resource type="ParticlesMaterial" id=7]

render_priority = 0
trail_divisor = 1
emission_shape = 0
flag_align_y = false
flag_rotate_y = false
flag_disable_z = false
spread = 45.0
flatness = 0.0
gravity = Vector3( 0, 9.8, 0 )
initial_velocity = 0.0
initial_velocity_random = 0.0
angular_velocity = 0.0
angular_velocity_random = 0.0
linear_accel = 0.0
linear_accel_random = 0.0
radial_accel = 0.0
radial_accel_random = 0.0
tangential_accel = 0.0
tangential_accel_random = 0.0
damping = 0.0
damping_random = 0.0
angle = 0.0
angle_random = 0.0
scale = 1.0
scale_random = 0.0
color = Color( 1, 1, 1, 1 )
hue_variation = 0.0
hue_variation_random = 0.0
anim_speed = 0.0
anim_speed_random = 0.0
anim_offset = 0.0
anim_offset_random = 0.0
anim_loop = false
_sections_unfolded = [ "Gravity", "Initial Velocity" ]

[sub_resource type="QuadMesh" id=8]

custom_aabb = AABB( 0, 0, 0, 0, 0, 0 )
size = Vector2( 1, 1 )

[node name="Powerup_Tier" type="RigidBody"]

input_ray_pickable = true
input_capture_on_drag = false
collision_layer = 1
collision_mask = 1
mode = 0
mass = 1.0
friction = 1.0
bounce = 0.0
gravity_scale = 0.1
custom_integrator = false
continuous_cd = false
contacts_reported = 0
contact_monitor = false
sleeping = false
can_sleep = true
axis_lock_linear_x = false
axis_lock_linear_y = false
axis_lock_linear_z = false
axis_lock_angular_x = true
axis_lock_angular_y = true
axis_lock_angular_z = true
linear_velocity = Vector3( 0, 0, 0 )
linear_damp = -1.0
angular_velocity = Vector3( 0, 0, 0 )
angular_damp = -1.0
script = ExtResource( 1 )
_sections_unfolded = [ "Axis Lock" ]

[node name="CollisionShape" type="CollisionShape" parent="." index="0"]

shape = SubResource( 1 )
disabled = false

[node name="Area" type="Area" parent="." index="1"]

transform = Transform( 1, 0, 0, 0, 1, 0, 0, 0, 1, 0, -1.04035, 0 )
input_ray_pickable = false
input_capture_on_drag = false
space_override = 0
gravity_point = false
gravity_distance_scale = 0.0
gravity_vec = Vector3( 0, -1, 0 )
gravity = 9.8
linear_damp = 0.1
angular_damp = 1.0
priority = 0.0
monitoring = true
monitorable = true
collision_layer = 1
collision_mask = 1
audio_bus_override = false
audio_bus_name = "Master"
reverb_bus_enable = false
reverb_bus_name = "Master"
reverb_bus_amount = 0.0
reverb_bus_uniformity = 0.0

[node name="CollisionShape" type="CollisionShape" parent="Area" index="0"]

transform = Transform( 1.25412, 0, 0, 0, 1.25412, 0, 0, 0, 1.25412, 0, 1.03396, 0 )
shape = SubResource( 2 )
disabled = false

[node name="Sprite3D" type="Sprite3D" parent="." index="2"]

transform = Transform( 0.393507, 0, 0, 0, 0.393507, 0, 0, 0, 0.393507, 0, 0.190599, 0 )
layers = 1
material_override = SubResource( 3 )
cast_shadow = 1
extra_cull_margin = 0.0
use_in_baked_light = false
lod_min_distance = 0.0
lod_min_hysteresis = 0.0
lod_max_distance = 0.0
lod_max_hysteresis = 0.0
centered = true
offset = Vector2( 0, 0 )
flip_h = false
flip_v = false
modulate = Color( 1, 1, 1, 1 )
opacity = 1.0
pixel_size = 0.01
axis = 2
transparent = true
shaded = false
double_sided = true
alpha_cut = 0
texture = ExtResource( 2 )
vframes = 1
hframes = 1
frame = 0
region_enabled = false
region_rect = Rect2( 0, 0, 0, 0 )
_sections_unfolded = [ "Flags", "Geometry" ]

[node name="MeshInstance" type="MeshInstance" parent="." index="3"]

transform = Transform( 1, 0, 0, 0, 1, 0, 0, 0, 1, 0, 0.00179172, 0 )
layers = 1
material_override = SubResource( 4 )
cast_shadow = 0
extra_cull_margin = 0.0
use_in_baked_light = false
lod_min_distance = 0.0
lod_min_hysteresis = 0.0
lod_max_distance = 0.0
lod_max_hysteresis = 0.0
mesh = SubResource( 5 )
skeleton = NodePath("..")
material/0 = null
_sections_unfolded = [ "Geometry" ]

[node name="Particles" type="Particles" parent="." index="4"]

transform = Transform( 1, 0, 0, 0, 1, 0, 0, 0, 1, 0, 1.07196, 0 )
layers = 1
material_override = SubResource( 6 )
cast_shadow = 1
extra_cull_margin = 0.0
use_in_baked_light = false
lod_min_distance = 0.0
lod_min_hysteresis = 0.0
lod_max_distance = 0.0
lod_max_hysteresis = 0.0
emitting = true
amount = 32
lifetime = 2.0
one_shot = false
preprocess = 0.0
speed_scale = 1.0
explosiveness = 0.0
randomness = 0.0
fixed_fps = 0
fract_delta = true
visibility_aabb = AABB( -4, -4, -4, 8, 8, 8 )
local_coords = true
draw_order = 0
process_material = SubResource( 7 )
draw_passes = 1
draw_pass_1 = SubResource( 8 )
_sections_unfolded = [ "Draw Passes", "Geometry", "Process Material", "Time" ]

[connection signal="input_event" from="." to="." method="_on_Powerup_input_event"]

[connection signal="body_entered" from="Area" to="." method="_on_Area_body_entered"]

[connection signal="input_event" from="Area" to="." method="_on_Powerup_input_event"]


