[gd_scene load_steps=9 format=2]

[ext_resource path="res://assets/graphics/plasma_particle.png" type="Texture" id=1]

[sub_resource type="SpatialMaterial" id=11]

render_priority = 0
flags_transparent = true
flags_unshaded = false
flags_vertex_lighting = false
flags_no_depth_test = false
flags_use_point_size = false
flags_world_triplanar = false
flags_fixed_size = false
flags_albedo_tex_force_srgb = false
vertex_color_use_as_albedo = false
vertex_color_is_srgb = false
params_diffuse_mode = 0
params_specular_mode = 0
params_blend_mode = 0
params_cull_mode = 0
params_depth_draw_mode = 0
params_line_width = 1.0
params_point_size = 1.0
params_billboard_mode = 3
params_grow = false
params_use_alpha_scissor = false
particles_anim_h_frames = 1
particles_anim_v_frames = 1
particles_anim_loop = 0
albedo_color = Color( 1, 1, 1, 1 )
albedo_texture = ExtResource( 1 )
metallic = 0.0
metallic_specular = 0.5
metallic_texture_channel = 0
roughness = 0.0
roughness_texture_channel = 0
emission_enabled = true
emission = Color( 0.96875, 0, 1, 1 )
emission_energy = 16.0
emission_operator = 0
emission_on_uv2 = false
normal_enabled = false
rim_enabled = false
clearcoat_enabled = false
anisotropy_enabled = false
ao_enabled = false
depth_enabled = false
subsurf_scatter_enabled = false
transmission_enabled = false
refraction_enabled = false
detail_enabled = false
uv1_scale = Vector3( 1, 1, 1 )
uv1_offset = Vector3( 0, 0, 0 )
uv1_triplanar = false
uv1_triplanar_sharpness = 1.0
uv2_scale = Vector3( 1, 1, 1 )
uv2_offset = Vector3( 0, 0, 0 )
uv2_triplanar = false
uv2_triplanar_sharpness = 1.0
proximity_fade_enable = false
distance_fade_enable = false
_sections_unfolded = [ "Albedo", "Emission", "Flags", "Parameters" ]

[sub_resource type="Gradient" id=7]

offsets = PoolRealArray( 0, 1 )
colors = PoolColorArray( 0, 0, 0, 1, 1, 1, 1, 1 )

[sub_resource type="GradientTexture" id=8]

flags = 4
gradient = SubResource( 7 )
width = 2048

[sub_resource type="Curve" id=9]

min_value = 0.0
max_value = 1.0
bake_resolution = 100
_data = [ Vector2( 0, 1 ), 0.0, 0.0, 0, 0, Vector2( 1, 1 ), 0.0, 0.0, 0, 0 ]

[sub_resource type="CurveTexture" id=10]

flags = 4
width = 2048
curve = SubResource( 9 )

[sub_resource type="ParticlesMaterial" id=12]

render_priority = 0
trail_divisor = 1
emission_shape = 2
emission_box_extents = Vector3( 0.3, 0.3, 0.3 )
flag_align_y = false
flag_rotate_y = false
flag_disable_z = false
spread = 1.0
flatness = 0.0
gravity = Vector3( 0, 1, 0 )
initial_velocity = 0.0
initial_velocity_random = 1.0
angular_velocity = 0.0
angular_velocity_random = 0.0
linear_accel = 0.0
linear_accel_random = 0.0
radial_accel = 0.0
radial_accel_random = 0.0
tangential_accel = 0.0
tangential_accel_random = 0.0
damping = 0.0
damping_random = 0.0
angle = 0.0
angle_random = 0.0
scale = 0.2
scale_random = 0.0
scale_curve = SubResource( 10 )
color_ramp = SubResource( 8 )
hue_variation = 1.0
hue_variation_random = 0.91
anim_speed = 0.0
anim_speed_random = 0.0
anim_offset = 0.0
anim_offset_random = 0.0
anim_loop = false
_sections_unfolded = [ "Color", "Emission Shape", "Flags", "Gravity", "Hue Variation", "Initial Velocity", "Linear Accel", "Resource", "Scale", "Spread", "Trail" ]

[sub_resource type="QuadMesh" id=6]

custom_aabb = AABB( 0, 0, 0, 0, 0, 0 )
size = Vector2( 1, 1 )

[node name="Effect_Laser_Impact" type="Spatial"]

_sections_unfolded = [ "Angular", "Axis Lock", "Transform" ]

[node name="Particles" type="Particles" parent="." index="0"]

transform = Transform( 0.914008, 0, 0, 0, 0.914008, 0, 0, 0, 0.914008, 0, 0, 0 )
layers = 1
material_override = SubResource( 11 )
cast_shadow = 1
extra_cull_margin = 0.0
use_in_baked_light = false
lod_min_distance = 0.0
lod_min_hysteresis = 0.0
lod_max_distance = 0.0
lod_max_hysteresis = 0.0
emitting = true
amount = 32
lifetime = 2.0
one_shot = false
preprocess = 0.0
speed_scale = 2.0
explosiveness = 0.0
randomness = 0.56
fixed_fps = 0
fract_delta = false
visibility_aabb = AABB( -4, -0.621556, -4, 8, 5.69721, 8 )
local_coords = false
draw_order = 0
process_material = SubResource( 12 )
draw_passes = 1
draw_pass_1 = SubResource( 6 )
_sections_unfolded = [ "Draw Passes", "Drawing", "Geometry", "Process Material", "Time", "Transform" ]


