[gd_scene load_steps=7 format=2]

[ext_resource path="res://assets/graphics/rail_particle.png" type="Texture" id=1]

[sub_resource type="SpatialMaterial" id=2]

render_priority = 0
flags_transparent = true
flags_unshaded = false
flags_vertex_lighting = false
flags_no_depth_test = false
flags_use_point_size = false
flags_world_triplanar = false
flags_fixed_size = false
flags_albedo_tex_force_srgb = false
vertex_color_use_as_albedo = false
vertex_color_is_srgb = false
params_diffuse_mode = 0
params_specular_mode = 0
params_blend_mode = 0
params_cull_mode = 0
params_depth_draw_mode = 0
params_line_width = 1.0
params_point_size = 1.0
params_billboard_mode = 3
params_grow = false
params_use_alpha_scissor = false
particles_anim_h_frames = 1
particles_anim_v_frames = 1
particles_anim_loop = 0
albedo_color = Color( 1, 1, 1, 0.508314 )
albedo_texture = ExtResource( 1 )
metallic = 0.0
metallic_specular = 0.5
metallic_texture_channel = 0
roughness = 0.0
roughness_texture_channel = 0
emission_enabled = true
emission = Color( 0, 0.0390625, 1, 1 )
emission_energy = 5.7
emission_operator = 0
emission_on_uv2 = false
normal_enabled = false
rim_enabled = false
clearcoat_enabled = false
anisotropy_enabled = false
ao_enabled = false
depth_enabled = false
subsurf_scatter_enabled = false
transmission_enabled = false
refraction_enabled = false
detail_enabled = false
uv1_scale = Vector3( 1, 1, 1 )
uv1_offset = Vector3( 0, 0, 0 )
uv1_triplanar = false
uv1_triplanar_sharpness = 1.0
uv2_scale = Vector3( 1, 1, 1 )
uv2_offset = Vector3( 0, 0, 0 )
uv2_triplanar = false
uv2_triplanar_sharpness = 1.0
proximity_fade_enable = false
distance_fade_enable = false
_sections_unfolded = [ "Albedo", "Emission", "Flags", "Parameters" ]

[sub_resource type="Gradient" id=3]

offsets = PoolRealArray( 0, 0.122449, 0.297959, 0.620408, 0.84898, 1 )
colors = PoolColorArray( 0, 0, 0, 1, 0.122449, 0.122449, 0.122449, 1, 0.297959, 0.297959, 0.297959, 1, 0.620408, 0.620408, 0.620408, 1, 0.869388, 0.869388, 0.869388, 1, 1, 1, 1, 1 )

[sub_resource type="GradientTexture" id=4]

flags = 4
gradient = SubResource( 3 )
width = 2048

[sub_resource type="ParticlesMaterial" id=5]

render_priority = 0
trail_divisor = 1
emission_shape = 0
flag_align_y = false
flag_rotate_y = false
flag_disable_z = false
spread = 0.0
flatness = 0.0
gravity = Vector3( 0, 0, 0 )
initial_velocity = 1.0
initial_velocity_random = 0.0
angular_velocity = 0.0
angular_velocity_random = 0.0
linear_accel = 0.0
linear_accel_random = 0.0
radial_accel = 0.0
radial_accel_random = 0.0
tangential_accel = 0.0
tangential_accel_random = 0.0
damping = 0.0
damping_random = 0.0
angle = 0.0
angle_random = 0.0
scale = 0.5
scale_random = 1.0
color_ramp = SubResource( 4 )
hue_variation = 1.0
hue_variation_random = 0.91
anim_speed = 0.0
anim_speed_random = 0.0
anim_offset = 0.0
anim_offset_random = 0.0
anim_loop = false
_sections_unfolded = [ "Angle", "Color", "Damping", "Emission Shape", "Flags", "Gravity", "Hue Variation", "Initial Velocity", "Linear Accel", "Resource", "Scale", "Spread", "Trail" ]

[sub_resource type="QuadMesh" id=6]

custom_aabb = AABB( 0, 0, 0, 0, 0, 0 )
size = Vector2( 1, 1 )
_sections_unfolded = [ "Resource" ]

[node name="Particles" type="Particles"]

transform = Transform( 1, 0, 0, 0, 1, 0, 0, 0, 1, 0, 0, -6.98061 )
layers = 1
material_override = SubResource( 2 )
cast_shadow = 1
extra_cull_margin = 0.0
use_in_baked_light = false
lod_min_distance = 0.0
lod_min_hysteresis = 0.0
lod_max_distance = 0.0
lod_max_hysteresis = 0.0
emitting = true
amount = 128
lifetime = 5.0
one_shot = false
preprocess = 0.0
speed_scale = 1.0
explosiveness = 0.0
randomness = 0.0
fixed_fps = 0
fract_delta = true
visibility_aabb = AABB( -4, -0.621556, -4, 8, 5.69721, 8 )
local_coords = false
draw_order = 0
process_material = SubResource( 5 )
draw_passes = 1
draw_pass_1 = SubResource( 6 )
_sections_unfolded = [ "Draw Passes", "Drawing", "Geometry", "Process Material", "Transform" ]


